
DisplayName "Goddard"



EVENT   1
 PAGE   1
  250(bytes(0x04,0x08,0x6f,0x3a,0x0c,0x52,0x50,0x47,0x3a,0x3a,0x53,0x45,0x08,0x3a,0x0a,0x40,0x6e,0x61,0x6d,0x65,0x49,0x22,0x0a,0x4f,0x70,0x65,0x6e,0x31,0x06,0x3a,0x06,0x45,0x54,0x3a,0x0b,0x40,0x70,0x69,0x74,0x63,0x68,0x69,0x69,0x3a,0x0c,0x40,0x76,0x6f,0x6c,0x75,0x6d,0x65,0x69,0x55))
  205(0,bytes(0x04,0x08,0x6f,0x3a,0x13,0x52,0x50,0x47,0x3a,0x3a,0x4d,0x6f,0x76,0x65,0x52,0x6f,0x75,0x74,0x65,0x09,0x3a,0x0c,0x40,0x72,0x65,0x70,0x65,0x61,0x74,0x46,0x3a,0x0f,0x40,0x73,0x6b,0x69,0x70,0x70,0x61,0x62,0x6c,0x65,0x46,0x3a,0x0a,0x40,0x77,0x61,0x69,0x74,0x54,0x3a,0x0a,0x40,0x6c,0x69,0x73,0x74,0x5b,0x0c,0x6f,0x3a,0x15,0x52,0x50,0x47,0x3a,0x3a,0x4d,0x6f,0x76,0x65,0x43,0x6f,0x6d,0x6d,0x61,0x6e,0x64,0x07,0x3a,0x0a,0x40,0x63,0x6f,0x64,0x65,0x69,0x16,0x3a,0x10,0x40,0x70,0x61,0x72,0x61,0x6d,0x65,0x74,0x65,0x72,0x73,0x5b,0x00,0x6f,0x3b,0x0a,0x07,0x3b,0x0b,0x69,0x14,0x3b,0x0c,0x5b,0x06,0x69,0x08,0x6f,0x3b,0x0a,0x07,0x3b,0x0b,0x69,0x17,0x3b,0x0c,0x5b,0x00,0x6f,0x3b,0x0a,0x07,0x3b,0x0b,0x69,0x14,0x3b,0x0c,0x5b,0x06,0x69,0x08,0x6f,0x3b,0x0a,0x07,0x3b,0x0b,0x69,0x18,0x3b,0x0c,0x5b,0x00,0x6f,0x3b,0x0a,0x07,0x3b,0x0b,0x69,0x2a,0x3b,0x0c,0x5b,0x00,0x6f,0x3b,0x0a,0x07,0x3b,0x0b,0x69,0x00,0x3b,0x0c,0x5b,0x00))
  205(-1,bytes(0x04,0x08,0x6f,0x3a,0x13,0x52,0x50,0x47,0x3a,0x3a,0x4d,0x6f,0x76,0x65,0x52,0x6f,0x75,0x74,0x65,0x09,0x3a,0x0c,0x40,0x72,0x65,0x70,0x65,0x61,0x74,0x46,0x3a,0x0f,0x40,0x73,0x6b,0x69,0x70,0x70,0x61,0x62,0x6c,0x65,0x54,0x3a,0x0a,0x40,0x77,0x61,0x69,0x74,0x54,0x3a,0x0a,0x40,0x6c,0x69,0x73,0x74,0x5b,0x07,0x6f,0x3a,0x15,0x52,0x50,0x47,0x3a,0x3a,0x4d,0x6f,0x76,0x65,0x43,0x6f,0x6d,0x6d,0x61,0x6e,0x64,0x07,0x3a,0x0a,0x40,0x63,0x6f,0x64,0x65,0x69,0x11,0x3a,0x10,0x40,0x70,0x61,0x72,0x61,0x6d,0x65,0x74,0x65,0x72,0x73,0x5b,0x00,0x6f,0x3b,0x0a,0x07,0x3b,0x0b,0x69,0x00,0x3b,0x0c,0x5b,0x00))
  250(bytes(0x04,0x08,0x6f,0x3a,0x0c,0x52,0x50,0x47,0x3a,0x3a,0x53,0x45,0x08,0x3a,0x0a,0x40,0x6e,0x61,0x6d,0x65,0x49,0x22,0x09,0x4d,0x6f,0x76,0x65,0x06,0x3a,0x06,0x45,0x54,0x3a,0x0b,0x40,0x70,0x69,0x74,0x63,0x68,0x69,0x69,0x3a,0x0c,0x40,0x76,0x6f,0x6c,0x75,0x6d,0x65,0x69,0x55))
  TeleportPlayer(0,50,5,16,0,0)
  0()



EVENT   2
 PAGE   1
  250(bytes(0x04,0x08,0x6f,0x3a,0x0c,0x52,0x50,0x47,0x3a,0x3a,0x53,0x45,0x08,0x3a,0x0a,0x40,0x6e,0x61,0x6d,0x65,0x49,0x22,0x0a,0x4f,0x70,0x65,0x6e,0x31,0x06,0x3a,0x06,0x45,0x54,0x3a,0x0b,0x40,0x70,0x69,0x74,0x63,0x68,0x69,0x69,0x3a,0x0c,0x40,0x76,0x6f,0x6c,0x75,0x6d,0x65,0x69,0x55))
  205(0,bytes(0x04,0x08,0x6f,0x3a,0x13,0x52,0x50,0x47,0x3a,0x3a,0x4d,0x6f,0x76,0x65,0x52,0x6f,0x75,0x74,0x65,0x09,0x3a,0x0c,0x40,0x72,0x65,0x70,0x65,0x61,0x74,0x46,0x3a,0x0f,0x40,0x73,0x6b,0x69,0x70,0x70,0x61,0x62,0x6c,0x65,0x46,0x3a,0x0a,0x40,0x77,0x61,0x69,0x74,0x54,0x3a,0x0a,0x40,0x6c,0x69,0x73,0x74,0x5b,0x0c,0x6f,0x3a,0x15,0x52,0x50,0x47,0x3a,0x3a,0x4d,0x6f,0x76,0x65,0x43,0x6f,0x6d,0x6d,0x61,0x6e,0x64,0x07,0x3a,0x0a,0x40,0x63,0x6f,0x64,0x65,0x69,0x16,0x3a,0x10,0x40,0x70,0x61,0x72,0x61,0x6d,0x65,0x74,0x65,0x72,0x73,0x5b,0x00,0x6f,0x3b,0x0a,0x07,0x3b,0x0b,0x69,0x14,0x3b,0x0c,0x5b,0x06,0x69,0x08,0x6f,0x3b,0x0a,0x07,0x3b,0x0b,0x69,0x17,0x3b,0x0c,0x5b,0x00,0x6f,0x3b,0x0a,0x07,0x3b,0x0b,0x69,0x14,0x3b,0x0c,0x5b,0x06,0x69,0x08,0x6f,0x3b,0x0a,0x07,0x3b,0x0b,0x69,0x18,0x3b,0x0c,0x5b,0x00,0x6f,0x3b,0x0a,0x07,0x3b,0x0b,0x69,0x2a,0x3b,0x0c,0x5b,0x00,0x6f,0x3b,0x0a,0x07,0x3b,0x0b,0x69,0x00,0x3b,0x0c,0x5b,0x00))
  205(-1,bytes(0x04,0x08,0x6f,0x3a,0x13,0x52,0x50,0x47,0x3a,0x3a,0x4d,0x6f,0x76,0x65,0x52,0x6f,0x75,0x74,0x65,0x09,0x3a,0x0c,0x40,0x72,0x65,0x70,0x65,0x61,0x74,0x46,0x3a,0x0f,0x40,0x73,0x6b,0x69,0x70,0x70,0x61,0x62,0x6c,0x65,0x54,0x3a,0x0a,0x40,0x77,0x61,0x69,0x74,0x54,0x3a,0x0a,0x40,0x6c,0x69,0x73,0x74,0x5b,0x07,0x6f,0x3a,0x15,0x52,0x50,0x47,0x3a,0x3a,0x4d,0x6f,0x76,0x65,0x43,0x6f,0x6d,0x6d,0x61,0x6e,0x64,0x07,0x3a,0x0a,0x40,0x63,0x6f,0x64,0x65,0x69,0x11,0x3a,0x10,0x40,0x70,0x61,0x72,0x61,0x6d,0x65,0x74,0x65,0x72,0x73,0x5b,0x00,0x6f,0x3b,0x0a,0x07,0x3b,0x0b,0x69,0x00,0x3b,0x0c,0x5b,0x00))
  250(bytes(0x04,0x08,0x6f,0x3a,0x0c,0x52,0x50,0x47,0x3a,0x3a,0x53,0x45,0x08,0x3a,0x0a,0x40,0x6e,0x61,0x6d,0x65,0x49,0x22,0x09,0x4d,0x6f,0x76,0x65,0x06,0x3a,0x06,0x45,0x54,0x3a,0x0b,0x40,0x70,0x69,0x74,0x63,0x68,0x69,0x69,0x3a,0x0c,0x40,0x76,0x6f,0x6c,0x75,0x6d,0x65,0x69,0x55))
  TeleportPlayer(0,50,39,14,0,0)
  0()



EVENT   3
 PAGE   1
  250(bytes(0x04,0x08,0x6f,0x3a,0x0c,0x52,0x50,0x47,0x3a,0x3a,0x53,0x45,0x08,0x3a,0x0a,0x40,0x6e,0x61,0x6d,0x65,0x49,0x22,0x0a,0x4f,0x70,0x65,0x6e,0x31,0x06,0x3a,0x06,0x45,0x54,0x3a,0x0b,0x40,0x70,0x69,0x74,0x63,0x68,0x69,0x69,0x3a,0x0c,0x40,0x76,0x6f,0x6c,0x75,0x6d,0x65,0x69,0x55))
  205(0,bytes(0x04,0x08,0x6f,0x3a,0x13,0x52,0x50,0x47,0x3a,0x3a,0x4d,0x6f,0x76,0x65,0x52,0x6f,0x75,0x74,0x65,0x09,0x3a,0x0c,0x40,0x72,0x65,0x70,0x65,0x61,0x74,0x46,0x3a,0x0f,0x40,0x73,0x6b,0x69,0x70,0x70,0x61,0x62,0x6c,0x65,0x46,0x3a,0x0a,0x40,0x77,0x61,0x69,0x74,0x54,0x3a,0x0a,0x40,0x6c,0x69,0x73,0x74,0x5b,0x0c,0x6f,0x3a,0x15,0x52,0x50,0x47,0x3a,0x3a,0x4d,0x6f,0x76,0x65,0x43,0x6f,0x6d,0x6d,0x61,0x6e,0x64,0x07,0x3a,0x0a,0x40,0x63,0x6f,0x64,0x65,0x69,0x16,0x3a,0x10,0x40,0x70,0x61,0x72,0x61,0x6d,0x65,0x74,0x65,0x72,0x73,0x5b,0x00,0x6f,0x3b,0x0a,0x07,0x3b,0x0b,0x69,0x14,0x3b,0x0c,0x5b,0x06,0x69,0x08,0x6f,0x3b,0x0a,0x07,0x3b,0x0b,0x69,0x17,0x3b,0x0c,0x5b,0x00,0x6f,0x3b,0x0a,0x07,0x3b,0x0b,0x69,0x14,0x3b,0x0c,0x5b,0x06,0x69,0x08,0x6f,0x3b,0x0a,0x07,0x3b,0x0b,0x69,0x18,0x3b,0x0c,0x5b,0x00,0x6f,0x3b,0x0a,0x07,0x3b,0x0b,0x69,0x2a,0x3b,0x0c,0x5b,0x00,0x6f,0x3b,0x0a,0x07,0x3b,0x0b,0x69,0x00,0x3b,0x0c,0x5b,0x00))
  205(-1,bytes(0x04,0x08,0x6f,0x3a,0x13,0x52,0x50,0x47,0x3a,0x3a,0x4d,0x6f,0x76,0x65,0x52,0x6f,0x75,0x74,0x65,0x09,0x3a,0x0c,0x40,0x72,0x65,0x70,0x65,0x61,0x74,0x46,0x3a,0x0f,0x40,0x73,0x6b,0x69,0x70,0x70,0x61,0x62,0x6c,0x65,0x54,0x3a,0x0a,0x40,0x77,0x61,0x69,0x74,0x54,0x3a,0x0a,0x40,0x6c,0x69,0x73,0x74,0x5b,0x07,0x6f,0x3a,0x15,0x52,0x50,0x47,0x3a,0x3a,0x4d,0x6f,0x76,0x65,0x43,0x6f,0x6d,0x6d,0x61,0x6e,0x64,0x07,0x3a,0x0a,0x40,0x63,0x6f,0x64,0x65,0x69,0x11,0x3a,0x10,0x40,0x70,0x61,0x72,0x61,0x6d,0x65,0x74,0x65,0x72,0x73,0x5b,0x00,0x6f,0x3b,0x0a,0x07,0x3b,0x0b,0x69,0x00,0x3b,0x0c,0x5b,0x00))
  250(bytes(0x04,0x08,0x6f,0x3a,0x0c,0x52,0x50,0x47,0x3a,0x3a,0x53,0x45,0x08,0x3a,0x0a,0x40,0x6e,0x61,0x6d,0x65,0x49,0x22,0x09,0x4d,0x6f,0x76,0x65,0x06,0x3a,0x06,0x45,0x54,0x3a,0x0b,0x40,0x70,0x69,0x74,0x63,0x68,0x69,0x69,0x3a,0x0c,0x40,0x76,0x6f,0x6c,0x75,0x6d,0x65,0x69,0x55))
  TeleportPlayer(0,50,56,15,0,0)
  0()



EVENT   4
 PAGE   1
  If(1,1063,0,12,2)
   ShowMessageFace("",0,0,2,1)
   ShowMessage("扉には鍵がかかっている……")
   ShowMessage("中に誰かいるようだ！")
   ShowMessageFace("mob_mahousyouzyo_fc1",0,0,2,2)
   ShowMessage("\\n<？？？>旅人の方ですか？")
   ShowMessage("この町は……いえ、この地域は危険です。")
   ShowMessageFace("mob_mahousyouzyo_fc1",0,0,2,3)
   ShowMessage("\\n<？？？>一刻も早く、ここから離れた方がいいですよ。")
   ShowMessage("淫気が濃すぎて、私も外に出られなくなってしまったんです。")
   If(0,4,0)
    ShowMessageFace("alice_fc5",0,0,2,4)
    ShowMessage("\\n<Alice>この家の住人、魔導の心得があるらしいな。")
    ShowMessage("だが今は、互いに状況を改善する事が出来ん……")
    0()
   EndIf()
   If(0,5,0)
    ShowMessageFace("iriasu_fc4",2,0,2,5)
    ShowMessage("\\n<Ilias>この家の住人は、魔導の心得があるようですね。")
    ShowMessage("しかし今は、互いに状況を改善できません……")
    0()
   EndIf()
   EndEventProcessing()
   0()
  EndIf()
  If(1,1063,0,13,1)
   250(bytes(0x04,0x08,0x6f,0x3a,0x0c,0x52,0x50,0x47,0x3a,0x3a,0x53,0x45,0x08,0x3a,0x0a,0x40,0x6e,0x61,0x6d,0x65,0x49,0x22,0x0a,0x4f,0x70,0x65,0x6e,0x31,0x06,0x3a,0x06,0x45,0x54,0x3a,0x0b,0x40,0x70,0x69,0x74,0x63,0x68,0x69,0x69,0x3a,0x0c,0x40,0x76,0x6f,0x6c,0x75,0x6d,0x65,0x69,0x55))
   205(0,bytes(0x04,0x08,0x6f,0x3a,0x13,0x52,0x50,0x47,0x3a,0x3a,0x4d,0x6f,0x76,0x65,0x52,0x6f,0x75,0x74,0x65,0x09,0x3a,0x0c,0x40,0x72,0x65,0x70,0x65,0x61,0x74,0x46,0x3a,0x0f,0x40,0x73,0x6b,0x69,0x70,0x70,0x61,0x62,0x6c,0x65,0x46,0x3a,0x0a,0x40,0x77,0x61,0x69,0x74,0x54,0x3a,0x0a,0x40,0x6c,0x69,0x73,0x74,0x5b,0x0c,0x6f,0x3a,0x15,0x52,0x50,0x47,0x3a,0x3a,0x4d,0x6f,0x76,0x65,0x43,0x6f,0x6d,0x6d,0x61,0x6e,0x64,0x07,0x3a,0x0a,0x40,0x63,0x6f,0x64,0x65,0x69,0x16,0x3a,0x10,0x40,0x70,0x61,0x72,0x61,0x6d,0x65,0x74,0x65,0x72,0x73,0x5b,0x00,0x6f,0x3b,0x0a,0x07,0x3b,0x0b,0x69,0x14,0x3b,0x0c,0x5b,0x06,0x69,0x08,0x6f,0x3b,0x0a,0x07,0x3b,0x0b,0x69,0x17,0x3b,0x0c,0x5b,0x00,0x6f,0x3b,0x0a,0x07,0x3b,0x0b,0x69,0x14,0x3b,0x0c,0x5b,0x06,0x69,0x08,0x6f,0x3b,0x0a,0x07,0x3b,0x0b,0x69,0x18,0x3b,0x0c,0x5b,0x00,0x6f,0x3b,0x0a,0x07,0x3b,0x0b,0x69,0x2a,0x3b,0x0c,0x5b,0x00,0x6f,0x3b,0x0a,0x07,0x3b,0x0b,0x69,0x00,0x3b,0x0c,0x5b,0x00))
   205(-1,bytes(0x04,0x08,0x6f,0x3a,0x13,0x52,0x50,0x47,0x3a,0x3a,0x4d,0x6f,0x76,0x65,0x52,0x6f,0x75,0x74,0x65,0x09,0x3a,0x0c,0x40,0x72,0x65,0x70,0x65,0x61,0x74,0x46,0x3a,0x0f,0x40,0x73,0x6b,0x69,0x70,0x70,0x61,0x62,0x6c,0x65,0x54,0x3a,0x0a,0x40,0x77,0x61,0x69,0x74,0x54,0x3a,0x0a,0x40,0x6c,0x69,0x73,0x74,0x5b,0x07,0x6f,0x3a,0x15,0x52,0x50,0x47,0x3a,0x3a,0x4d,0x6f,0x76,0x65,0x43,0x6f,0x6d,0x6d,0x61,0x6e,0x64,0x07,0x3a,0x0a,0x40,0x63,0x6f,0x64,0x65,0x69,0x11,0x3a,0x10,0x40,0x70,0x61,0x72,0x61,0x6d,0x65,0x74,0x65,0x72,0x73,0x5b,0x00,0x6f,0x3b,0x0a,0x07,0x3b,0x0b,0x69,0x00,0x3b,0x0c,0x5b,0x00))
   250(bytes(0x04,0x08,0x6f,0x3a,0x0c,0x52,0x50,0x47,0x3a,0x3a,0x53,0x45,0x08,0x3a,0x0a,0x40,0x6e,0x61,0x6d,0x65,0x49,0x22,0x09,0x4d,0x6f,0x76,0x65,0x06,0x3a,0x06,0x45,0x54,0x3a,0x0b,0x40,0x70,0x69,0x74,0x63,0x68,0x69,0x69,0x3a,0x0c,0x40,0x76,0x6f,0x6c,0x75,0x6d,0x65,0x69,0x55))
   TeleportPlayer(0,50,5,38,0,0)
   0()
  EndIf()
  0()



EVENT   5
 PAGE   1
  250(bytes(0x04,0x08,0x6f,0x3a,0x0c,0x52,0x50,0x47,0x3a,0x3a,0x53,0x45,0x08,0x3a,0x0a,0x40,0x6e,0x61,0x6d,0x65,0x49,0x22,0x0a,0x4f,0x70,0x65,0x6e,0x31,0x06,0x3a,0x06,0x45,0x54,0x3a,0x0b,0x40,0x70,0x69,0x74,0x63,0x68,0x69,0x69,0x3a,0x0c,0x40,0x76,0x6f,0x6c,0x75,0x6d,0x65,0x69,0x55))
  205(0,bytes(0x04,0x08,0x6f,0x3a,0x13,0x52,0x50,0x47,0x3a,0x3a,0x4d,0x6f,0x76,0x65,0x52,0x6f,0x75,0x74,0x65,0x09,0x3a,0x0c,0x40,0x72,0x65,0x70,0x65,0x61,0x74,0x46,0x3a,0x0f,0x40,0x73,0x6b,0x69,0x70,0x70,0x61,0x62,0x6c,0x65,0x46,0x3a,0x0a,0x40,0x77,0x61,0x69,0x74,0x54,0x3a,0x0a,0x40,0x6c,0x69,0x73,0x74,0x5b,0x0c,0x6f,0x3a,0x15,0x52,0x50,0x47,0x3a,0x3a,0x4d,0x6f,0x76,0x65,0x43,0x6f,0x6d,0x6d,0x61,0x6e,0x64,0x07,0x3a,0x0a,0x40,0x63,0x6f,0x64,0x65,0x69,0x16,0x3a,0x10,0x40,0x70,0x61,0x72,0x61,0x6d,0x65,0x74,0x65,0x72,0x73,0x5b,0x00,0x6f,0x3b,0x0a,0x07,0x3b,0x0b,0x69,0x14,0x3b,0x0c,0x5b,0x06,0x69,0x08,0x6f,0x3b,0x0a,0x07,0x3b,0x0b,0x69,0x17,0x3b,0x0c,0x5b,0x00,0x6f,0x3b,0x0a,0x07,0x3b,0x0b,0x69,0x14,0x3b,0x0c,0x5b,0x06,0x69,0x08,0x6f,0x3b,0x0a,0x07,0x3b,0x0b,0x69,0x18,0x3b,0x0c,0x5b,0x00,0x6f,0x3b,0x0a,0x07,0x3b,0x0b,0x69,0x2a,0x3b,0x0c,0x5b,0x00,0x6f,0x3b,0x0a,0x07,0x3b,0x0b,0x69,0x00,0x3b,0x0c,0x5b,0x00))
  205(-1,bytes(0x04,0x08,0x6f,0x3a,0x13,0x52,0x50,0x47,0x3a,0x3a,0x4d,0x6f,0x76,0x65,0x52,0x6f,0x75,0x74,0x65,0x09,0x3a,0x0c,0x40,0x72,0x65,0x70,0x65,0x61,0x74,0x46,0x3a,0x0f,0x40,0x73,0x6b,0x69,0x70,0x70,0x61,0x62,0x6c,0x65,0x54,0x3a,0x0a,0x40,0x77,0x61,0x69,0x74,0x54,0x3a,0x0a,0x40,0x6c,0x69,0x73,0x74,0x5b,0x07,0x6f,0x3a,0x15,0x52,0x50,0x47,0x3a,0x3a,0x4d,0x6f,0x76,0x65,0x43,0x6f,0x6d,0x6d,0x61,0x6e,0x64,0x07,0x3a,0x0a,0x40,0x63,0x6f,0x64,0x65,0x69,0x11,0x3a,0x10,0x40,0x70,0x61,0x72,0x61,0x6d,0x65,0x74,0x65,0x72,0x73,0x5b,0x00,0x6f,0x3b,0x0a,0x07,0x3b,0x0b,0x69,0x00,0x3b,0x0c,0x5b,0x00))
  250(bytes(0x04,0x08,0x6f,0x3a,0x0c,0x52,0x50,0x47,0x3a,0x3a,0x53,0x45,0x08,0x3a,0x0a,0x40,0x6e,0x61,0x6d,0x65,0x49,0x22,0x09,0x4d,0x6f,0x76,0x65,0x06,0x3a,0x06,0x45,0x54,0x3a,0x0b,0x40,0x70,0x69,0x74,0x63,0x68,0x69,0x69,0x3a,0x0c,0x40,0x76,0x6f,0x6c,0x75,0x6d,0x65,0x69,0x55))
  TeleportPlayer(0,50,30,38,0,0)
  0()



EVENT   6
 PAGE   1
  250(bytes(0x04,0x08,0x6f,0x3a,0x0c,0x52,0x50,0x47,0x3a,0x3a,0x53,0x45,0x08,0x3a,0x0a,0x40,0x6e,0x61,0x6d,0x65,0x49,0x22,0x0a,0x4f,0x70,0x65,0x6e,0x31,0x06,0x3a,0x06,0x45,0x54,0x3a,0x0b,0x40,0x70,0x69,0x74,0x63,0x68,0x69,0x69,0x3a,0x0c,0x40,0x76,0x6f,0x6c,0x75,0x6d,0x65,0x69,0x55))
  205(0,bytes(0x04,0x08,0x6f,0x3a,0x13,0x52,0x50,0x47,0x3a,0x3a,0x4d,0x6f,0x76,0x65,0x52,0x6f,0x75,0x74,0x65,0x09,0x3a,0x0c,0x40,0x72,0x65,0x70,0x65,0x61,0x74,0x46,0x3a,0x0f,0x40,0x73,0x6b,0x69,0x70,0x70,0x61,0x62,0x6c,0x65,0x46,0x3a,0x0a,0x40,0x77,0x61,0x69,0x74,0x54,0x3a,0x0a,0x40,0x6c,0x69,0x73,0x74,0x5b,0x0c,0x6f,0x3a,0x15,0x52,0x50,0x47,0x3a,0x3a,0x4d,0x6f,0x76,0x65,0x43,0x6f,0x6d,0x6d,0x61,0x6e,0x64,0x07,0x3a,0x0a,0x40,0x63,0x6f,0x64,0x65,0x69,0x16,0x3a,0x10,0x40,0x70,0x61,0x72,0x61,0x6d,0x65,0x74,0x65,0x72,0x73,0x5b,0x00,0x6f,0x3b,0x0a,0x07,0x3b,0x0b,0x69,0x14,0x3b,0x0c,0x5b,0x06,0x69,0x08,0x6f,0x3b,0x0a,0x07,0x3b,0x0b,0x69,0x17,0x3b,0x0c,0x5b,0x00,0x6f,0x3b,0x0a,0x07,0x3b,0x0b,0x69,0x14,0x3b,0x0c,0x5b,0x06,0x69,0x08,0x6f,0x3b,0x0a,0x07,0x3b,0x0b,0x69,0x18,0x3b,0x0c,0x5b,0x00,0x6f,0x3b,0x0a,0x07,0x3b,0x0b,0x69,0x2a,0x3b,0x0c,0x5b,0x00,0x6f,0x3b,0x0a,0x07,0x3b,0x0b,0x69,0x00,0x3b,0x0c,0x5b,0x00))
  205(-1,bytes(0x04,0x08,0x6f,0x3a,0x13,0x52,0x50,0x47,0x3a,0x3a,0x4d,0x6f,0x76,0x65,0x52,0x6f,0x75,0x74,0x65,0x09,0x3a,0x0c,0x40,0x72,0x65,0x70,0x65,0x61,0x74,0x46,0x3a,0x0f,0x40,0x73,0x6b,0x69,0x70,0x70,0x61,0x62,0x6c,0x65,0x54,0x3a,0x0a,0x40,0x77,0x61,0x69,0x74,0x54,0x3a,0x0a,0x40,0x6c,0x69,0x73,0x74,0x5b,0x07,0x6f,0x3a,0x15,0x52,0x50,0x47,0x3a,0x3a,0x4d,0x6f,0x76,0x65,0x43,0x6f,0x6d,0x6d,0x61,0x6e,0x64,0x07,0x3a,0x0a,0x40,0x63,0x6f,0x64,0x65,0x69,0x11,0x3a,0x10,0x40,0x70,0x61,0x72,0x61,0x6d,0x65,0x74,0x65,0x72,0x73,0x5b,0x00,0x6f,0x3b,0x0a,0x07,0x3b,0x0b,0x69,0x00,0x3b,0x0c,0x5b,0x00))
  250(bytes(0x04,0x08,0x6f,0x3a,0x0c,0x52,0x50,0x47,0x3a,0x3a,0x53,0x45,0x08,0x3a,0x0a,0x40,0x6e,0x61,0x6d,0x65,0x49,0x22,0x09,0x4d,0x6f,0x76,0x65,0x06,0x3a,0x06,0x45,0x54,0x3a,0x0b,0x40,0x70,0x69,0x74,0x63,0x68,0x69,0x69,0x3a,0x0c,0x40,0x76,0x6f,0x6c,0x75,0x6d,0x65,0x69,0x55))
  TeleportPlayer(0,50,6,66,0,0)
  0()



EVENT   7
 PAGE   1
  250(bytes(0x04,0x08,0x6f,0x3a,0x0c,0x52,0x50,0x47,0x3a,0x3a,0x53,0x45,0x08,0x3a,0x0a,0x40,0x6e,0x61,0x6d,0x65,0x49,0x22,0x09,0x4d,0x6f,0x76,0x65,0x06,0x3a,0x06,0x45,0x54,0x3a,0x0b,0x40,0x70,0x69,0x74,0x63,0x68,0x69,0x69,0x3a,0x0c,0x40,0x76,0x6f,0x6c,0x75,0x6d,0x65,0x69,0x55))
  TeleportPlayer(0,2,221,175,2,0)
  0()



EVENT   8
 PAGE   1
  250(bytes(0x04,0x08,0x6f,0x3a,0x0c,0x52,0x50,0x47,0x3a,0x3a,0x53,0x45,0x08,0x3a,0x0a,0x40,0x6e,0x61,0x6d,0x65,0x49,0x22,0x09,0x4d,0x6f,0x76,0x65,0x06,0x3a,0x06,0x45,0x54,0x3a,0x0b,0x40,0x70,0x69,0x74,0x63,0x68,0x69,0x69,0x3a,0x0c,0x40,0x76,0x6f,0x6c,0x75,0x6d,0x65,0x69,0x55))
  TeleportPlayer(0,2,221,175,2,0)
  0()



EVENT   9
 PAGE   1
  250(bytes(0x04,0x08,0x6f,0x3a,0x0c,0x52,0x50,0x47,0x3a,0x3a,0x53,0x45,0x08,0x3a,0x0a,0x40,0x6e,0x61,0x6d,0x65,0x49,0x22,0x09,0x4d,0x6f,0x76,0x65,0x06,0x3a,0x06,0x45,0x54,0x3a,0x0b,0x40,0x70,0x69,0x74,0x63,0x68,0x69,0x69,0x3a,0x0c,0x40,0x76,0x6f,0x6c,0x75,0x6d,0x65,0x69,0x55))
  TeleportPlayer(0,2,221,175,2,0)
  0()



EVENT   10
 PAGE   1
  250(bytes(0x04,0x08,0x6f,0x3a,0x0c,0x52,0x50,0x47,0x3a,0x3a,0x53,0x45,0x08,0x3a,0x0a,0x40,0x6e,0x61,0x6d,0x65,0x49,0x22,0x09,0x4d,0x6f,0x76,0x65,0x06,0x3a,0x06,0x45,0x54,0x3a,0x0b,0x40,0x70,0x69,0x74,0x63,0x68,0x69,0x69,0x3a,0x0c,0x40,0x76,0x6f,0x6c,0x75,0x6d,0x65,0x69,0x55))
  TeleportPlayer(0,2,221,175,2,0)
  0()



EVENT   11
 PAGE   1
  250(bytes(0x04,0x08,0x6f,0x3a,0x0c,0x52,0x50,0x47,0x3a,0x3a,0x53,0x45,0x08,0x3a,0x0a,0x40,0x6e,0x61,0x6d,0x65,0x49,0x22,0x09,0x4d,0x6f,0x76,0x65,0x06,0x3a,0x06,0x45,0x54,0x3a,0x0b,0x40,0x70,0x69,0x74,0x63,0x68,0x69,0x69,0x3a,0x0c,0x40,0x76,0x6f,0x6c,0x75,0x6d,0x65,0x69,0x55))
  TeleportPlayer(0,2,221,175,2,0)
  0()



EVENT   12
 PAGE   1
  250(bytes(0x04,0x08,0x6f,0x3a,0x0c,0x52,0x50,0x47,0x3a,0x3a,0x53,0x45,0x08,0x3a,0x0a,0x40,0x6e,0x61,0x6d,0x65,0x49,0x22,0x09,0x4d,0x6f,0x76,0x65,0x06,0x3a,0x06,0x45,0x54,0x3a,0x0b,0x40,0x70,0x69,0x74,0x63,0x68,0x69,0x69,0x3a,0x0c,0x40,0x76,0x6f,0x6c,0x75,0x6d,0x65,0x69,0x55))
  TeleportPlayer(0,2,221,175,2,0)
  0()



EVENT   13
 PAGE   1
  250(bytes(0x04,0x08,0x6f,0x3a,0x0c,0x52,0x50,0x47,0x3a,0x3a,0x53,0x45,0x08,0x3a,0x0a,0x40,0x6e,0x61,0x6d,0x65,0x49,0x22,0x09,0x4d,0x6f,0x76,0x65,0x06,0x3a,0x06,0x45,0x54,0x3a,0x0b,0x40,0x70,0x69,0x74,0x63,0x68,0x69,0x69,0x3a,0x0c,0x40,0x76,0x6f,0x6c,0x75,0x6d,0x65,0x69,0x55))
  TeleportPlayer(0,2,221,175,2,0)
  0()



EVENT   14
 PAGE   1
  250(bytes(0x04,0x08,0x6f,0x3a,0x0c,0x52,0x50,0x47,0x3a,0x3a,0x53,0x45,0x08,0x3a,0x0a,0x40,0x6e,0x61,0x6d,0x65,0x49,0x22,0x09,0x4d,0x6f,0x76,0x65,0x06,0x3a,0x06,0x45,0x54,0x3a,0x0b,0x40,0x70,0x69,0x74,0x63,0x68,0x69,0x69,0x3a,0x0c,0x40,0x76,0x6f,0x6c,0x75,0x6d,0x65,0x69,0x55))
  TeleportPlayer(0,2,221,175,2,0)
  0()



EVENT   15
 PAGE   1
  250(bytes(0x04,0x08,0x6f,0x3a,0x0c,0x52,0x50,0x47,0x3a,0x3a,0x53,0x45,0x08,0x3a,0x0a,0x40,0x6e,0x61,0x6d,0x65,0x49,0x22,0x09,0x4d,0x6f,0x76,0x65,0x06,0x3a,0x06,0x45,0x54,0x3a,0x0b,0x40,0x70,0x69,0x74,0x63,0x68,0x69,0x69,0x3a,0x0c,0x40,0x76,0x6f,0x6c,0x75,0x6d,0x65,0x69,0x55))
  TeleportPlayer(0,2,221,175,2,0)
  0()



EVENT   16
 PAGE   1
  250(bytes(0x04,0x08,0x6f,0x3a,0x0c,0x52,0x50,0x47,0x3a,0x3a,0x53,0x45,0x08,0x3a,0x0a,0x40,0x6e,0x61,0x6d,0x65,0x49,0x22,0x09,0x4d,0x6f,0x76,0x65,0x06,0x3a,0x06,0x45,0x54,0x3a,0x0b,0x40,0x70,0x69,0x74,0x63,0x68,0x69,0x69,0x3a,0x0c,0x40,0x76,0x6f,0x6c,0x75,0x6d,0x65,0x69,0x55))
  TeleportPlayer(0,2,221,175,2,0)
  0()



EVENT   17
 PAGE   1
  250(bytes(0x04,0x08,0x6f,0x3a,0x0c,0x52,0x50,0x47,0x3a,0x3a,0x53,0x45,0x08,0x3a,0x0a,0x40,0x6e,0x61,0x6d,0x65,0x49,0x22,0x09,0x4d,0x6f,0x76,0x65,0x06,0x3a,0x06,0x45,0x54,0x3a,0x0b,0x40,0x70,0x69,0x74,0x63,0x68,0x69,0x69,0x3a,0x0c,0x40,0x76,0x6f,0x6c,0x75,0x6d,0x65,0x69,0x55))
  TeleportPlayer(0,2,221,175,2,0)
  0()



EVENT   18
 PAGE   1
  250(bytes(0x04,0x08,0x6f,0x3a,0x0c,0x52,0x50,0x47,0x3a,0x3a,0x53,0x45,0x08,0x3a,0x0a,0x40,0x6e,0x61,0x6d,0x65,0x49,0x22,0x09,0x4d,0x6f,0x76,0x65,0x06,0x3a,0x06,0x45,0x54,0x3a,0x0b,0x40,0x70,0x69,0x74,0x63,0x68,0x69,0x69,0x3a,0x0c,0x40,0x76,0x6f,0x6c,0x75,0x6d,0x65,0x69,0x55))
  TeleportPlayer(0,2,221,175,2,0)
  0()



EVENT   19
 PAGE   1
  250(bytes(0x04,0x08,0x6f,0x3a,0x0c,0x52,0x50,0x47,0x3a,0x3a,0x53,0x45,0x08,0x3a,0x0a,0x40,0x6e,0x61,0x6d,0x65,0x49,0x22,0x09,0x4d,0x6f,0x76,0x65,0x06,0x3a,0x06,0x45,0x54,0x3a,0x0b,0x40,0x70,0x69,0x74,0x63,0x68,0x69,0x69,0x3a,0x0c,0x40,0x76,0x6f,0x6c,0x75,0x6d,0x65,0x69,0x55))
  TeleportPlayer(0,2,221,175,2,0)
  0()



EVENT   20
 PAGE   1
  250(bytes(0x04,0x08,0x6f,0x3a,0x0c,0x52,0x50,0x47,0x3a,0x3a,0x53,0x45,0x08,0x3a,0x0a,0x40,0x6e,0x61,0x6d,0x65,0x49,0x22,0x09,0x4d,0x6f,0x76,0x65,0x06,0x3a,0x06,0x45,0x54,0x3a,0x0b,0x40,0x70,0x69,0x74,0x63,0x68,0x69,0x69,0x3a,0x0c,0x40,0x76,0x6f,0x6c,0x75,0x6d,0x65,0x69,0x55))
  TeleportPlayer(0,2,221,175,2,0)
  0()



EVENT   21
 PAGE   1
  250(bytes(0x04,0x08,0x6f,0x3a,0x0c,0x52,0x50,0x47,0x3a,0x3a,0x53,0x45,0x08,0x3a,0x0a,0x40,0x6e,0x61,0x6d,0x65,0x49,0x22,0x09,0x4d,0x6f,0x76,0x65,0x06,0x3a,0x06,0x45,0x54,0x3a,0x0b,0x40,0x70,0x69,0x74,0x63,0x68,0x69,0x69,0x3a,0x0c,0x40,0x76,0x6f,0x6c,0x75,0x6d,0x65,0x69,0x55))
  TeleportPlayer(0,2,221,175,2,0)
  0()



EVENT   22
 PAGE   1
  250(bytes(0x04,0x08,0x6f,0x3a,0x0c,0x52,0x50,0x47,0x3a,0x3a,0x53,0x45,0x08,0x3a,0x0a,0x40,0x6e,0x61,0x6d,0x65,0x49,0x22,0x09,0x4d,0x6f,0x76,0x65,0x06,0x3a,0x06,0x45,0x54,0x3a,0x0b,0x40,0x70,0x69,0x74,0x63,0x68,0x69,0x69,0x3a,0x0c,0x40,0x76,0x6f,0x6c,0x75,0x6d,0x65,0x69,0x55))
  TeleportPlayer(0,2,221,175,2,0)
  0()



EVENT   23
 PAGE   1
  250(bytes(0x04,0x08,0x6f,0x3a,0x0c,0x52,0x50,0x47,0x3a,0x3a,0x53,0x45,0x08,0x3a,0x0a,0x40,0x6e,0x61,0x6d,0x65,0x49,0x22,0x09,0x4d,0x6f,0x76,0x65,0x06,0x3a,0x06,0x45,0x54,0x3a,0x0b,0x40,0x70,0x69,0x74,0x63,0x68,0x69,0x69,0x3a,0x0c,0x40,0x76,0x6f,0x6c,0x75,0x6d,0x65,0x69,0x55))
  TeleportPlayer(0,2,221,175,2,0)
  0()



EVENT   24
 PAGE   1
  250(bytes(0x04,0x08,0x6f,0x3a,0x0c,0x52,0x50,0x47,0x3a,0x3a,0x53,0x45,0x08,0x3a,0x0a,0x40,0x6e,0x61,0x6d,0x65,0x49,0x22,0x09,0x4d,0x6f,0x76,0x65,0x06,0x3a,0x06,0x45,0x54,0x3a,0x0b,0x40,0x70,0x69,0x74,0x63,0x68,0x69,0x69,0x3a,0x0c,0x40,0x76,0x6f,0x6c,0x75,0x6d,0x65,0x69,0x55))
  TeleportPlayer(0,2,221,175,2,0)
  0()



EVENT   25
 PAGE   1
  250(bytes(0x04,0x08,0x6f,0x3a,0x0c,0x52,0x50,0x47,0x3a,0x3a,0x53,0x45,0x08,0x3a,0x0a,0x40,0x6e,0x61,0x6d,0x65,0x49,0x22,0x09,0x4d,0x6f,0x76,0x65,0x06,0x3a,0x06,0x45,0x54,0x3a,0x0b,0x40,0x70,0x69,0x74,0x63,0x68,0x69,0x69,0x3a,0x0c,0x40,0x76,0x6f,0x6c,0x75,0x6d,0x65,0x69,0x55))
  TeleportPlayer(0,2,221,175,2,0)
  0()



EVENT   26
 PAGE   1
  250(bytes(0x04,0x08,0x6f,0x3a,0x0c,0x52,0x50,0x47,0x3a,0x3a,0x53,0x45,0x08,0x3a,0x0a,0x40,0x6e,0x61,0x6d,0x65,0x49,0x22,0x09,0x4d,0x6f,0x76,0x65,0x06,0x3a,0x06,0x45,0x54,0x3a,0x0b,0x40,0x70,0x69,0x74,0x63,0x68,0x69,0x69,0x3a,0x0c,0x40,0x76,0x6f,0x6c,0x75,0x6d,0x65,0x69,0x55))
  TeleportPlayer(0,2,221,175,2,0)
  0()



EVENT   27
 PAGE   1
  250(bytes(0x04,0x08,0x6f,0x3a,0x0c,0x52,0x50,0x47,0x3a,0x3a,0x53,0x45,0x08,0x3a,0x0a,0x40,0x6e,0x61,0x6d,0x65,0x49,0x22,0x09,0x4d,0x6f,0x76,0x65,0x06,0x3a,0x06,0x45,0x54,0x3a,0x0b,0x40,0x70,0x69,0x74,0x63,0x68,0x69,0x69,0x3a,0x0c,0x40,0x76,0x6f,0x6c,0x75,0x6d,0x65,0x69,0x55))
  TeleportPlayer(0,2,221,175,2,0)
  0()



EVENT   28
 PAGE   1
  250(bytes(0x04,0x08,0x6f,0x3a,0x0c,0x52,0x50,0x47,0x3a,0x3a,0x53,0x45,0x08,0x3a,0x0a,0x40,0x6e,0x61,0x6d,0x65,0x49,0x22,0x09,0x4d,0x6f,0x76,0x65,0x06,0x3a,0x06,0x45,0x54,0x3a,0x0b,0x40,0x70,0x69,0x74,0x63,0x68,0x69,0x69,0x3a,0x0c,0x40,0x76,0x6f,0x6c,0x75,0x6d,0x65,0x69,0x55))
  TeleportPlayer(0,2,221,175,2,0)
  0()



EVENT   29
 PAGE   1
  250(bytes(0x04,0x08,0x6f,0x3a,0x0c,0x52,0x50,0x47,0x3a,0x3a,0x53,0x45,0x08,0x3a,0x0a,0x40,0x6e,0x61,0x6d,0x65,0x49,0x22,0x09,0x4d,0x6f,0x76,0x65,0x06,0x3a,0x06,0x45,0x54,0x3a,0x0b,0x40,0x70,0x69,0x74,0x63,0x68,0x69,0x69,0x3a,0x0c,0x40,0x76,0x6f,0x6c,0x75,0x6d,0x65,0x69,0x55))
  TeleportPlayer(0,2,221,175,2,0)
  0()



EVENT   30
 PAGE   1
  250(bytes(0x04,0x08,0x6f,0x3a,0x0c,0x52,0x50,0x47,0x3a,0x3a,0x53,0x45,0x08,0x3a,0x0a,0x40,0x6e,0x61,0x6d,0x65,0x49,0x22,0x09,0x4d,0x6f,0x76,0x65,0x06,0x3a,0x06,0x45,0x54,0x3a,0x0b,0x40,0x70,0x69,0x74,0x63,0x68,0x69,0x69,0x3a,0x0c,0x40,0x76,0x6f,0x6c,0x75,0x6d,0x65,0x69,0x55))
  TeleportPlayer(0,2,221,175,2,0)
  0()



EVENT   31
 PAGE   1
  250(bytes(0x04,0x08,0x6f,0x3a,0x0c,0x52,0x50,0x47,0x3a,0x3a,0x53,0x45,0x08,0x3a,0x0a,0x40,0x6e,0x61,0x6d,0x65,0x49,0x22,0x09,0x4d,0x6f,0x76,0x65,0x06,0x3a,0x06,0x45,0x54,0x3a,0x0b,0x40,0x70,0x69,0x74,0x63,0x68,0x69,0x69,0x3a,0x0c,0x40,0x76,0x6f,0x6c,0x75,0x6d,0x65,0x69,0x55))
  TeleportPlayer(0,2,221,175,2,0)
  0()



EVENT   32
 PAGE   1
  241(bytes(0x04,0x08,0x6f,0x3a,0x0d,0x52,0x50,0x47,0x3a,0x3a,0x42,0x47,0x4d,0x08,0x3a,0x0a,0x40,0x6e,0x61,0x6d,0x65,0x49,0x22,0x0a,0x6d,0x75,0x72,0x61,0x33,0x06,0x3a,0x06,0x45,0x54,0x3a,0x0c,0x40,0x76,0x6f,0x6c,0x75,0x6d,0x65,0x69,0x69,0x3a,0x0b,0x40,0x70,0x69,0x74,0x63,0x68,0x69,0x69))
  If(0,4,0)
   ShowMessageFace("alice_fc5",0,0,2,1)
   ShowMessage("\\n<Alice>All right, now that we're in Goddard, our next step is making contact with the spy at the town bar.")
   ShowMessageFace("alice_fc6",0,0,2,2)
   ShowMessage("\\n<Alice>Hmm... Is there not an impure aura permeating this entire town? I don't see how a normal human could stay sane for long here...")
   0()
  EndIf()
  If(0,5,0)
   ShowMessageFace("iriasu_fc4",0,0,2,3)
   ShowMessage("\\n<Ilias>We have arrived in Goddard.\nAccording to the plan, we should make contact with the spy at the bar.")
   ShowMessageFace("iriasu_fc4",2,0,2,4)
   ShowMessage("\\n<Ilias>Hmm... What's with this impure aura hanging over the whole town? I doubt a normal human could retain their sanity here...")
   0()
  EndIf()
  If(0,6,0)
   ShowMessageFace("sonia_fc2",2,0,2,5)
   ShowMessage("\\n<Sonya>You're right... I can feel my mind spacing out, ever so slightly.")
   0()
  EndIf()
  If(4,163,0)
   ShowMessageFace("lily_fc1",5,0,2,6)
   ShowMessage("\\n<Lily>It feels like a seduction spell...\nThe source of it is rather far from here, though.")
   0()
  EndIf()
  ShowMessageFace("ruka_fc1",0,0,2,7)
  ShowMessage("\\n<Luka>I'm getting the creeps just being here...\nWe better hurry to the bar and meet the spy.")
  ChangeVariable(1063,1063,0,0,5)
  EndEventProcessing()
  0()
 PAGE   2
  // condition: variable 1063 >= 5
  0()
 PAGE   3
  // condition: variable 1078 >= 1
  If(0,4,0)
   ShowMessageFace("alice_fc5",0,0,2,1)
   ShowMessage("\\n<Alice>それでは、問題の儀式を遂行する者を探すとしよう。")
   ShowMessage("魔法少女を選抜する以上、現在の魔法少女が関わっているはずだ。")
   0()
  EndIf()
  If(0,5,0)
   ShowMessageFace("iriasu_fc4",2,0,2,2)
   ShowMessage("\\n<Ilias>それでは、問題の儀式を進める者を探しましょう。")
   ShowMessage("現役の魔法少女が、儀式の進行役を果たすはずです。")
   0()
  EndIf()
  If(0,6,0)
   ShowMessageFace("sonia_fc1",2,0,2,3)
   ShowMessage("\\n<Sonya>魔法少女の選抜かぁ。")
   ShowMessage("もしかして、私が選ばれたりとか……")
   ShowMessageFace("sonia_fc4",0,0,2,4)
   ShowMessage("\\n<Sonya>……っと、危険な儀式なんだよね。")
   If(0,4,0)
    ShowMessageFace("alice_fc5",2,0,2,5)
    ShowMessage("\\n<Alice>人心を惑わし怨念を拡散するとして、母上が禁じた程だ。")
    ShowMessage("阻止するべく、魔王軍からの刺客が来てもおかしくないのだぞ。")
    0()
   EndIf()
   If(0,5,0)
    ShowMessageFace("iriasu_fc4",2,0,2,6)
    ShowMessage("\\n<Ilias>忌まわしい先代魔王でさえ、怨念にまみれた禁術としたのです。")
    ShowMessage("阻止のため、魔王軍から刺客が放たれてもおかしくないのですよ……")
    0()
   EndIf()
   ShowMessageFace("ruka_fc1",0,0,2,7)
   ShowMessage("\\n<Luka>そんなに危険な儀式なのか……")
   ShowMessage("なんとしても、阻止しないと！")
   0()
  EndIf()
  ChangeSelfSwitch("A",0)
  0()
 PAGE   4
  // condition: self-switch A is ON
  0()



EVENT   33
 PAGE   1
  If(1,1082,0,2,0)
   ShowMessageFace("grangold_fc2",1,0,2,1)
   ShowMessage("\\n<King of Grangold>我は王……汝らの王……")
   ShowMessageFace("",0,0,2,2)
   ShowMessage("\\n<Youth>うわー！　バケモノだー！！")
   250(bytes(0x04,0x08,0x6f,0x3a,0x0c,0x52,0x50,0x47,0x3a,0x3a,0x53,0x45,0x08,0x3a,0x0a,0x40,0x6e,0x61,0x6d,0x65,0x49,0x22,0x0f,0x6d,0x6f,0x6e,0x5f,0x65,0x73,0x63,0x61,0x70,0x65,0x06,0x3a,0x06,0x45,0x54,0x3a,0x0b,0x40,0x70,0x69,0x74,0x63,0x68,0x69,0x69,0x3a,0x0c,0x40,0x76,0x6f,0x6c,0x75,0x6d,0x65,0x69,0x69))
   221()
   ShowMessageFace("",0,0,2,3)
   ShowMessage("青年は逃げ出した！")
   ChangeSwitch(2285,2285,0)
   222()
   ChangeVariable(1087,1087,1,0,1)
   RunCommonEvent(361)
   EndEventProcessing()
   0()
  EndIf()
  If(1,1063,0,12,2)
   ShowMessageFace("",0,0,2,4)
   ShowMessage("\\n<Youth>Eheheh... My queen...")
   If(0,6,0)
    ShowMessageFace("sonia_fc3",2,0,2,5)
    ShowMessage("\\n<Sonya>The town has a pervert by the entrance!!\nDon't tell me this is another pervert hangout like Pornof!")
    0()
   Else()
    ShowMessageFace("ruka_fc1",0,0,2,6)
    ShowMessage("\\n<Luka>What's with this guy? Some perv?")
    0()
   EndIf()
   If(0,4,0)
    ShowMessageFace("alice_fc5",2,0,2,7)
    ShowMessage("\\n<Alice>No, he's gone mad from the impure aura. It's probably the work of the queen he's talking about.")
    0()
   EndIf()
   If(0,5,0)
    ShowMessageFace("iriasu_fc4",7,0,2,8)
    ShowMessage("\\n<Ilias>No, he's gone mad from the impure aura. It's probably the work of the queen he's talking about.")
    0()
   EndIf()
   ShowMessageFace("",0,0,2,9)
   ShowMessage("\\n<Youth>I'll take you whenever... With my queen, too...")
   0()
  EndIf()
  If(1,1063,0,13,1)
   ShowMessageFace("",0,0,2,10)
   ShowMessage("\\n<Youth>Welcome to the stronghold town of Goddard! Where would you like to go?")
   0()
  EndIf()
  355("unlimited_choices(11, [\"Inn\",")
  655("\"Accessory Shop-Blacksmith\",\"Item Shop\",")
  655("\"Bar\",\"Church\",\"Nowhere\"])")
  If(1,11,0,0,0)
   TeleportPlayer(0,49,37,32,2,0)
   EndEventProcessing()
   0()
  EndIf()
  If(1,11,0,1,0)
   TeleportPlayer(0,49,10,14,2,0)
   EndEventProcessing()
   0()
  EndIf()
  If(1,11,0,2,0)
   TeleportPlayer(0,49,40,19,2,0)
   EndEventProcessing()
   0()
  EndIf()
  If(1,11,0,3,0)
   TeleportPlayer(0,49,28,17,2,0)
   EndEventProcessing()
   0()
  EndIf()
  If(1,11,0,4,0)
   TeleportPlayer(0,49,6,17,2,0)
   EndEventProcessing()
   0()
  EndIf()
  If(1,11,0,5,0)
   EndEventProcessing()
   0()
  EndIf()
  0()
 PAGE   2
  // condition: switch 2285 is ON
  0()



EVENT   34
 PAGE   1
  // condition: switch 1540 is ON
  // condition: variable 1063 >= 13
  241(bytes(0x04,0x08,0x6f,0x3a,0x0d,0x52,0x50,0x47,0x3a,0x3a,0x42,0x47,0x4d,0x08,0x3a,0x0a,0x40,0x6e,0x61,0x6d,0x65,0x49,0x22,0x0a,0x61,0x6d,0x69,0x72,0x61,0x06,0x3a,0x06,0x45,0x54,0x3a,0x0c,0x40,0x76,0x6f,0x6c,0x75,0x6d,0x65,0x69,0x69,0x3a,0x0b,0x40,0x70,0x69,0x74,0x63,0x68,0x69,0x69))
  If(2,"A",1)
   ChangeSelfSwitch("A",0)
   RunCommonEvent(322)
   0()
  Else()
   ShowMessageFace("amira_fc1",0,0,2,1)
   ShowMessage("\\n<Amira>このアミラは、もう見つけたわ。")
   ShowMessage("別のアミラを探して……")
   0()
  EndIf()
  241(bytes(0x04,0x08,0x6f,0x3a,0x0d,0x52,0x50,0x47,0x3a,0x3a,0x42,0x47,0x4d,0x08,0x3a,0x0a,0x40,0x6e,0x61,0x6d,0x65,0x49,0x22,0x0a,0x63,0x69,0x74,0x79,0x31,0x06,0x3a,0x06,0x45,0x54,0x3a,0x0c,0x40,0x76,0x6f,0x6c,0x75,0x6d,0x65,0x69,0x69,0x3a,0x0b,0x40,0x70,0x69,0x74,0x63,0x68,0x69,0x69))
  EndEventProcessing()
  0()
 PAGE   2
  // condition: party contains actor #540
  0()



EVENT   35
 PAGE   1
  If(1,1082,0,2,0)
   ShowMessageFace("grangold_fc2",1,0,2,1)
   ShowMessage("\\n<King of Grangold>心安らかに、汝等は神の庇護にあり……")
   ShowMessageFace("",0,0,2,2)
   ShowMessage("\\n<神父>ひぃぃぃぃ！　イリアス様、お助けをー！！")
   250(bytes(0x04,0x08,0x6f,0x3a,0x0c,0x52,0x50,0x47,0x3a,0x3a,0x53,0x45,0x08,0x3a,0x0a,0x40,0x6e,0x61,0x6d,0x65,0x49,0x22,0x0f,0x6d,0x6f,0x6e,0x5f,0x65,0x73,0x63,0x61,0x70,0x65,0x06,0x3a,0x06,0x45,0x54,0x3a,0x0b,0x40,0x70,0x69,0x74,0x63,0x68,0x69,0x69,0x3a,0x0c,0x40,0x76,0x6f,0x6c,0x75,0x6d,0x65,0x69,0x69))
   221()
   ChangeSwitch(2299,2299,0)
   ShowMessageFace("",0,0,2,3)
   ShowMessage("神父は逃げ出した！")
   222()
   ChangeVariable(1087,1087,1,0,1)
   RunCommonEvent(361)
   EndEventProcessing()
   0()
  EndIf()
  If(1,1063,0,12,2)
   ShowMessageFace("",0,0,2,4)
   ShowMessage("\\n<神父>お、王妃さまぁ……")
   ShowMessage("ぬぐぐ……いや、信仰を忘れてなるものか……")
   ShowChoices(strings("Pray","Nothing"),2)
   IfPlayerPicksChoice(0,null)
    ChangeVariable(1002,1002,0,0,29)
    ShowMessageFace("",0,0,2,5)
    ShowMessage("\\n<神父>導きの縁……")
    ShowMessage("あぁぁ……王妃様に、導かれたい……")
    ShowMessageFace("",0,0,2,6)
    ShowMessage("\\n<神父>はぅぅ……")
    0()
   IfPlayerPicksChoice(1,null)
    ShowMessageFace("",0,0,2,7)
    ShowMessage("\\n<神父>王妃様ぁ……いや、イリアス様ぁ……")
    0()
   404()
   EndEventProcessing()
   0()
  EndIf()
  If(1,1063,0,13,1)
   ShowMessageFace("",0,0,2,8)
   ShowMessage("\\n<神父>日の当たらない教会にようこそ。")
   ShowMessage("何のご用ですかな？")
   ShowChoices(strings("Pray","Nothing"),2)
   IfPlayerPicksChoice(0,null)
    ChangeVariable(1002,1002,0,0,29)
    ShowMessageFace("",0,0,2,9)
    ShowMessage("\\n<Priest>Well then, let us pray to Ilias. ...there, you should feel a bond drawing you to this place.")
    ShowMessageFace("",0,0,2,10)
    ShowMessage("\\n<Priest>If something were to happen to you on your journey, the bond should lead you back here. May Ilias watch over you...")
    0()
   IfPlayerPicksChoice(1,null)
    ShowMessageFace("",0,0,2,11)
    ShowMessage("\\n<Priest>May Ilias watch over you...")
    0()
   404()
   EndEventProcessing()
   0()
  EndIf()
  0()
 PAGE   2
  // condition: switch 2299 is ON
  0()



EVENT   36
 PAGE   1
  If(1,1082,0,2,0)
   ShowMessageFace("grangold_fc2",1,0,2,1)
   ShowMessage("\\n<King of Grangold>その口より出ずる美譜、我が心を揺らす……")
   ShowMessageFace("",0,0,2,2)
   ShowMessage("\\n<詩人>アヒー！　おたすけー！")
   250(bytes(0x04,0x08,0x6f,0x3a,0x0c,0x52,0x50,0x47,0x3a,0x3a,0x53,0x45,0x08,0x3a,0x0a,0x40,0x6e,0x61,0x6d,0x65,0x49,0x22,0x0f,0x6d,0x6f,0x6e,0x5f,0x65,0x73,0x63,0x61,0x70,0x65,0x06,0x3a,0x06,0x45,0x54,0x3a,0x0b,0x40,0x70,0x69,0x74,0x63,0x68,0x69,0x69,0x3a,0x0c,0x40,0x76,0x6f,0x6c,0x75,0x6d,0x65,0x69,0x69))
   221()
   ChangeSwitch(2296,2296,0)
   ShowMessageFace("",0,0,2,3)
   ShowMessage("詩人は逃げ出した！")
   222()
   ChangeVariable(1087,1087,1,0,1)
   RunCommonEvent(361)
   EndEventProcessing()
   0()
  EndIf()
  If(1,1063,0,12,2)
   ShowMessageFace("",0,0,2,4)
   ShowMessage("\\n<詩人>王妃様のために歌を捧げましょう……")
   ShowMessage("ああ、麗しの王妃様……")
   EndEventProcessing()
   0()
  EndIf()
  If(1,1063,0,13,1)
   ShowMessageFace("",0,0,2,5)
   ShowMessage("\\n<詩人>誘惑されていた時の気持ちを、詩にしました。")
   ShowMessage("ああ、麗しの王妃様……ルルル。")
   EndEventProcessing()
   0()
  EndIf()
  0()
 PAGE   2
  // condition: switch 2296 is ON
  0()



EVENT   37
 PAGE   1
  If(1,1082,0,2,0)
   ShowMessageFace("grangold_fc2",1,0,2,1)
   ShowMessage("\\n<King of Grangold>我が民……天より差す光の下に……")
   ShowMessageFace("",0,0,2,2)
   ShowMessage("\\n<Man>な、な、な……なんだー！？")
   250(bytes(0x04,0x08,0x6f,0x3a,0x0c,0x52,0x50,0x47,0x3a,0x3a,0x53,0x45,0x08,0x3a,0x0a,0x40,0x6e,0x61,0x6d,0x65,0x49,0x22,0x0f,0x6d,0x6f,0x6e,0x5f,0x65,0x73,0x63,0x61,0x70,0x65,0x06,0x3a,0x06,0x45,0x54,0x3a,0x0b,0x40,0x70,0x69,0x74,0x63,0x68,0x69,0x69,0x3a,0x0c,0x40,0x76,0x6f,0x6c,0x75,0x6d,0x65,0x69,0x69))
   221()
   ChangeSwitch(2302,2302,0)
   ShowMessageFace("",0,0,2,3)
   ShowMessage("男は逃げ出した！")
   222()
   ChangeVariable(1087,1087,1,0,1)
   RunCommonEvent(361)
   EndEventProcessing()
   0()
  EndIf()
  If(1,1063,0,12,2)
   ShowMessageFace("",0,0,2,4)
   ShowMessage("\\n<Man>王妃様ぁ……あぁぁぁぁ……")
   If(0,4,0)
    ShowMessageFace("alice_fc6",0,0,2,5)
    ShowMessage("\\n<Alice>完全に骨抜き状態だな。")
    ShowMessage("まさか、住人全てがこうなってしまったのでは……")
    0()
   EndIf()
   If(0,5,0)
    ShowMessageFace("iriasu_fc4",7,0,2,6)
    ShowMessage("\\n<Ilias>淫気によって、完全に心が乱されていますね。")
    ShowMessage("まさか、町の者はみなこの状態なのでは……")
    0()
   EndIf()
   EndEventProcessing()
   0()
  EndIf()
  If(1,1063,0,13,1)
   ShowMessageFace("",0,0,2,7)
   ShowMessage("\\n<Man>いやぁ、散々だったよ。")
   ShowMessage("理性を失っていた時、この道をあてなく彷徨していたみたいだ……")
   ShowMessageFace("",0,0,2,8)
   ShowMessage("\\n<Man>……まあ、理性のある今でも結局は同じだよな。")
   ShowMessage("世の中って、そういうものだよ。")
   355("actor_label_jump")
   EndEventProcessing()
   DefineLabel("241")
   ShowMessageFace("a_emp_fc1",2,0,2,9)
   ShowMessage("\\n<Priestess>嫌な事を言いますね……")
   EndEventProcessing()
   DefineLabel("242")
   ShowMessageFace("a_emp_fc1",4,0,2,10)
   ShowMessage("\\n<Priestess>フフッ。")
   EndEventProcessing()
   0()
  EndIf()
  0()
 PAGE   2
  // condition: switch 2302 is ON
  0()



EVENT   38
 PAGE   1
  If(1,1082,0,2,0)
   ShowMessageFace("grangold_fc2",1,0,2,1)
   ShowMessage("\\n<King of Grangold>我は誓う……この地に、楽園を……")
   ShowMessageFace("",0,0,2,2)
   ShowMessage("\\n<若い男>ひゃぁっ！　ラスボスが攻めてきたー！！")
   250(bytes(0x04,0x08,0x6f,0x3a,0x0c,0x52,0x50,0x47,0x3a,0x3a,0x53,0x45,0x08,0x3a,0x0a,0x40,0x6e,0x61,0x6d,0x65,0x49,0x22,0x0f,0x6d,0x6f,0x6e,0x5f,0x65,0x73,0x63,0x61,0x70,0x65,0x06,0x3a,0x06,0x45,0x54,0x3a,0x0b,0x40,0x70,0x69,0x74,0x63,0x68,0x69,0x69,0x3a,0x0c,0x40,0x76,0x6f,0x6c,0x75,0x6d,0x65,0x69,0x69))
   221()
   ChangeSwitch(2286,2286,0)
   ShowMessageFace("",0,0,2,3)
   ShowMessage("若い男は逃げ出した！")
   222()
   ChangeVariable(1087,1087,1,0,1)
   RunCommonEvent(361)
   EndEventProcessing()
   0()
  EndIf()
  If(1,1063,0,12,2)
   ShowMessageFace("",0,0,2,4)
   ShowMessage("\\n<若い男>うへへ……王妃様……")
   ShowMessage("うへへ……うへへ……")
   If(0,4,0)
    ShowMessageFace("alice_fc6",0,0,2,5)
    ShowMessage("\\n<Alice>ほとんどゾンビだな……")
    0()
   EndIf()
   If(0,5,0)
    ShowMessageFace("iriasu_fc4",2,0,2,6)
    ShowMessage("\\n<Ilias>もはや生ける屍ですね……")
    0()
   EndIf()
   If(0,6,0)
    ShowMessageFace("sonia_fc2",2,0,2,7)
    ShowMessage("\\n<Sonya>これで生きていけるの……？")
    ShowMessage("でも、この状態になってから結構長いのよね。")
    0()
   EndIf()
   EndEventProcessing()
   0()
  EndIf()
  If(1,1063,0,13,1)
   ShowMessageFace("",0,0,2,8)
   ShowMessage("\\n<若い男>理性を失っていた間に、太ってしまいました。")
   ShowMessage("どうも、普段より多く食事を取り過ぎていたようで……")
   ShowMessageFace("",0,0,2,9)
   ShowMessage("\\n<若い男>みんな理性を失っていたのに、流通は問題なく回っていたんです。")
   ShowMessage("記憶も残っていないのに、なんだか不思議ですよね……")
   If(0,4,0)
    ShowMessageFace("alice_fc5",0,0,2,10)
    ShowMessage("\\n<Alice>理性を奪いつつ、労働は行わせる……")
    ShowMessage("凄まじいものだな、玉藻の幻惑魔術というのは。")
    0()
   EndIf()
   If(0,5,0)
    ShowMessageFace("iriasu_fc4",2,0,2,11)
    ShowMessage("\\n<Ilias>理性を奪いつつ、国家が破綻しないだけの労働は行わせていたのです。")
    ShowMessage("ここまでの芸当が可能な者は、天使にもいません……")
    0()
   EndIf()
   EndEventProcessing()
   0()
  EndIf()
  0()
 PAGE   2
  // condition: switch 2286 is ON
  0()



EVENT   39
 PAGE   1
  If(1,1082,0,2,0)
   ShowMessageFace("grangold_fc2",1,0,2,1)
   ShowMessage("\\n<King of Grangold>民よ……ああ、愛すべき民よ……")
   ShowMessageFace("",0,0,2,2)
   ShowMessage("\\n<あらくれ>た、助けてくれー！！")
   250(bytes(0x04,0x08,0x6f,0x3a,0x0c,0x52,0x50,0x47,0x3a,0x3a,0x53,0x45,0x08,0x3a,0x0a,0x40,0x6e,0x61,0x6d,0x65,0x49,0x22,0x0f,0x6d,0x6f,0x6e,0x5f,0x65,0x73,0x63,0x61,0x70,0x65,0x06,0x3a,0x06,0x45,0x54,0x3a,0x0b,0x40,0x70,0x69,0x74,0x63,0x68,0x69,0x69,0x3a,0x0c,0x40,0x76,0x6f,0x6c,0x75,0x6d,0x65,0x69,0x69))
   221()
   ChangeSwitch(2287,2287,0)
   ShowMessageFace("",0,0,2,3)
   ShowMessage("あらくれは逃げ出した！")
   222()
   ChangeVariable(1087,1087,1,0,1)
   RunCommonEvent(361)
   EndEventProcessing()
   0()
  EndIf()
  If(1,1063,0,12,2)
   ShowMessageFace("",0,0,2,4)
   ShowMessage("\\n<あらくれ>あぁぁ……王妃様が耳元で囁いてるぅぅぅ……")
   EndEventProcessing()
   0()
  EndIf()
  If(1,1063,0,13,1)
   ShowMessageFace("",0,0,2,5)
   ShowMessage("\\n<あらくれ>誘惑されてた間、ほとんど記憶が飛んでるんだけどな……")
   ShowMessage("王妃様が激シコだったのは覚えてるぜ。")
   ShowMessageFace("",0,0,2,6)
   ShowMessage("\\n<あらくれ>あんなのに吸い尽くされるのは、男の夢だよなぁ……")
   ShowMessage("あぁぁぁ……王妃様ぁ……")
   355("actor_label_jump")
   EndEventProcessing()
   DefineLabel("5")
   ShowMessageFace("alice_fc5",0,0,2,7)
   ShowMessage("\\n<Alice>エロめ……")
   EndEventProcessing()
   0()
  EndIf()
  0()
 PAGE   2
  // condition: switch 2287 is ON
  0()



EVENT   40
 PAGE   1
  If(1,1082,0,2,0)
   ShowMessageFace("grangold_fc2",1,0,2,1)
   ShowMessage("\\n<King of Grangold>王国の民、その見上げるが先に栄光を……")
   ShowMessageFace("",0,0,2,2)
   ShowMessage("\\n<Man>うわぁぁ！　魔王の襲撃だー！！")
   250(bytes(0x04,0x08,0x6f,0x3a,0x0c,0x52,0x50,0x47,0x3a,0x3a,0x53,0x45,0x08,0x3a,0x0a,0x40,0x6e,0x61,0x6d,0x65,0x49,0x22,0x0f,0x6d,0x6f,0x6e,0x5f,0x65,0x73,0x63,0x61,0x70,0x65,0x06,0x3a,0x06,0x45,0x54,0x3a,0x0b,0x40,0x70,0x69,0x74,0x63,0x68,0x69,0x69,0x3a,0x0c,0x40,0x76,0x6f,0x6c,0x75,0x6d,0x65,0x69,0x69))
   221()
   ChangeSwitch(2298,2298,0)
   ShowMessageFace("",0,0,2,3)
   ShowMessage("男は逃げ出した！")
   222()
   ChangeVariable(1087,1087,1,0,1)
   RunCommonEvent(361)
   EndEventProcessing()
   0()
  EndIf()
  If(1,1063,0,12,2)
   ShowMessageFace("",0,0,2,4)
   ShowMessage("\\n<Man>王妃様の声がぁ……声がぁ……")
   EndEventProcessing()
   0()
  EndIf()
  If(1,1063,0,13,1)
   ShowMessageFace("",0,0,2,5)
   ShowMessage("\\n<Man>魔王の宣戦布告なんて、恐れちゃいない。")
   ShowMessage("きっと例の勇者が、魔王を打ち倒してくれるのさ。")
   EndEventProcessing()
   0()
  EndIf()
  0()
 PAGE   2
  // condition: switch 2298 is ON
  0()



EVENT   41
 PAGE   1
  If(1,1082,0,2,0)
   ShowMessageFace("grangold_fc2",1,0,2,1)
   ShowMessage("\\n<King of Grangold>汝の槍、悪を貫く事を我に誓わん……")
   ShowMessageFace("",0,0,2,2)
   ShowMessage("\\n<Soldier>き、緊急事態！　至急、援軍を！！")
   250(bytes(0x04,0x08,0x6f,0x3a,0x0c,0x52,0x50,0x47,0x3a,0x3a,0x53,0x45,0x08,0x3a,0x0a,0x40,0x6e,0x61,0x6d,0x65,0x49,0x22,0x0f,0x6d,0x6f,0x6e,0x5f,0x65,0x73,0x63,0x61,0x70,0x65,0x06,0x3a,0x06,0x45,0x54,0x3a,0x0b,0x40,0x70,0x69,0x74,0x63,0x68,0x69,0x69,0x3a,0x0c,0x40,0x76,0x6f,0x6c,0x75,0x6d,0x65,0x69,0x69))
   221()
   ChangeSwitch(2290,2290,0)
   ShowMessageFace("",0,0,2,3)
   ShowMessage("兵士は援軍要請に向かった！")
   222()
   ChangeVariable(1087,1087,1,0,1)
   RunCommonEvent(361)
   EndEventProcessing()
   0()
  EndIf()
  If(1,1063,0,12,2)
   ShowMessageFace("",0,0,2,4)
   ShowMessage("\\n<Soldier>王妃様の香りが……あぁぁぁぁぁ……")
   EndEventProcessing()
   0()
  EndIf()
  If(1,1063,0,13,1)
   ShowMessageFace("",0,0,2,5)
   ShowMessage("\\n<Soldier>東の大毒沼のさらに東には、ゴルド海岸があります。")
   ShowMessage("危険な海の魔物が出没しますのでご注意を。")
   ShowMessageFace("",0,0,2,6)
   ShowMessage("\\n<Soldier>そこに海底神殿への道があるという伝承を聞きましたが……")
   ShowMessage("確か、酒場にいる男が詳しいはずですよ。")
   EndEventProcessing()
   0()
  EndIf()
  0()
 PAGE   2
  // condition: switch 2290 is ON
  0()



EVENT   42
 PAGE   1
  If(1,1082,0,2,0)
   ShowMessageFace("grangold_fc2",1,0,2,1)
   ShowMessage("\\n<King of Grangold>いざ知らん、兵は剣にして盾なり……")
   ShowMessageFace("",0,0,2,2)
   ShowMessage("\\n<Soldier>よ、妖魔の襲撃……！？　これは私一人では太刀打ちできん！！")
   250(bytes(0x04,0x08,0x6f,0x3a,0x0c,0x52,0x50,0x47,0x3a,0x3a,0x53,0x45,0x08,0x3a,0x0a,0x40,0x6e,0x61,0x6d,0x65,0x49,0x22,0x0f,0x6d,0x6f,0x6e,0x5f,0x65,0x73,0x63,0x61,0x70,0x65,0x06,0x3a,0x06,0x45,0x54,0x3a,0x0b,0x40,0x70,0x69,0x74,0x63,0x68,0x69,0x69,0x3a,0x0c,0x40,0x76,0x6f,0x6c,0x75,0x6d,0x65,0x69,0x69))
   221()
   ChangeSwitch(2293,2293,0)
   ShowMessageFace("",0,0,2,3)
   ShowMessage("兵士は援軍要請に向かった！")
   222()
   ChangeVariable(1087,1087,1,0,1)
   RunCommonEvent(361)
   EndEventProcessing()
   0()
  EndIf()
  If(1,1063,0,12,2)
   ShowMessageFace("",0,0,2,4)
   ShowMessage("\\n<Soldier>王妃様にばんざぁぁい！")
   ShowMessage("ばぁぁんざぁぁぁぁぁぁい！")
   EndEventProcessing()
   0()
  EndIf()
  If(1,1063,0,13,1)
   ShowMessageFace("",0,0,2,5)
   ShowMessage("\\n<Soldier>戦争の終結に万歳！　万歳！")
   ShowMessage("……戦時中の記憶が、全くないんですけどね。")
   EndEventProcessing()
   0()
  EndIf()
  0()
 PAGE   2
  // condition: switch 2293 is ON
  0()



EVENT   43
 PAGE   1
  If(1,1063,0,12,2)
   ShowMessageFace("",0,0,2,1)
   ShowMessage("\\n<Young Girl>あたしね、あたしね……")
   ShowMessage("アタマの中、ドロドロ……")
   EndEventProcessing()
   0()
  EndIf()
  If(1,1063,0,13,1)
   ShowMessageFace("",0,0,2,2)
   ShowMessage("\\n<Young Girl>あたし、魔法少女になるの！")
   ShowMessage("不思議な魔法、びゅびゅーん♪")
   355("actor_label_jump")
   EndEventProcessing()
   DefineLabel("525")
   ShowMessageFace("sonia_fc1",0,0,2,3)
   ShowMessage("\\n<Sonya>私も小さい頃、魔法少女に憧れたなぁ……")
   ShowMessageFace("ruka_fc1",0,0,2,4)
   ShowMessage("\\n<Luka>（棍棒で世界を制する、と言っていた記憶しかない……）")
   EndEventProcessing()
   0()
  EndIf()
  0()
 PAGE   2
  // condition: variable 1087 >= 2
  0()
 PAGE   3
  // condition: switch 2303 is ON
  217()
  ShowMessageFace("grangold_fc2",1,0,2,1)
  ShowMessage("\\n<King of Grangold>少女よ、汝もまた我が身に威を受けるか……？")
  ShowMessageFace("",0,0,2,2)
  ShowMessage("\\n<Young Girl>きゃぁっ！　たすけてー！")
  205(0,bytes(0x04,0x08,0x6f,0x3a,0x13,0x52,0x50,0x47,0x3a,0x3a,0x4d,0x6f,0x76,0x65,0x52,0x6f,0x75,0x74,0x65,0x09,0x3a,0x0c,0x40,0x72,0x65,0x70,0x65,0x61,0x74,0x46,0x3a,0x0f,0x40,0x73,0x6b,0x69,0x70,0x70,0x61,0x62,0x6c,0x65,0x54,0x3a,0x0a,0x40,0x77,0x61,0x69,0x74,0x54,0x3a,0x0a,0x40,0x6c,0x69,0x73,0x74,0x5b,0x0a,0x6f,0x3a,0x15,0x52,0x50,0x47,0x3a,0x3a,0x4d,0x6f,0x76,0x65,0x43,0x6f,0x6d,0x6d,0x61,0x6e,0x64,0x07,0x3a,0x0a,0x40,0x63,0x6f,0x64,0x65,0x69,0x2a,0x3a,0x10,0x40,0x70,0x61,0x72,0x61,0x6d,0x65,0x74,0x65,0x72,0x73,0x5b,0x00,0x6f,0x3b,0x0a,0x07,0x3b,0x0b,0x69,0x1f,0x3b,0x0c,0x5b,0x00,0x6f,0x3b,0x0a,0x07,0x3b,0x0b,0x69,0x11,0x3b,0x0c,0x5b,0x00,0x6f,0x3b,0x0a,0x07,0x3b,0x0b,0x69,0x16,0x3b,0x0c,0x5b,0x00,0x6f,0x3b,0x0a,0x07,0x3b,0x0b,0x69,0x00,0x3b,0x0c,0x5b,0x00))
  250(bytes(0x04,0x08,0x6f,0x3a,0x0c,0x52,0x50,0x47,0x3a,0x3a,0x53,0x45,0x08,0x3a,0x0a,0x40,0x6e,0x61,0x6d,0x65,0x49,0x22,0x0f,0x6d,0x6f,0x6e,0x5f,0x64,0x61,0x6d,0x61,0x67,0x65,0x06,0x3a,0x06,0x45,0x54,0x3a,0x0b,0x40,0x70,0x69,0x74,0x63,0x68,0x69,0x69,0x3a,0x0c,0x40,0x76,0x6f,0x6c,0x75,0x6d,0x65,0x69,0x69))
  ChangeSwitch(31,31,0)
  ShowMessageFace("",0,0,2,3)
  ShowMessage("\\n<Young Girl>きゃっ！")
  ShowMessageFace("",0,0,2,4)
  ShowMessage("少女はつまづいて転んでしまった！")
  ShowMessageFace("",0,0,2,5)
  ShowMessage("\\n<Young Girl>いたた……ひざ、すりむいちゃった……")
  ShowMessageFace("grangold_fc2",1,0,2,6)
  ShowMessage("\\n<King of Grangold>……大丈夫か？")
  ShowMessage("安らかなる命の風よ、傷を癒やせ……")
  212(0,46,true)
  ChangeSwitch(31,31,1)
  ShowMessageFace("",0,0,2,7)
  ShowMessage("少女のケガが癒やされた！")
  205(0,bytes(0x04,0x08,0x6f,0x3a,0x13,0x52,0x50,0x47,0x3a,0x3a,0x4d,0x6f,0x76,0x65,0x52,0x6f,0x75,0x74,0x65,0x09,0x3a,0x0c,0x40,0x72,0x65,0x70,0x65,0x61,0x74,0x46,0x3a,0x0f,0x40,0x73,0x6b,0x69,0x70,0x70,0x61,0x62,0x6c,0x65,0x46,0x3a,0x0a,0x40,0x77,0x61,0x69,0x74,0x54,0x3a,0x0a,0x40,0x6c,0x69,0x73,0x74,0x5b,0x07,0x6f,0x3a,0x15,0x52,0x50,0x47,0x3a,0x3a,0x4d,0x6f,0x76,0x65,0x43,0x6f,0x6d,0x6d,0x61,0x6e,0x64,0x07,0x3a,0x0a,0x40,0x63,0x6f,0x64,0x65,0x69,0x1e,0x3a,0x10,0x40,0x70,0x61,0x72,0x61,0x6d,0x65,0x74,0x65,0x72,0x73,0x5b,0x00,0x6f,0x3b,0x0a,0x07,0x3b,0x0b,0x69,0x00,0x3b,0x0c,0x5b,0x00))
  ShowMessageFace("grangold_fc2",1,0,2,8)
  ShowMessage("\\n<King of Grangold>次からは、気を付けよ……")
  ShowMessageFace("",0,0,2,9)
  ShowMessage("\\n<Young Girl>……………………")
  ShowMessageFace("",0,0,2,10)
  ShowMessage("\\n<Young Girl>もしかして……王様？")
  ShowMessageFace("grangold_fc2",1,0,2,11)
  ShowMessage("\\n<King of Grangold>なぜ……そう思うのだ？")
  ShowMessageFace("",0,0,2,12)
  ShowMessage("\\n<Young Girl>ずっと前、私がもっと小さい時……")
  ShowMessage("王様のパレードがこの町に来たの……")
  221()
  Wait(60)
  211(0)
  TeleportPlayer(0,752,0,0,0,2)
  222()
  0()
 PAGE   4
  // condition: switch 31 is ON
  0()
 PAGE   5
  // condition: switch 2305 is ON
  241(bytes(0x04,0x08,0x6f,0x3a,0x0d,0x52,0x50,0x47,0x3a,0x3a,0x42,0x47,0x4d,0x08,0x3a,0x0a,0x40,0x6e,0x61,0x6d,0x65,0x49,0x22,0x13,0x73,0x63,0x65,0x6e,0x65,0x5f,0x6f,0x64,0x61,0x79,0x61,0x6b,0x61,0x32,0x06,0x3a,0x06,0x45,0x54,0x3a,0x0c,0x40,0x76,0x6f,0x6c,0x75,0x6d,0x65,0x69,0x69,0x3a,0x0b,0x40,0x70,0x69,0x74,0x63,0x68,0x69,0x69))
  Wait(60)
  ShowMessageFace("grangold_fc2",1,0,2,1)
  ShowMessage("\\n<King of Grangold>……遠き日に、そのような事もあったな……")
  ShowMessageFace("",0,0,2,2)
  ShowMessage("\\n<Young Girl>王様……なんで、そんな姿になっちゃったの？")
  ShowMessage("悪い魔法使いに、魔法をかけられたの？")
  ShowMessageFace("grangold_fc2",1,0,2,3)
  ShowMessage("\\n<King of Grangold>まあ、そんなところだ……")
  ShowMessage("少女よ、私が怖いか……？")
  ShowMessageFace("",0,0,2,4)
  ShowMessage("\\n<Young Girl>最初はびっくりしちゃったけど、怖くないよ！")
  ShowMessage("だって、王様だもん！")
  ShowMessageFace("grangold_fc2",1,0,2,5)
  ShowMessage("\\n<King of Grangold>……………………")
  ShowMessageFace("sonia_fc1",4,0,2,6)
  ShowMessage("\\n<Sonya>……みんな、分かってくれますよ。")
  ShowMessage("王様は、王様だってこと。")
  If(0,4,0)
   ShowMessageFace("alice_fc5",1,0,2,7)
   ShowMessage("\\n<Alice>最初は戸惑いや拒絶もあろうが……")
   ShowMessage("王として尽力すれば、それを覆すのも無理ではあるまい。")
   0()
  EndIf()
  If(0,5,0)
   ShowMessageFace("iriasu_fc4",0,0,2,8)
   ShowMessage("\\n<Ilias>最初は拒絶されても、民はすぐに見慣れてしまいますよ。")
   ShowMessage("あれだけ私が魔物との交わりを禁じても、繋がりは断てなかったのです。")
   0()
  EndIf()
  241(bytes(0x04,0x08,0x6f,0x3a,0x0d,0x52,0x50,0x47,0x3a,0x3a,0x42,0x47,0x4d,0x08,0x3a,0x0a,0x40,0x6e,0x61,0x6d,0x65,0x49,0x22,0x14,0x73,0x63,0x65,0x6e,0x65,0x5f,0x65,0x70,0x69,0x6c,0x6f,0x67,0x75,0x65,0x32,0x06,0x3a,0x06,0x45,0x54,0x3a,0x0c,0x40,0x76,0x6f,0x6c,0x75,0x6d,0x65,0x69,0x69,0x3a,0x0b,0x40,0x70,0x69,0x74,0x63,0x68,0x69,0x69))
  ShowMessageFace("grangold_fc2",1,0,2,9)
  ShowMessage("\\n<King of Grangold>重要なのは……これから先、何を為すか。")
  ShowMessage("王として力を尽くせば、民も認めてくれるだろう。")
  ShowMessageFace("grangold_fc2",1,0,2,10)
  ShowMessage("\\n<King of Grangold>私はもう、迷う事はない……")
  ShowMessage("この国と、民と、そして世界のために！")
  ShowMessageFace("",0,0,2,11)
  ShowMessage("グランゴルド王は決意を固めた！")
  318(0,535,0,454)
  318(0,535,0,457)
  250(bytes(0x04,0x08,0x6f,0x3a,0x0c,0x52,0x50,0x47,0x3a,0x3a,0x53,0x45,0x08,0x3a,0x0a,0x40,0x6e,0x61,0x6d,0x65,0x49,0x22,0x0a,0x49,0x74,0x65,0x6d,0x31,0x06,0x3a,0x06,0x45,0x54,0x3a,0x0b,0x40,0x70,0x69,0x74,0x63,0x68,0x69,0x69,0x3a,0x0c,0x40,0x76,0x6f,0x6c,0x75,0x6d,0x65,0x69,0x55))
  ShowMessageFace("",0,0,2,12)
  ShowMessage("グランゴルド王は\\I[100]\\C[1]魔力40%アップ\\C[0]を修得した！")
  ShowMessage("グランゴルド王は\\I[100]\\C[1]MP消費1/2\\C[0]を修得した！")
  If(0,4,0)
   ShowMessageFace("alice_fc5",1,0,2,13)
   ShowMessage("\\n<Alice>……それでは、旅を続けるとしよう。")
   ShowMessage("平和にならねば、始まらんからな。")
   0()
  EndIf()
  If(0,5,0)
   ShowMessageFace("iriasu_fc4",0,0,2,14)
   ShowMessage("\\n<Ilias>……それでは、旅を続けるとしましょう。")
   ShowMessage("平和が来なければ、始まりませんからね。")
   0()
  EndIf()
  ShowMessageFace("grangold_fc2",1,0,2,15)
  ShowMessage("\\n<King of Grangold>ああ、行こう！")
  ShowMessageFace("grangold_fc2",1,0,2,16)
  ShowMessage("\\n<King of Grangold>……そこはそれとして、イメージアップ戦略は必要だね。")
  ShowMessage("後で宣伝相と相談しておこうか……")
  ShowMessageFace("sonia_fc2",2,0,2,17)
  ShowMessage("\\n<Sonya>そこは抜け目ないんだ……")
  Wait(60)
  221()
  ChangeSwitch(2285,2305,1)
  ChangeVariable(1082,1082,0,0,3)
  322(535,"$Grandgoldo02_cip",0,"grangold_fc2",0)
  Wait(60)
  TeleportPlayer(0,2,221,176,2,2)
  222()
  355("gain_medal(2105)")
  EndEventProcessing()
  0()



EVENT   44
 PAGE   1
  If(1,1082,0,2,0)
   ShowMessageFace("grangold_fc2",1,0,2,1)
   ShowMessage("\\n<King of Grangold>我は導く……汝等を、光の差す方に……")
   ShowMessageFace("",0,0,2,2)
   ShowMessage("\\n<Youth>うわぁぁ！　バケモノだぁ――！！")
   250(bytes(0x04,0x08,0x6f,0x3a,0x0c,0x52,0x50,0x47,0x3a,0x3a,0x53,0x45,0x08,0x3a,0x0a,0x40,0x6e,0x61,0x6d,0x65,0x49,0x22,0x0f,0x6d,0x6f,0x6e,0x5f,0x65,0x73,0x63,0x61,0x70,0x65,0x06,0x3a,0x06,0x45,0x54,0x3a,0x0b,0x40,0x70,0x69,0x74,0x63,0x68,0x69,0x69,0x3a,0x0c,0x40,0x76,0x6f,0x6c,0x75,0x6d,0x65,0x69,0x69))
   221()
   ChangeSwitch(2289,2289,0)
   ShowMessageFace("",0,0,2,3)
   ShowMessage("青年は逃げ出した！")
   222()
   ChangeVariable(1087,1087,1,0,1)
   RunCommonEvent(361)
   EndEventProcessing()
   0()
  EndIf()
  If(1,1063,0,12,2)
   ShowMessageFace("",0,0,2,4)
   ShowMessage("\\n<Youth>麗しの王妃様……")
   ShowMessage("あ、あぁぁぁぁ……")
   If(0,6,0)
    ShowMessageFace("sonia_fc2",2,0,2,5)
    ShowMessage("\\n<Sonya>私達は、大丈夫なのかな……？")
    0()
   Else()
    ShowMessageFace("ruka_fc1",0,0,2,6)
    ShowMessage("\\n<Luka>僕達は大丈夫なのか……？")
    0()
   EndIf()
   If(0,4,0)
    ShowMessageFace("alice_fc5",2,0,2,7)
    ShowMessage("\\n<Alice>この種の淫気は、長時間をかけて精神に侵食するタイプだ。")
    ShowMessage("即座に変調が出るわけではないが……")
    ShowMessageFace("alice_fc5",0,0,2,8)
    ShowMessage("\\n<Alice>もちろん、長く吸い込み続けていれば危険だな。")
    ShowMessage("早急に作戦を進め、元を絶たなければ……")
    0()
   EndIf()
   If(0,5,0)
    ShowMessageFace("iriasu_fc4",2,0,2,9)
    ShowMessage("\\n<Ilias>この種の淫気は、長時間をかけて精神に侵食するタイプです。")
    ShowMessage("即座に変調が出るわけではないのですが……")
    ShowMessageFace("iriasu_fc4",2,0,2,10)
    ShowMessage("\\n<Ilias>当然ながら、長く吸い込み続けていれば危険ですね。")
    ShowMessage("早急に作戦を進め、元を絶たなければなりません。")
    0()
   EndIf()
   EndEventProcessing()
   0()
  EndIf()
  If(1,1063,0,13,1)
   ShowMessageFace("",0,0,2,11)
   ShowMessage("\\n<Youth>魔王が宣戦布告して来たなんて……")
   ShowMessage("次から次へと、世の中ヤバいんじゃないか？")
   EndEventProcessing()
   0()
  EndIf()
  0()
 PAGE   2
  // condition: switch 2289 is ON
  0()



EVENT   45
 PAGE   1
  If(1,1082,0,2,0)
   ShowMessageFace("grangold_fc2",1,0,2,1)
   ShowMessage("\\n<King of Grangold>猛き兵……その槍に民は守られている……")
   ShowMessageFace("",0,0,2,2)
   ShowMessage("\\n<Soldier>イヤァァァァァー！！")
   250(bytes(0x04,0x08,0x6f,0x3a,0x0c,0x52,0x50,0x47,0x3a,0x3a,0x53,0x45,0x08,0x3a,0x0a,0x40,0x6e,0x61,0x6d,0x65,0x49,0x22,0x0f,0x6d,0x6f,0x6e,0x5f,0x65,0x73,0x63,0x61,0x70,0x65,0x06,0x3a,0x06,0x45,0x54,0x3a,0x0b,0x40,0x70,0x69,0x74,0x63,0x68,0x69,0x69,0x3a,0x0c,0x40,0x76,0x6f,0x6c,0x75,0x6d,0x65,0x69,0x69))
   221()
   ChangeSwitch(2292,2292,0)
   ShowMessageFace("",0,0,2,3)
   ShowMessage("兵士は逃げ出した！")
   222()
   ChangeVariable(1087,1087,1,0,1)
   RunCommonEvent(361)
   EndEventProcessing()
   0()
  EndIf()
  If(1,1063,0,12,2)
   ShowMessageFace("",0,0,2,4)
   ShowMessage("\\n<Soldier>お……あ、あぁぁぁ……")
   EndEventProcessing()
   0()
  EndIf()
  If(1,1063,0,13,1)
   ShowMessageFace("",0,0,2,5)
   ShowMessage("\\n<Soldier>この町は、グランドノアとの国境に最も近い町でした。")
   ShowMessage("ゆえに、強固な防壁で守られているのです。")
   ShowMessageFace("",0,0,2,6)
   ShowMessage("\\n<Soldier>グランドノアとの和平交渉が成った今は……")
   ShowMessage("親交の町として、友好関係を深めていきたいですね。")
   EndEventProcessing()
   0()
  EndIf()
  0()
 PAGE   2
  // condition: switch 2292 is ON
  0()



EVENT   46
 PAGE   1
  ChangeSelfSwitch("A",0)
  205(45,bytes(0x04,0x08,0x6f,0x3a,0x13,0x52,0x50,0x47,0x3a,0x3a,0x4d,0x6f,0x76,0x65,0x52,0x6f,0x75,0x74,0x65,0x09,0x3a,0x0c,0x40,0x72,0x65,0x70,0x65,0x61,0x74,0x46,0x3a,0x0f,0x40,0x73,0x6b,0x69,0x70,0x70,0x61,0x62,0x6c,0x65,0x46,0x3a,0x0a,0x40,0x77,0x61,0x69,0x74,0x54,0x3a,0x0a,0x40,0x6c,0x69,0x73,0x74,0x5b,0x07,0x6f,0x3a,0x15,0x52,0x50,0x47,0x3a,0x3a,0x4d,0x6f,0x76,0x65,0x43,0x6f,0x6d,0x6d,0x61,0x6e,0x64,0x07,0x3a,0x0a,0x40,0x63,0x6f,0x64,0x65,0x69,0x17,0x3a,0x10,0x40,0x70,0x61,0x72,0x61,0x6d,0x65,0x74,0x65,0x72,0x73,0x5b,0x00,0x6f,0x3b,0x0a,0x07,0x3b,0x0b,0x69,0x00,0x3b,0x0c,0x5b,0x00))
  ShowMessageFace("",0,0,2,1)
  ShowMessage("\\n<Soldier>おまえらぁぁぁ……")
  205(-1,bytes(0x04,0x08,0x6f,0x3a,0x13,0x52,0x50,0x47,0x3a,0x3a,0x4d,0x6f,0x76,0x65,0x52,0x6f,0x75,0x74,0x65,0x09,0x3a,0x0c,0x40,0x72,0x65,0x70,0x65,0x61,0x74,0x46,0x3a,0x0f,0x40,0x73,0x6b,0x69,0x70,0x70,0x61,0x62,0x6c,0x65,0x46,0x3a,0x0a,0x40,0x77,0x61,0x69,0x74,0x54,0x3a,0x0a,0x40,0x6c,0x69,0x73,0x74,0x5b,0x07,0x6f,0x3a,0x15,0x52,0x50,0x47,0x3a,0x3a,0x4d,0x6f,0x76,0x65,0x43,0x6f,0x6d,0x6d,0x61,0x6e,0x64,0x07,0x3a,0x0a,0x40,0x63,0x6f,0x64,0x65,0x69,0x16,0x3a,0x10,0x40,0x70,0x61,0x72,0x61,0x6d,0x65,0x74,0x65,0x72,0x73,0x5b,0x00,0x6f,0x3b,0x0a,0x07,0x3b,0x0b,0x69,0x00,0x3b,0x0c,0x5b,0x00))
  ShowSpeechBalloon(-1,1,true)
  ShowMessageFace("",0,0,2,2)
  ShowMessage("\\n<Soldier>お城におられる王妃様にぃぃ……")
  ShowMessage("あいさつを……あ、はぅぅぅぅ……")
  205(45,bytes(0x04,0x08,0x6f,0x3a,0x13,0x52,0x50,0x47,0x3a,0x3a,0x4d,0x6f,0x76,0x65,0x52,0x6f,0x75,0x74,0x65,0x09,0x3a,0x0c,0x40,0x72,0x65,0x70,0x65,0x61,0x74,0x46,0x3a,0x0f,0x40,0x73,0x6b,0x69,0x70,0x70,0x61,0x62,0x6c,0x65,0x46,0x3a,0x0a,0x40,0x77,0x61,0x69,0x74,0x54,0x3a,0x0a,0x40,0x6c,0x69,0x73,0x74,0x5b,0x07,0x6f,0x3a,0x15,0x52,0x50,0x47,0x3a,0x3a,0x4d,0x6f,0x76,0x65,0x43,0x6f,0x6d,0x6d,0x61,0x6e,0x64,0x07,0x3a,0x0a,0x40,0x63,0x6f,0x64,0x65,0x69,0x15,0x3a,0x10,0x40,0x70,0x61,0x72,0x61,0x6d,0x65,0x74,0x65,0x72,0x73,0x5b,0x00,0x6f,0x3b,0x0a,0x07,0x3b,0x0b,0x69,0x00,0x3b,0x0c,0x5b,0x00))
  ShowMessageFace("",0,0,2,3)
  ShowMessage("\\n<Soldier>う……ぅぅ……")
  If(0,4,0)
   ShowMessageFace("alice_fc5",2,0,2,4)
   ShowMessage("\\n<Alice>この異常事態……")
   ShowMessage("皮肉な事だが、潜入作戦においては有利に働いているな。")
   0()
  EndIf()
  If(0,5,0)
   ShowMessageFace("iriasu_fc4",0,0,2,5)
   ShowMessage("\\n<Ilias>この異常事態……")
   ShowMessage("皮肉ながら、潜入作戦においては有利に働いていますね。")
   0()
  EndIf()
  If(0,6,0)
   ShowMessageFace("sonia_fc2",3,0,2,6)
   ShowMessage("\\n<Sonya>誰も、私達の事を不審に思っていないもんね。")
   ShowMessage("普通なら、こんなに簡単に敵地を歩けないでしょ……")
   0()
  Else()
   ShowMessageFace("ruka_fc1",0,0,2,7)
   ShowMessage("\\n<Luka>誰も、僕達の事を不審に思っていないからね……")
   0()
  EndIf()
  0()
 PAGE   2
  // condition: self-switch A is ON
  0()
 PAGE   3
  // condition: variable 1063 >= 6
  0()



EVENT   47
 PAGE   1
  If(1,1082,0,2,0)
   ShowMessageFace("grangold_fc2",1,0,2,1)
   ShowMessage("\\n<King of Grangold>我が民……末長く天の祝福を……")
   ShowMessageFace("",0,0,2,2)
   ShowMessage("\\n<Old Woman>わわわ、助けておくれー！")
   250(bytes(0x04,0x08,0x6f,0x3a,0x0c,0x52,0x50,0x47,0x3a,0x3a,0x53,0x45,0x08,0x3a,0x0a,0x40,0x6e,0x61,0x6d,0x65,0x49,0x22,0x0f,0x6d,0x6f,0x6e,0x5f,0x65,0x73,0x63,0x61,0x70,0x65,0x06,0x3a,0x06,0x45,0x54,0x3a,0x0b,0x40,0x70,0x69,0x74,0x63,0x68,0x69,0x69,0x3a,0x0c,0x40,0x76,0x6f,0x6c,0x75,0x6d,0x65,0x69,0x69))
   221()
   ChangeSwitch(2304,2304,0)
   ShowMessageFace("",0,0,2,3)
   ShowMessage("老婆は逃げ出した！")
   222()
   ChangeVariable(1087,1087,1,0,1)
   RunCommonEvent(361)
   EndEventProcessing()
   0()
  EndIf()
  If(1,1063,0,12,2)
   ShowMessageFace("",0,0,2,4)
   ShowMessage("\\n<Old Woman>儂のような年寄りには、効き目が薄いみたいだけど……")
   ShowMessageFace("",0,0,2,5)
   ShowMessage("\\n<Old Woman>それでも、もう無理だよ……")
   ShowMessage("お前さん達、どうかこの国を救っておくれ……")
   EndEventProcessing()
   0()
  EndIf()
  If(1,1063,0,13,1)
   ShowMessageFace("",0,0,2,6)
   ShowMessage("\\n<Old Woman>理性が薄くなる中でも、お前さん達を見たのは覚えているよ。")
   ShowMessage("やってくれたんだね……この国を、救ってくれたんだね……")
   EndEventProcessing()
   0()
  EndIf()
  0()
 PAGE   2
  // condition: switch 2304 is ON
  0()



EVENT   48
 PAGE   1
  If(1,1082,0,2,0)
   ShowMessageFace("grangold_fc2",1,0,2,1)
   ShowMessage("\\n<King of Grangold>子は宝、子は未来……おお、愛おしき我が民よ……")
   ShowMessageFace("",0,0,2,2)
   ShowMessage("\\n<Young Boy>ママー！　ママァァァァ！！")
   250(bytes(0x04,0x08,0x6f,0x3a,0x0c,0x52,0x50,0x47,0x3a,0x3a,0x53,0x45,0x08,0x3a,0x0a,0x40,0x6e,0x61,0x6d,0x65,0x49,0x22,0x0f,0x6d,0x6f,0x6e,0x5f,0x65,0x73,0x63,0x61,0x70,0x65,0x06,0x3a,0x06,0x45,0x54,0x3a,0x0b,0x40,0x70,0x69,0x74,0x63,0x68,0x69,0x69,0x3a,0x0c,0x40,0x76,0x6f,0x6c,0x75,0x6d,0x65,0x69,0x69))
   221()
   ChangeSwitch(2300,2300,0)
   ShowMessageFace("",0,0,2,3)
   ShowMessage("少年は逃げ出した！")
   222()
   ChangeVariable(1087,1087,1,0,1)
   RunCommonEvent(361)
   EndEventProcessing()
   0()
  EndIf()
  If(1,1063,0,12,2)
   ShowMessageFace("",0,0,2,4)
   ShowMessage("\\n<Young Boy>王妃様の事を考えるとね……")
   ShowMessage("おちんちんが、大きくなって……")
   ShowMessageFace("",0,0,2,5)
   ShowMessage("\\n<Young Boy>ん……はぅぅぅぅ……")
   355("actor_label_jump")
   EndEventProcessing()
   DefineLabel("118")
   ShowMessageFace("meia_fc1",2,0,2,6)
   ShowMessage("\\n<Meia>あら……あら、あらあら……")
   EndEventProcessing()
   0()
  EndIf()
  If(1,1063,0,13,1)
   ShowMessageFace("",0,0,2,7)
   ShowMessage("\\n<Young Boy>魔法少女は、本当にいるんだよ！")
   ShowMessage("マジカルまりんちゃんは、本物の魔法少女なんだよ！")
   EndEventProcessing()
   0()
  EndIf()
  0()
 PAGE   2
  // condition: switch 2300 is ON
  0()



EVENT   49
 PAGE   1
  If(1,1082,0,2,0)
   ShowMessageFace("grangold_fc2",1,0,2,1)
   ShowMessage("\\n<King of Grangold>咎人よ進め、光の差す方へ……")
   ShowMessageFace("",0,0,2,2)
   ShowMessage("\\n<あらくれ>こ、殺さないで！　殺さないでー！！")
   250(bytes(0x04,0x08,0x6f,0x3a,0x0c,0x52,0x50,0x47,0x3a,0x3a,0x53,0x45,0x08,0x3a,0x0a,0x40,0x6e,0x61,0x6d,0x65,0x49,0x22,0x0f,0x6d,0x6f,0x6e,0x5f,0x65,0x73,0x63,0x61,0x70,0x65,0x06,0x3a,0x06,0x45,0x54,0x3a,0x0b,0x40,0x70,0x69,0x74,0x63,0x68,0x69,0x69,0x3a,0x0c,0x40,0x76,0x6f,0x6c,0x75,0x6d,0x65,0x69,0x69))
   221()
   ChangeSwitch(2297,2297,0)
   ShowMessageFace("",0,0,2,3)
   ShowMessage("あらくれは逃げ出した！")
   222()
   ChangeVariable(1087,1087,1,0,1)
   RunCommonEvent(361)
   EndEventProcessing()
   0()
  EndIf()
  If(1,1063,0,12,2)
   ShowMessageFace("",0,0,2,4)
   ShowMessage("\\n<あらくれ>王妃様のためなら……")
   ShowMessage("もう、全部捨てたっていい……")
   EndEventProcessing()
   0()
  EndIf()
  If(1,1063,0,13,1)
   ShowMessageFace("",0,0,2,5)
   ShowMessage("\\n<あらくれ>噂の勇者ルカって……俺たちがラリってる時、この町にも来たんだよな。")
   ShowMessage("ちくしょう、サインもらっときゃよかったぜ！")
   EndEventProcessing()
   0()
  EndIf()
  0()
 PAGE   2
  // condition: switch 2297 is ON
  0()



EVENT   50
 PAGE   1
  If(1,1082,0,2,0)
   ShowMessageFace("grangold_fc2",1,0,2,1)
   ShowMessage("\\n<King of Grangold>か弱き娘、王国の祝福は汝が元に……")
   ShowMessageFace("",0,0,2,2)
   ShowMessage("\\n<若い女性>た、助けて……助けて……")
   250(bytes(0x04,0x08,0x6f,0x3a,0x0c,0x52,0x50,0x47,0x3a,0x3a,0x53,0x45,0x08,0x3a,0x0a,0x40,0x6e,0x61,0x6d,0x65,0x49,0x22,0x0f,0x6d,0x6f,0x6e,0x5f,0x65,0x73,0x63,0x61,0x70,0x65,0x06,0x3a,0x06,0x45,0x54,0x3a,0x0b,0x40,0x70,0x69,0x74,0x63,0x68,0x69,0x69,0x3a,0x0c,0x40,0x76,0x6f,0x6c,0x75,0x6d,0x65,0x69,0x69))
   221()
   ChangeSwitch(2295,2295,0)
   ShowMessageFace("",0,0,2,3)
   ShowMessage("若い女性は逃げ出した！")
   222()
   ChangeVariable(1087,1087,1,0,1)
   RunCommonEvent(361)
   EndEventProcessing()
   0()
  EndIf()
  If(1,1063,0,12,2)
   ShowMessageFace("",0,0,2,4)
   ShowMessage("\\n<若い女性>王妃様……ああ、王妃様……")
   ShowMessage("あなたのお側に行きたい……")
   EndEventProcessing()
   0()
  EndIf()
  If(1,1063,0,13,1)
   ShowMessageFace("",0,0,2,5)
   ShowMessage("\\n<若い女性>ゴルド地方の中央部には、色々な村が点在してるの。")
   ShowMessage("魔物もたくさん住んでいるっていう話よ。")
   EndEventProcessing()
   0()
  EndIf()
  0()
 PAGE   2
  // condition: switch 2295 is ON
  0()



EVENT   51
 PAGE   1
  If(1,1082,0,2,0)
   ShowMessageFace("grangold_fc2",1,0,2,1)
   ShowMessage("\\n<King of Grangold>我が兵よ……その力を民のために……")
   ShowMessageFace("",0,0,2,2)
   ShowMessage("\\n<Soldier>私一人では勝てそうにない！　え、援軍を呼ばなければ……！！")
   250(bytes(0x04,0x08,0x6f,0x3a,0x0c,0x52,0x50,0x47,0x3a,0x3a,0x53,0x45,0x08,0x3a,0x0a,0x40,0x6e,0x61,0x6d,0x65,0x49,0x22,0x0f,0x6d,0x6f,0x6e,0x5f,0x65,0x73,0x63,0x61,0x70,0x65,0x06,0x3a,0x06,0x45,0x54,0x3a,0x0b,0x40,0x70,0x69,0x74,0x63,0x68,0x69,0x69,0x3a,0x0c,0x40,0x76,0x6f,0x6c,0x75,0x6d,0x65,0x69,0x69))
   221()
   ChangeSwitch(2291,2291,0)
   ShowMessageFace("",0,0,2,3)
   ShowMessage("兵士は援軍要請に向かった！")
   222()
   ChangeVariable(1087,1087,1,0,1)
   RunCommonEvent(361)
   EndEventProcessing()
   0()
  EndIf()
  If(1,1063,0,12,2)
   ShowMessageFace("",0,0,2,4)
   ShowMessage("\\n<Soldier>はふぅぅぅ……")
   ShowMessage("お、王妃さまぁぁぁ……")
   EndEventProcessing()
   0()
  EndIf()
  If(1,1063,0,13,1)
   ShowMessageFace("",0,0,2,5)
   ShowMessage("\\n<Soldier>この町に、以前は魔物も多く住んでいたのですが……")
   ShowMessage("大戦争の余波か、町を出てしまったようですね。")
   ShowMessageFace("",0,0,2,6)
   ShowMessage("\\n<Soldier>ハーピーやラミア達、早く戻ってきてほしいものです。")
   ShowMessage("このままでは、男があぶれてしまう……")
   355("actor_label_jump")
   EndEventProcessing()
   DefineLabel("83")
   ShowMessageFace("hapy_a_fc1",0,0,2,7)
   ShowMessage("\\n<Reina>ハーピーの集落に来る？")
   ShowMessage("今なら大歓迎だよっ♪")
   EndEventProcessing()
   DefineLabel("87")
   ShowMessageFace("name2_fc2",1,0,2,8)
   ShowMessage("\\n<Melty>私達の塔に、何人か連れて行っていいかしら……？")
   EndEventProcessing()
   0()
  EndIf()
  0()
 PAGE   2
  // condition: switch 2291 is ON
  0()



EVENT   52
 PAGE   1
  If(1,1082,0,2,0)
   ShowMessageFace("grangold_fc2",1,0,2,1)
   ShowMessage("\\n<King of Grangold>年経た者よ、末永き歳月に寿ぎを……")
   ShowMessageFace("",0,0,2,2)
   ShowMessage("\\n<老人>後生じゃ、どうか命だけは……！")
   250(bytes(0x04,0x08,0x6f,0x3a,0x0c,0x52,0x50,0x47,0x3a,0x3a,0x53,0x45,0x08,0x3a,0x0a,0x40,0x6e,0x61,0x6d,0x65,0x49,0x22,0x0f,0x6d,0x6f,0x6e,0x5f,0x65,0x73,0x63,0x61,0x70,0x65,0x06,0x3a,0x06,0x45,0x54,0x3a,0x0b,0x40,0x70,0x69,0x74,0x63,0x68,0x69,0x69,0x3a,0x0c,0x40,0x76,0x6f,0x6c,0x75,0x6d,0x65,0x69,0x69))
   221()
   ChangeSwitch(2294,2294,0)
   ShowMessageFace("",0,0,2,3)
   ShowMessage("老人は逃げ出した！")
   222()
   ChangeVariable(1087,1087,1,0,1)
   RunCommonEvent(361)
   EndEventProcessing()
   0()
  EndIf()
  If(1,1063,0,12,2)
   ShowMessageFace("",0,0,2,4)
   ShowMessage("\\n<老人>この、恋い焦がれる気持ち……")
   ShowMessage("若い頃に戻ったようじゃ……")
   EndEventProcessing()
   0()
  EndIf()
  If(1,1063,0,13,1)
   ShowMessageFace("",0,0,2,5)
   ShowMessage("\\n<老人>淫気に精神を揺さぶられ、恋するキモチを思い出したようじゃ……")
   ShowMessage("キミを見てると、いつもハートドキドキ。")
   355("actor_label_jump")
   EndEventProcessing()
   DefineLabel("155")
   ShowMessageFace("saki_fc1",0,0,2,6)
   ShowMessage("\\n<Saki>ドキドキする心、大切にしたいよねっ♪")
   EndEventProcessing()
   0()
  EndIf()
  0()
 PAGE   2
  // condition: switch 2294 is ON
  0()



EVENT   53
 PAGE   1
  If(1,1082,0,2,0)
   ShowMessageFace("grangold_fc2",1,0,2,1)
   ShowMessage("\\n<King of Grangold>井戸の深淵を……覗くが如く……")
   ShowMessageFace("",0,0,2,2)
   ShowMessage("\\n<若い娘>きゃぁぁぁぁ――！！")
   250(bytes(0x04,0x08,0x6f,0x3a,0x0c,0x52,0x50,0x47,0x3a,0x3a,0x53,0x45,0x08,0x3a,0x0a,0x40,0x6e,0x61,0x6d,0x65,0x49,0x22,0x0f,0x6d,0x6f,0x6e,0x5f,0x65,0x73,0x63,0x61,0x70,0x65,0x06,0x3a,0x06,0x45,0x54,0x3a,0x0b,0x40,0x70,0x69,0x74,0x63,0x68,0x69,0x69,0x3a,0x0c,0x40,0x76,0x6f,0x6c,0x75,0x6d,0x65,0x69,0x69))
   221()
   ChangeSwitch(2288,2288,0)
   ShowMessageFace("",0,0,2,3)
   ShowMessage("若い娘は逃げ出した！")
   222()
   ChangeVariable(1087,1087,1,0,1)
   RunCommonEvent(361)
   EndEventProcessing()
   0()
  EndIf()
  If(1,1063,0,12,2)
   ShowMessageFace("",0,0,2,4)
   ShowMessage("\\n<若い娘>あぁぁ……王妃様ぁぁぁ……")
   EndEventProcessing()
   0()
  EndIf()
  If(1,1063,0,13,1)
   ShowMessageFace("",0,0,2,5)
   ShowMessage("\\n<若い娘>東の大毒沼には、魔女伝説があったそうです。")
   ShowMessage("魔導師達が争い合い、力を奪い合ったとか……")
   ShowMessageFace("",0,0,2,6)
   ShowMessage("\\n<若い娘>詳しい事は、マジカルまりんちゃんさんに聞いてみて下さい。")
   ShowMessage("この町の西、変な花や木が周囲に生えている家です。")
   EndEventProcessing()
   0()
  EndIf()
  0()
 PAGE   2
  // condition: switch 2288 is ON
  0()



EVENT   54
 PAGE   1
  If(1,1082,0,2,0)
   ShowMessageFace("grangold_fc2",1,0,2,1)
   ShowMessage("\\n<King of Grangold>壁は厠に非ず……汝、礼節を知れ。")
   ShowMessageFace("",0,0,2,2)
   ShowMessage("\\n<Youth>ひゃぁぁ！　二度と立ち小便はしませんー！！")
   250(bytes(0x04,0x08,0x6f,0x3a,0x0c,0x52,0x50,0x47,0x3a,0x3a,0x53,0x45,0x08,0x3a,0x0a,0x40,0x6e,0x61,0x6d,0x65,0x49,0x22,0x0f,0x6d,0x6f,0x6e,0x5f,0x65,0x73,0x63,0x61,0x70,0x65,0x06,0x3a,0x06,0x45,0x54,0x3a,0x0b,0x40,0x70,0x69,0x74,0x63,0x68,0x69,0x69,0x3a,0x0c,0x40,0x76,0x6f,0x6c,0x75,0x6d,0x65,0x69,0x69))
   221()
   ChangeSwitch(2301,2301,0)
   ShowMessageFace("",0,0,2,3)
   ShowMessage("青年は逃げ出した！")
   222()
   ChangeVariable(1087,1087,1,0,1)
   RunCommonEvent(361)
   EndEventProcessing()
   0()
  EndIf()
  If(1,1063,0,12,2)
   ShowMessageFace("",0,0,2,4)
   ShowMessage("\\n<Youth>はぁ、はぁ、はぁ……ウッ！！")
   If(0,6,0)
    ShowMessageFace("sonia_fc1",6,0,2,5)
    ShowMessage("\\n<Sonya>最低……")
    If(0,4,0)
     ShowMessageFace("alice_fc5",2,0,2,6)
     ShowMessage("\\n<Alice>淫気の効果で、性欲がみなぎっているのだろう。")
     ShowMessage("本人の意志ではないのだから、そう責めてやるな……")
     0()
    EndIf()
    If(0,5,0)
     ShowMessageFace("iriasu_fc4",2,0,2,7)
     ShowMessage("\\n<Ilias>淫気のせいで、性欲がみなぎっているのです……")
     ShowMessage("やはり人間のオスは欠陥作でしたかね。")
     0()
    EndIf()
    0()
   EndIf()
   EndEventProcessing()
   0()
  EndIf()
  If(1,1063,0,13,1)
   ShowMessageFace("",0,0,2,8)
   ShowMessage("\\n<Youth>立ち小便ってインモラルだよな……ぶるぶるっ。")
   If(0,6,0)
    ShowMessageFace("sonia_fc1",6,0,2,9)
    ShowMessage("\\n<Sonya>最低……")
    If(0,4,0)
     ShowMessageFace("alice_fc5",5,0,2,10)
     ShowMessage("\\n<Alice>なんと下卑た行いなのだ……")
     0()
    EndIf()
    If(0,5,0)
     ShowMessageFace("iriasu_fc4",2,0,2,11)
     ShowMessage("\\n<Ilias>やはり人間のオスは欠陥作でしたかね。")
     0()
    EndIf()
    0()
   EndIf()
   EndEventProcessing()
   0()
  EndIf()
  0()
 PAGE   2
  // condition: switch 2301 is ON
  0()



EVENT   55
 PAGE   1
  // condition: variable 1082 >= 2
  // condition: party contains actor #535
  ChangeSelfSwitch("A",0)
  If(0,4,0)
   ShowMessageFace("alice_fc5",0,0,2,1)
   ShowMessage("\\n<Alice>ゴッダールに着いたな。")
   ShowMessage("さて、民衆が今のゴルド王を受け入れるのかどうか……")
   0()
  EndIf()
  If(0,5,0)
   ShowMessageFace("iriasu_fc4",2,0,2,2)
   ShowMessage("\\n<Ilias>ゴッダールに着きましたね。")
   ShowMessage("さて、民衆が今のゴルド王を受け入れるのかどうか……")
   0()
  EndIf()
  PictureDisplay(5,"80_grangold_st11b",0,0,0,0,100,100,0,0)
  PictureMove(5,null,0,0,0,0,100,100,255,0,30,true)
  ShowMessageFace("grangold_fc2",0,0,2,3)
  ShowMessage("\\n<King of Grangold>き、緊張するなぁ……")
  ShowMessageFace("sonia_fc2",2,0,2,4)
  ShowMessage("\\n<Sonya>……っていうか、まず顔がないのが怖いんだよね。")
  ShowMessage("のっぺらぼうってのが、良くないんじゃない？")
  ShowMessageFace("sonia_fc1",2,0,2,5)
  ShowMessage("\\n<Sonya>……良い案が思い浮かんじゃった♪")
  ShowMessage("王様、ちょっと動かないで下さい！")
  ShowMessageFace("",0,0,2,6)
  ShowMessage("ソニアは黒マジックを取り出した！")
  ShowMessageFace("grangold_fc2",0,0,2,7)
  ShowMessage("\\n<King of Grangold>……………………")
  ShowMessageFace("sonia_fc1",2,0,2,8)
  ShowMessage("\\n<Sonya>こうやって、親しみの持てる顔を……")
  ShowMessage("きゅっきゅっきゅー♪")
  322(535,"$Grandgoldo02_cip",0,"grangold_fc2",1)
  PictureDisplay(5,"80_grangold_st12b",0,0,0,0,100,100,255,0)
  ShowMessageFace("grangold_fc2",1,0,2,9)
  ShowMessage("\\n<King of Grangold>……………………")
  ShowMessageFace("sonia_fc1",3,0,2,10)
  ShowMessage("\\n<Sonya>これでよし！")
  If(0,4,0)
   ShowMessageFace("alice_fc5",6,0,2,11)
   ShowMessage("\\n<Alice>よくない！")
   0()
  EndIf()
  If(0,5,0)
   ShowMessageFace("iriasu_fc4",5,0,2,12)
   ShowMessage("\\n<Ilias>よくありません！")
   0()
  EndIf()
  If(4,181,0)
   ShowMessageFace("gaistvine_fc1",1,0,2,13)
   ShowMessage("\\n<リザ>なかなか、前衛的ですね……")
   0()
  EndIf()
  ShowMessageFace("grangold_fc2",1,0,2,14)
  ShowMessage("\\n<King of Grangold>……では、国民の反応を見てみよう。")
  If(12,"exist_party_persona_id?(391)")
   ShowMessageFace("mefist_fc2",0,0,2,15)
   ShowMessage("\\n<Mephisto>話し掛けるのは、屋外の人達に限った方がいいでしょう。")
   ShowMessage("家屋や店にまで踏み込めば、騒ぎになるかもしれません。")
   0()
  Else()
   ShowMessageFace("mefist_fc1",0,0,2,16)
   ShowMessage("\\n<Mephisto>話し掛けるのは、屋外の人達に限った方がいいでしょう。")
   ShowMessage("家屋や店にまで踏み込めば、騒ぎになるかもしれません。")
   0()
  EndIf()
  ShowMessageFace("sonia_fc1",2,0,2,17)
  ShowMessage("\\n<Sonya>大丈夫、みんな受け入れてくれるわよ。")
  ShowMessage("さあ、話し掛けてみよう！")
  PictureClear(5)
  ChangeSelfSwitch("A",0)
  0()
 PAGE   2
  // condition: self-switch A is ON
  0()

EVENT   56
 PAGE   1
  250(bytes(0x04,0x08,0x6f,0x3a,0x0c,0x52,0x50,0x47,0x3a,0x3a,0x53,0x45,0x08,0x3a,0x0a,0x40,0x6e,0x61,0x6d,0x65,0x49,0x22,0x0a,0x49,0x74,0x65,0x6d,0x31,0x06,0x3a,0x06,0x45,0x54,0x3a,0x0b,0x40,0x70,0x69,0x74,0x63,0x68,0x69,0x69,0x3a,0x0c,0x40,0x76,0x6f,0x6c,0x75,0x6d,0x65,0x69,0x55))
  ChangeSelfSwitch("A",0)
  ChangeInventory_Item(218,0,0,1)
  0()
 PAGE   2
  // condition: self-switch A is ON
  0()



EVENT   57
 PAGE   1
  250(bytes(0x04,0x08,0x6f,0x3a,0x0c,0x52,0x50,0x47,0x3a,0x3a,0x53,0x45,0x08,0x3a,0x0a,0x40,0x6e,0x61,0x6d,0x65,0x49,0x22,0x0a,0x49,0x74,0x65,0x6d,0x31,0x06,0x3a,0x06,0x45,0x54,0x3a,0x0b,0x40,0x70,0x69,0x74,0x63,0x68,0x69,0x69,0x3a,0x0c,0x40,0x76,0x6f,0x6c,0x75,0x6d,0x65,0x69,0x55))
  ChangeSelfSwitch("A",0)
  ChangeInventory_Item(8,0,0,1)
  0()
 PAGE   2
  // condition: self-switch A is ON
  0()



EVENT   58
 PAGE   1
  250(bytes(0x04,0x08,0x6f,0x3a,0x0c,0x52,0x50,0x47,0x3a,0x3a,0x53,0x45,0x08,0x3a,0x0a,0x40,0x6e,0x61,0x6d,0x65,0x49,0x22,0x0a,0x49,0x74,0x65,0x6d,0x31,0x06,0x3a,0x06,0x45,0x54,0x3a,0x0b,0x40,0x70,0x69,0x74,0x63,0x68,0x69,0x69,0x3a,0x0c,0x40,0x76,0x6f,0x6c,0x75,0x6d,0x65,0x69,0x55))
  ChangeSelfSwitch("A",0)
  ChangeInventory_Item(221,0,0,1)
  0()
 PAGE   2
  // condition: self-switch A is ON
  0()



EVENT   59
 PAGE   1
  250(bytes(0x04,0x08,0x6f,0x3a,0x0c,0x52,0x50,0x47,0x3a,0x3a,0x53,0x45,0x08,0x3a,0x0a,0x40,0x6e,0x61,0x6d,0x65,0x49,0x22,0x0a,0x49,0x74,0x65,0x6d,0x31,0x06,0x3a,0x06,0x45,0x54,0x3a,0x0b,0x40,0x70,0x69,0x74,0x63,0x68,0x69,0x69,0x3a,0x0c,0x40,0x76,0x6f,0x6c,0x75,0x6d,0x65,0x69,0x55))
  ChangeSelfSwitch("A",0)
  ChangeInventory_Item(2,0,0,1)
  0()
 PAGE   2
  // condition: self-switch A is ON
  0()



EVENT   60
 PAGE   1
  250(bytes(0x04,0x08,0x6f,0x3a,0x0c,0x52,0x50,0x47,0x3a,0x3a,0x53,0x45,0x08,0x3a,0x0a,0x40,0x6e,0x61,0x6d,0x65,0x49,0x22,0x0a,0x49,0x74,0x65,0x6d,0x31,0x06,0x3a,0x06,0x45,0x54,0x3a,0x0b,0x40,0x70,0x69,0x74,0x63,0x68,0x69,0x69,0x3a,0x0c,0x40,0x76,0x6f,0x6c,0x75,0x6d,0x65,0x69,0x55))
  ChangeSelfSwitch("A",0)
  ChangeInventory_Item(430,0,0,1)
  0()
 PAGE   2
  // condition: self-switch A is ON
  0()



EVENT   61
 PAGE   1
  250(bytes(0x04,0x08,0x6f,0x3a,0x0c,0x52,0x50,0x47,0x3a,0x3a,0x53,0x45,0x08,0x3a,0x0a,0x40,0x6e,0x61,0x6d,0x65,0x49,0x22,0x0a,0x49,0x74,0x65,0x6d,0x31,0x06,0x3a,0x06,0x45,0x54,0x3a,0x0b,0x40,0x70,0x69,0x74,0x63,0x68,0x69,0x69,0x3a,0x0c,0x40,0x76,0x6f,0x6c,0x75,0x6d,0x65,0x69,0x55))
  ChangeSelfSwitch("A",0)
  ChangeInventory_Item(80,0,0,1)
  0()
 PAGE   2
  // condition: self-switch A is ON
  0()



EVENT   62
 PAGE   1
  250(bytes(0x04,0x08,0x6f,0x3a,0x0c,0x52,0x50,0x47,0x3a,0x3a,0x53,0x45,0x08,0x3a,0x0a,0x40,0x6e,0x61,0x6d,0x65,0x49,0x22,0x0a,0x49,0x74,0x65,0x6d,0x31,0x06,0x3a,0x06,0x45,0x54,0x3a,0x0b,0x40,0x70,0x69,0x74,0x63,0x68,0x69,0x69,0x3a,0x0c,0x40,0x76,0x6f,0x6c,0x75,0x6d,0x65,0x69,0x55))
  ChangeSelfSwitch("A",0)
  ChangeInventory_Item(12,0,0,1)
  0()
 PAGE   2
  // condition: self-switch A is ON
  0()



EVENT   63
 PAGE   1
  250(bytes(0x04,0x08,0x6f,0x3a,0x0c,0x52,0x50,0x47,0x3a,0x3a,0x53,0x45,0x08,0x3a,0x0a,0x40,0x6e,0x61,0x6d,0x65,0x49,0x22,0x0a,0x49,0x74,0x65,0x6d,0x31,0x06,0x3a,0x06,0x45,0x54,0x3a,0x0b,0x40,0x70,0x69,0x74,0x63,0x68,0x69,0x69,0x3a,0x0c,0x40,0x76,0x6f,0x6c,0x75,0x6d,0x65,0x69,0x55))
  ChangeSelfSwitch("A",0)
  ChangeInventory_Item(2,0,0,1)
  0()
 PAGE   2
  // condition: self-switch A is ON
  0()



EVENT   64
 PAGE   1
  241(bytes(0x04,0x08,0x6f,0x3a,0x0d,0x52,0x50,0x47,0x3a,0x3a,0x42,0x47,0x4d,0x08,0x3a,0x0a,0x40,0x6e,0x61,0x6d,0x65,0x49,0x22,0x0a,0x6d,0x75,0x72,0x61,0x33,0x06,0x3a,0x06,0x45,0x54,0x3a,0x0c,0x40,0x76,0x6f,0x6c,0x75,0x6d,0x65,0x69,0x69,0x3a,0x0b,0x40,0x70,0x69,0x74,0x63,0x68,0x69,0x69))
  TemporaryRemoveEvent()
  0()
 PAGE   2
  // condition: variable 1063 >= 13
  0()


