﻿
DisplayName "レド山"



EVENT   1
 PAGE   1
  0()



EVENT   2
 PAGE   1
  0()



EVENT   3
 PAGE   1
  0()



EVENT   4
 PAGE   1
  0()



EVENT   5
 PAGE   1
  0()



EVENT   6
 PAGE   1
  0()



EVENT   7
 PAGE   1
  0()



EVENT   8
 PAGE   1
  0()



EVENT   9
 PAGE   1
  250(bytes(0x04,0x08,0x6f,0x3a,0x0c,0x52,0x50,0x47,0x3a,0x3a,0x53,0x45,0x08,0x3a,0x0a,0x40,0x6e,0x61,0x6d,0x65,0x49,0x22,0x09,0x4d,0x6f,0x76,0x65,0x06,0x3a,0x06,0x45,0x54,0x3a,0x0b,0x40,0x70,0x69,0x74,0x63,0x68,0x69,0x69,0x3a,0x0c,0x40,0x76,0x6f,0x6c,0x75,0x6d,0x65,0x69,0x55))
  TeleportPlayer(0,2,303,215,0,0)
  0()



EVENT   10
 PAGE   1
  250(bytes(0x04,0x08,0x6f,0x3a,0x0c,0x52,0x50,0x47,0x3a,0x3a,0x53,0x45,0x08,0x3a,0x0a,0x40,0x6e,0x61,0x6d,0x65,0x49,0x22,0x09,0x4d,0x6f,0x76,0x65,0x06,0x3a,0x06,0x45,0x54,0x3a,0x0b,0x40,0x70,0x69,0x74,0x63,0x68,0x69,0x69,0x3a,0x0c,0x40,0x76,0x6f,0x6c,0x75,0x6d,0x65,0x69,0x55))
  TeleportPlayer(0,2,303,215,0,0)
  0()



EVENT   11
 PAGE   1
  250(bytes(0x04,0x08,0x6f,0x3a,0x0c,0x52,0x50,0x47,0x3a,0x3a,0x53,0x45,0x08,0x3a,0x0a,0x40,0x6e,0x61,0x6d,0x65,0x49,0x22,0x09,0x4d,0x6f,0x76,0x65,0x06,0x3a,0x06,0x45,0x54,0x3a,0x0b,0x40,0x70,0x69,0x74,0x63,0x68,0x69,0x69,0x3a,0x0c,0x40,0x76,0x6f,0x6c,0x75,0x6d,0x65,0x69,0x55))
  TeleportPlayer(0,2,303,215,0,0)
  0()



EVENT   12
 PAGE   1
  250(bytes(0x04,0x08,0x6f,0x3a,0x0c,0x52,0x50,0x47,0x3a,0x3a,0x53,0x45,0x08,0x3a,0x0a,0x40,0x6e,0x61,0x6d,0x65,0x49,0x22,0x09,0x4d,0x6f,0x76,0x65,0x06,0x3a,0x06,0x45,0x54,0x3a,0x0b,0x40,0x70,0x69,0x74,0x63,0x68,0x69,0x69,0x3a,0x0c,0x40,0x76,0x6f,0x6c,0x75,0x6d,0x65,0x69,0x55))
  TeleportPlayer(0,2,303,215,0,0)
  0()



EVENT   13
 PAGE   1
  250(bytes(0x04,0x08,0x6f,0x3a,0x0c,0x52,0x50,0x47,0x3a,0x3a,0x53,0x45,0x08,0x3a,0x0a,0x40,0x6e,0x61,0x6d,0x65,0x49,0x22,0x0a,0x43,0x68,0x65,0x73,0x74,0x06,0x3a,0x06,0x45,0x54,0x3a,0x0b,0x40,0x70,0x69,0x74,0x63,0x68,0x69,0x69,0x3a,0x0c,0x40,0x76,0x6f,0x6c,0x75,0x6d,0x65,0x69,0x55))
  205(0,bytes(0x04,0x08,0x6f,0x3a,0x13,0x52,0x50,0x47,0x3a,0x3a,0x4d,0x6f,0x76,0x65,0x52,0x6f,0x75,0x74,0x65,0x09,0x3a,0x0c,0x40,0x72,0x65,0x70,0x65,0x61,0x74,0x46,0x3a,0x0f,0x40,0x73,0x6b,0x69,0x70,0x70,0x61,0x62,0x6c,0x65,0x46,0x3a,0x0a,0x40,0x77,0x61,0x69,0x74,0x54,0x3a,0x0a,0x40,0x6c,0x69,0x73,0x74,0x5b,0x0b,0x6f,0x3a,0x15,0x52,0x50,0x47,0x3a,0x3a,0x4d,0x6f,0x76,0x65,0x43,0x6f,0x6d,0x6d,0x61,0x6e,0x64,0x07,0x3a,0x0a,0x40,0x63,0x6f,0x64,0x65,0x69,0x29,0x3a,0x10,0x40,0x70,0x61,0x72,0x61,0x6d,0x65,0x74,0x65,0x72,0x73,0x5b,0x00,0x6f,0x3b,0x0a,0x07,0x3b,0x0b,0x69,0x16,0x3b,0x0c,0x5b,0x00,0x6f,0x3b,0x0a,0x07,0x3b,0x0b,0x69,0x14,0x3b,0x0c,0x5b,0x06,0x69,0x08,0x6f,0x3b,0x0a,0x07,0x3b,0x0b,0x69,0x17,0x3b,0x0c,0x5b,0x00,0x6f,0x3b,0x0a,0x07,0x3b,0x0b,0x69,0x14,0x3b,0x0c,0x5b,0x06,0x69,0x08,0x6f,0x3b,0x0a,0x07,0x3b,0x0b,0x69,0x00,0x3b,0x0c,0x5b,0x00))
  ChangeSelfSwitch("A",0)
  ChangeInventory_Item(217,0,0,1)
  0()
 PAGE   2
  // condition: self-switch A is ON
  0()



EVENT   14
 PAGE   1
  250(bytes(0x04,0x08,0x6f,0x3a,0x0c,0x52,0x50,0x47,0x3a,0x3a,0x53,0x45,0x08,0x3a,0x0a,0x40,0x6e,0x61,0x6d,0x65,0x49,0x22,0x0a,0x43,0x68,0x65,0x73,0x74,0x06,0x3a,0x06,0x45,0x54,0x3a,0x0b,0x40,0x70,0x69,0x74,0x63,0x68,0x69,0x69,0x3a,0x0c,0x40,0x76,0x6f,0x6c,0x75,0x6d,0x65,0x69,0x55))
  205(0,bytes(0x04,0x08,0x6f,0x3a,0x13,0x52,0x50,0x47,0x3a,0x3a,0x4d,0x6f,0x76,0x65,0x52,0x6f,0x75,0x74,0x65,0x09,0x3a,0x0c,0x40,0x72,0x65,0x70,0x65,0x61,0x74,0x46,0x3a,0x0f,0x40,0x73,0x6b,0x69,0x70,0x70,0x61,0x62,0x6c,0x65,0x46,0x3a,0x0a,0x40,0x77,0x61,0x69,0x74,0x54,0x3a,0x0a,0x40,0x6c,0x69,0x73,0x74,0x5b,0x0b,0x6f,0x3a,0x15,0x52,0x50,0x47,0x3a,0x3a,0x4d,0x6f,0x76,0x65,0x43,0x6f,0x6d,0x6d,0x61,0x6e,0x64,0x07,0x3a,0x0a,0x40,0x63,0x6f,0x64,0x65,0x69,0x29,0x3a,0x10,0x40,0x70,0x61,0x72,0x61,0x6d,0x65,0x74,0x65,0x72,0x73,0x5b,0x00,0x6f,0x3b,0x0a,0x07,0x3b,0x0b,0x69,0x16,0x3b,0x0c,0x5b,0x00,0x6f,0x3b,0x0a,0x07,0x3b,0x0b,0x69,0x14,0x3b,0x0c,0x5b,0x06,0x69,0x08,0x6f,0x3b,0x0a,0x07,0x3b,0x0b,0x69,0x17,0x3b,0x0c,0x5b,0x00,0x6f,0x3b,0x0a,0x07,0x3b,0x0b,0x69,0x14,0x3b,0x0c,0x5b,0x06,0x69,0x08,0x6f,0x3b,0x0a,0x07,0x3b,0x0b,0x69,0x00,0x3b,0x0c,0x5b,0x00))
  ChangeSelfSwitch("A",0)
  ChangeInventory_Item(32,0,0,1)
  0()
 PAGE   2
  // condition: self-switch A is ON
  0()



EVENT   15
 PAGE   1
  If(12,"unlock_level < 2")
   ShowMessageFace("",0,0,2,1)
   ShowMessage("The chest is locked.")
   EndEventProcessing()
   0()
  EndIf()
  250(bytes(0x04,0x08,0x6f,0x3a,0x0c,0x52,0x50,0x47,0x3a,0x3a,0x53,0x45,0x08,0x3a,0x0a,0x40,0x6e,0x61,0x6d,0x65,0x49,0x22,0x0a,0x43,0x68,0x65,0x73,0x74,0x06,0x3a,0x06,0x45,0x54,0x3a,0x0b,0x40,0x70,0x69,0x74,0x63,0x68,0x69,0x69,0x3a,0x0c,0x40,0x76,0x6f,0x6c,0x75,0x6d,0x65,0x69,0x55))
  205(0,bytes(0x04,0x08,0x6f,0x3a,0x13,0x52,0x50,0x47,0x3a,0x3a,0x4d,0x6f,0x76,0x65,0x52,0x6f,0x75,0x74,0x65,0x09,0x3a,0x0c,0x40,0x72,0x65,0x70,0x65,0x61,0x74,0x46,0x3a,0x0f,0x40,0x73,0x6b,0x69,0x70,0x70,0x61,0x62,0x6c,0x65,0x46,0x3a,0x0a,0x40,0x77,0x61,0x69,0x74,0x54,0x3a,0x0a,0x40,0x6c,0x69,0x73,0x74,0x5b,0x0b,0x6f,0x3a,0x15,0x52,0x50,0x47,0x3a,0x3a,0x4d,0x6f,0x76,0x65,0x43,0x6f,0x6d,0x6d,0x61,0x6e,0x64,0x07,0x3a,0x0a,0x40,0x63,0x6f,0x64,0x65,0x69,0x29,0x3a,0x10,0x40,0x70,0x61,0x72,0x61,0x6d,0x65,0x74,0x65,0x72,0x73,0x5b,0x00,0x6f,0x3b,0x0a,0x07,0x3b,0x0b,0x69,0x16,0x3b,0x0c,0x5b,0x00,0x6f,0x3b,0x0a,0x07,0x3b,0x0b,0x69,0x14,0x3b,0x0c,0x5b,0x06,0x69,0x08,0x6f,0x3b,0x0a,0x07,0x3b,0x0b,0x69,0x17,0x3b,0x0c,0x5b,0x00,0x6f,0x3b,0x0a,0x07,0x3b,0x0b,0x69,0x14,0x3b,0x0c,0x5b,0x06,0x69,0x08,0x6f,0x3b,0x0a,0x07,0x3b,0x0b,0x69,0x00,0x3b,0x0c,0x5b,0x00))
  ChangeSelfSwitch("A",0)
  ChangeInventoryArmor(1168,0,0,1)
  0()
 PAGE   2
  // condition: self-switch A is ON
  0()



EVENT   16
 PAGE   1
  250(bytes(0x04,0x08,0x6f,0x3a,0x0c,0x52,0x50,0x47,0x3a,0x3a,0x53,0x45,0x08,0x3a,0x0a,0x40,0x6e,0x61,0x6d,0x65,0x49,0x22,0x0a,0x43,0x68,0x65,0x73,0x74,0x06,0x3a,0x06,0x45,0x54,0x3a,0x0b,0x40,0x70,0x69,0x74,0x63,0x68,0x69,0x69,0x3a,0x0c,0x40,0x76,0x6f,0x6c,0x75,0x6d,0x65,0x69,0x55))
  205(0,bytes(0x04,0x08,0x6f,0x3a,0x13,0x52,0x50,0x47,0x3a,0x3a,0x4d,0x6f,0x76,0x65,0x52,0x6f,0x75,0x74,0x65,0x09,0x3a,0x0c,0x40,0x72,0x65,0x70,0x65,0x61,0x74,0x46,0x3a,0x0f,0x40,0x73,0x6b,0x69,0x70,0x70,0x61,0x62,0x6c,0x65,0x46,0x3a,0x0a,0x40,0x77,0x61,0x69,0x74,0x54,0x3a,0x0a,0x40,0x6c,0x69,0x73,0x74,0x5b,0x0b,0x6f,0x3a,0x15,0x52,0x50,0x47,0x3a,0x3a,0x4d,0x6f,0x76,0x65,0x43,0x6f,0x6d,0x6d,0x61,0x6e,0x64,0x07,0x3a,0x0a,0x40,0x63,0x6f,0x64,0x65,0x69,0x29,0x3a,0x10,0x40,0x70,0x61,0x72,0x61,0x6d,0x65,0x74,0x65,0x72,0x73,0x5b,0x00,0x6f,0x3b,0x0a,0x07,0x3b,0x0b,0x69,0x16,0x3b,0x0c,0x5b,0x00,0x6f,0x3b,0x0a,0x07,0x3b,0x0b,0x69,0x14,0x3b,0x0c,0x5b,0x06,0x69,0x08,0x6f,0x3b,0x0a,0x07,0x3b,0x0b,0x69,0x17,0x3b,0x0c,0x5b,0x00,0x6f,0x3b,0x0a,0x07,0x3b,0x0b,0x69,0x14,0x3b,0x0c,0x5b,0x06,0x69,0x08,0x6f,0x3b,0x0a,0x07,0x3b,0x0b,0x69,0x00,0x3b,0x0c,0x5b,0x00))
  ChangeSelfSwitch("A",0)
  ChangeInventory_Item(27,0,0,1)
  0()
 PAGE   2
  // condition: self-switch A is ON
  0()



EVENT   17
 PAGE   1
  250(bytes(0x04,0x08,0x6f,0x3a,0x0c,0x52,0x50,0x47,0x3a,0x3a,0x53,0x45,0x08,0x3a,0x0a,0x40,0x6e,0x61,0x6d,0x65,0x49,0x22,0x0a,0x43,0x68,0x65,0x73,0x74,0x06,0x3a,0x06,0x45,0x54,0x3a,0x0b,0x40,0x70,0x69,0x74,0x63,0x68,0x69,0x69,0x3a,0x0c,0x40,0x76,0x6f,0x6c,0x75,0x6d,0x65,0x69,0x55))
  205(0,bytes(0x04,0x08,0x6f,0x3a,0x13,0x52,0x50,0x47,0x3a,0x3a,0x4d,0x6f,0x76,0x65,0x52,0x6f,0x75,0x74,0x65,0x09,0x3a,0x0c,0x40,0x72,0x65,0x70,0x65,0x61,0x74,0x46,0x3a,0x0f,0x40,0x73,0x6b,0x69,0x70,0x70,0x61,0x62,0x6c,0x65,0x46,0x3a,0x0a,0x40,0x77,0x61,0x69,0x74,0x54,0x3a,0x0a,0x40,0x6c,0x69,0x73,0x74,0x5b,0x0b,0x6f,0x3a,0x15,0x52,0x50,0x47,0x3a,0x3a,0x4d,0x6f,0x76,0x65,0x43,0x6f,0x6d,0x6d,0x61,0x6e,0x64,0x07,0x3a,0x0a,0x40,0x63,0x6f,0x64,0x65,0x69,0x29,0x3a,0x10,0x40,0x70,0x61,0x72,0x61,0x6d,0x65,0x74,0x65,0x72,0x73,0x5b,0x00,0x6f,0x3b,0x0a,0x07,0x3b,0x0b,0x69,0x16,0x3b,0x0c,0x5b,0x00,0x6f,0x3b,0x0a,0x07,0x3b,0x0b,0x69,0x14,0x3b,0x0c,0x5b,0x06,0x69,0x08,0x6f,0x3b,0x0a,0x07,0x3b,0x0b,0x69,0x17,0x3b,0x0c,0x5b,0x00,0x6f,0x3b,0x0a,0x07,0x3b,0x0b,0x69,0x14,0x3b,0x0c,0x5b,0x06,0x69,0x08,0x6f,0x3b,0x0a,0x07,0x3b,0x0b,0x69,0x00,0x3b,0x0c,0x5b,0x00))
  ChangeSelfSwitch("A",0)
  ChangeInventory_Item(76,0,0,1)
  0()
 PAGE   2
  // condition: self-switch A is ON
  0()



EVENT   18
 PAGE   1
  If(12,"unlock_level < 1")
   ShowMessageFace("",0,0,2,1)
   ShowMessage("The chest is locked.")
   EndEventProcessing()
   0()
  EndIf()
  250(bytes(0x04,0x08,0x6f,0x3a,0x0c,0x52,0x50,0x47,0x3a,0x3a,0x53,0x45,0x08,0x3a,0x0a,0x40,0x6e,0x61,0x6d,0x65,0x49,0x22,0x0a,0x43,0x68,0x65,0x73,0x74,0x06,0x3a,0x06,0x45,0x54,0x3a,0x0b,0x40,0x70,0x69,0x74,0x63,0x68,0x69,0x69,0x3a,0x0c,0x40,0x76,0x6f,0x6c,0x75,0x6d,0x65,0x69,0x55))
  205(0,bytes(0x04,0x08,0x6f,0x3a,0x13,0x52,0x50,0x47,0x3a,0x3a,0x4d,0x6f,0x76,0x65,0x52,0x6f,0x75,0x74,0x65,0x09,0x3a,0x0c,0x40,0x72,0x65,0x70,0x65,0x61,0x74,0x46,0x3a,0x0f,0x40,0x73,0x6b,0x69,0x70,0x70,0x61,0x62,0x6c,0x65,0x46,0x3a,0x0a,0x40,0x77,0x61,0x69,0x74,0x54,0x3a,0x0a,0x40,0x6c,0x69,0x73,0x74,0x5b,0x0b,0x6f,0x3a,0x15,0x52,0x50,0x47,0x3a,0x3a,0x4d,0x6f,0x76,0x65,0x43,0x6f,0x6d,0x6d,0x61,0x6e,0x64,0x07,0x3a,0x0a,0x40,0x63,0x6f,0x64,0x65,0x69,0x29,0x3a,0x10,0x40,0x70,0x61,0x72,0x61,0x6d,0x65,0x74,0x65,0x72,0x73,0x5b,0x00,0x6f,0x3b,0x0a,0x07,0x3b,0x0b,0x69,0x16,0x3b,0x0c,0x5b,0x00,0x6f,0x3b,0x0a,0x07,0x3b,0x0b,0x69,0x14,0x3b,0x0c,0x5b,0x06,0x69,0x08,0x6f,0x3b,0x0a,0x07,0x3b,0x0b,0x69,0x17,0x3b,0x0c,0x5b,0x00,0x6f,0x3b,0x0a,0x07,0x3b,0x0b,0x69,0x14,0x3b,0x0c,0x5b,0x06,0x69,0x08,0x6f,0x3b,0x0a,0x07,0x3b,0x0b,0x69,0x00,0x3b,0x0c,0x5b,0x00))
  ChangeSelfSwitch("A",0)
  ChangeInventoryWeapon(924,0,0,1)
  0()
 PAGE   2
  // condition: self-switch A is ON
  0()



EVENT   19
 PAGE   1
  250(bytes(0x04,0x08,0x6f,0x3a,0x0c,0x52,0x50,0x47,0x3a,0x3a,0x53,0x45,0x08,0x3a,0x0a,0x40,0x6e,0x61,0x6d,0x65,0x49,0x22,0x0a,0x43,0x68,0x65,0x73,0x74,0x06,0x3a,0x06,0x45,0x54,0x3a,0x0b,0x40,0x70,0x69,0x74,0x63,0x68,0x69,0x69,0x3a,0x0c,0x40,0x76,0x6f,0x6c,0x75,0x6d,0x65,0x69,0x55))
  205(0,bytes(0x04,0x08,0x6f,0x3a,0x13,0x52,0x50,0x47,0x3a,0x3a,0x4d,0x6f,0x76,0x65,0x52,0x6f,0x75,0x74,0x65,0x09,0x3a,0x0c,0x40,0x72,0x65,0x70,0x65,0x61,0x74,0x46,0x3a,0x0f,0x40,0x73,0x6b,0x69,0x70,0x70,0x61,0x62,0x6c,0x65,0x46,0x3a,0x0a,0x40,0x77,0x61,0x69,0x74,0x54,0x3a,0x0a,0x40,0x6c,0x69,0x73,0x74,0x5b,0x0b,0x6f,0x3a,0x15,0x52,0x50,0x47,0x3a,0x3a,0x4d,0x6f,0x76,0x65,0x43,0x6f,0x6d,0x6d,0x61,0x6e,0x64,0x07,0x3a,0x0a,0x40,0x63,0x6f,0x64,0x65,0x69,0x29,0x3a,0x10,0x40,0x70,0x61,0x72,0x61,0x6d,0x65,0x74,0x65,0x72,0x73,0x5b,0x00,0x6f,0x3b,0x0a,0x07,0x3b,0x0b,0x69,0x16,0x3b,0x0c,0x5b,0x00,0x6f,0x3b,0x0a,0x07,0x3b,0x0b,0x69,0x14,0x3b,0x0c,0x5b,0x06,0x69,0x08,0x6f,0x3b,0x0a,0x07,0x3b,0x0b,0x69,0x17,0x3b,0x0c,0x5b,0x00,0x6f,0x3b,0x0a,0x07,0x3b,0x0b,0x69,0x14,0x3b,0x0c,0x5b,0x06,0x69,0x08,0x6f,0x3b,0x0a,0x07,0x3b,0x0b,0x69,0x00,0x3b,0x0c,0x5b,0x00))
  ChangeSelfSwitch("A",0)
  ChangeInventory_Item(3,0,0,1)
  0()
 PAGE   2
  // condition: self-switch A is ON
  0()



EVENT   20
 PAGE   1
  250(bytes(0x04,0x08,0x6f,0x3a,0x0c,0x52,0x50,0x47,0x3a,0x3a,0x53,0x45,0x08,0x3a,0x0a,0x40,0x6e,0x61,0x6d,0x65,0x49,0x22,0x0a,0x43,0x68,0x65,0x73,0x74,0x06,0x3a,0x06,0x45,0x54,0x3a,0x0b,0x40,0x70,0x69,0x74,0x63,0x68,0x69,0x69,0x3a,0x0c,0x40,0x76,0x6f,0x6c,0x75,0x6d,0x65,0x69,0x55))
  205(0,bytes(0x04,0x08,0x6f,0x3a,0x13,0x52,0x50,0x47,0x3a,0x3a,0x4d,0x6f,0x76,0x65,0x52,0x6f,0x75,0x74,0x65,0x09,0x3a,0x0c,0x40,0x72,0x65,0x70,0x65,0x61,0x74,0x46,0x3a,0x0f,0x40,0x73,0x6b,0x69,0x70,0x70,0x61,0x62,0x6c,0x65,0x46,0x3a,0x0a,0x40,0x77,0x61,0x69,0x74,0x54,0x3a,0x0a,0x40,0x6c,0x69,0x73,0x74,0x5b,0x0b,0x6f,0x3a,0x15,0x52,0x50,0x47,0x3a,0x3a,0x4d,0x6f,0x76,0x65,0x43,0x6f,0x6d,0x6d,0x61,0x6e,0x64,0x07,0x3a,0x0a,0x40,0x63,0x6f,0x64,0x65,0x69,0x29,0x3a,0x10,0x40,0x70,0x61,0x72,0x61,0x6d,0x65,0x74,0x65,0x72,0x73,0x5b,0x00,0x6f,0x3b,0x0a,0x07,0x3b,0x0b,0x69,0x16,0x3b,0x0c,0x5b,0x00,0x6f,0x3b,0x0a,0x07,0x3b,0x0b,0x69,0x14,0x3b,0x0c,0x5b,0x06,0x69,0x08,0x6f,0x3b,0x0a,0x07,0x3b,0x0b,0x69,0x17,0x3b,0x0c,0x5b,0x00,0x6f,0x3b,0x0a,0x07,0x3b,0x0b,0x69,0x14,0x3b,0x0c,0x5b,0x06,0x69,0x08,0x6f,0x3b,0x0a,0x07,0x3b,0x0b,0x69,0x00,0x3b,0x0c,0x5b,0x00))
  ChangeSelfSwitch("A",0)
  ChangeInventoryWeapon(526,0,0,1)
  0()
 PAGE   2
  // condition: self-switch A is ON
  0()



EVENT   21
 PAGE   1
  250(bytes(0x04,0x08,0x6f,0x3a,0x0c,0x52,0x50,0x47,0x3a,0x3a,0x53,0x45,0x08,0x3a,0x0a,0x40,0x6e,0x61,0x6d,0x65,0x49,0x22,0x0a,0x43,0x68,0x65,0x73,0x74,0x06,0x3a,0x06,0x45,0x54,0x3a,0x0b,0x40,0x70,0x69,0x74,0x63,0x68,0x69,0x69,0x3a,0x0c,0x40,0x76,0x6f,0x6c,0x75,0x6d,0x65,0x69,0x55))
  205(0,bytes(0x04,0x08,0x6f,0x3a,0x13,0x52,0x50,0x47,0x3a,0x3a,0x4d,0x6f,0x76,0x65,0x52,0x6f,0x75,0x74,0x65,0x09,0x3a,0x0c,0x40,0x72,0x65,0x70,0x65,0x61,0x74,0x46,0x3a,0x0f,0x40,0x73,0x6b,0x69,0x70,0x70,0x61,0x62,0x6c,0x65,0x46,0x3a,0x0a,0x40,0x77,0x61,0x69,0x74,0x54,0x3a,0x0a,0x40,0x6c,0x69,0x73,0x74,0x5b,0x0b,0x6f,0x3a,0x15,0x52,0x50,0x47,0x3a,0x3a,0x4d,0x6f,0x76,0x65,0x43,0x6f,0x6d,0x6d,0x61,0x6e,0x64,0x07,0x3a,0x0a,0x40,0x63,0x6f,0x64,0x65,0x69,0x29,0x3a,0x10,0x40,0x70,0x61,0x72,0x61,0x6d,0x65,0x74,0x65,0x72,0x73,0x5b,0x00,0x6f,0x3b,0x0a,0x07,0x3b,0x0b,0x69,0x16,0x3b,0x0c,0x5b,0x00,0x6f,0x3b,0x0a,0x07,0x3b,0x0b,0x69,0x14,0x3b,0x0c,0x5b,0x06,0x69,0x08,0x6f,0x3b,0x0a,0x07,0x3b,0x0b,0x69,0x17,0x3b,0x0c,0x5b,0x00,0x6f,0x3b,0x0a,0x07,0x3b,0x0b,0x69,0x14,0x3b,0x0c,0x5b,0x06,0x69,0x08,0x6f,0x3b,0x0a,0x07,0x3b,0x0b,0x69,0x00,0x3b,0x0c,0x5b,0x00))
  ChangeSelfSwitch("A",0)
  ChangeInventory_Item(214,0,0,1)
  0()
 PAGE   2
  // condition: self-switch A is ON
  0()



EVENT   22
 PAGE   1
  ShowMessageFace("suzumebati_fc1",0,0,2,1)
  ShowMessage("\\n<スズメバチ娘>I will not let them advance any further...")
  0()
 PAGE   2
  // condition: variable 1056 >= 2
  0()



EVENT   23
 PAGE   1
  0()
 PAGE   2
  // condition: variable 1056 >= 2
  0()



EVENT   24
 PAGE   1
  0()
 PAGE   2
  // condition: variable 1056 >= 2
  0()



EVENT   25
 PAGE   1
  ShowMessageFace("a_alm_fc1",0,0,2,1)
  ShowMessage("\\n<アルラ・アルム>We'll force our way through at any cost...")
  RunCommonEvent(335)
  0()
 PAGE   2
  // condition: variable 1056 >= 2
  0()



EVENT   26
 PAGE   1
  ShowMessageFace("a_looty_fc1",0,0,2,1)
  ShowMessage("\\n<アルラ・ルーティ>...What are you doing here? This isn't your fight, so get out of the way.")
  RunCommonEvent(335)
  0()
 PAGE   2
  // condition: variable 1056 >= 2
  0()



EVENT   27
 PAGE   1
  ShowMessageFace("a_prison_fc1",2,0,2,1)
  ShowMessage("\\n<アルラ・プリズン>Their defense is as tough as expected!")
  RunCommonEvent(335)
  0()
 PAGE   2
  // condition: variable 1056 >= 2
  0()



EVENT   28
 PAGE   1
  0()
 PAGE   2
  // condition: variable 1056 >= 2
  0()



EVENT   29
 PAGE   1
  0()
 PAGE   2
  // condition: variable 1056 >= 2
  0()



EVENT   30
 PAGE   1
  0()
 PAGE   2
  // condition: variable 1056 >= 2
  0()



EVENT   31
 PAGE   1
  0()
 PAGE   2
  // condition: variable 1056 >= 2
  0()



EVENT   32
 PAGE   1
  0()
 PAGE   2
  // condition: variable 1056 >= 2
  0()



EVENT   33
 PAGE   1
  0()
 PAGE   2
  // condition: variable 1056 >= 2
  0()



EVENT   34
 PAGE   1
  If(1,1056,0,2,0)
   PictureDisplay(5,"80_queenbee_st01",0,0,0,0,100,100,0,0)
   PictureMove(5,null,0,0,0,0,100,100,255,0,30,true)
   ShowMessageFace("queenbee_fc1",0,0,2,1)
   ShowMessage("\\n<クィーンビー>I am Queen Bee, chief of the insect tribe. What have you come here for?")
   ShowChoices(strings("To defeat you","To help the insects","To talk"),0)
   IfPlayerPicksChoice(0,null)
    DefineLabel("戦い")
    ShowMessageFace("",0,0,2,2)
    ShowMessage("If you challenge her, reconciliation with the insect tribe will likely be impossible. Are you sure you want to fight?")
    ShowChoices(strings("Challenge Anyway","Reconsider"),2)
    IfPlayerPicksChoice(0,null)
     241(bytes(0x04,0x08,0x6f,0x3a,0x0d,0x52,0x50,0x47,0x3a,0x3a,0x42,0x47,0x4d,0x08,0x3a,0x0a,0x40,0x6e,0x61,0x6d,0x65,0x49,0x22,0x0a,0x62,0x6f,0x73,0x73,0x30,0x06,0x3a,0x06,0x45,0x54,0x3a,0x0c,0x40,0x76,0x6f,0x6c,0x75,0x6d,0x65,0x69,0x69,0x3a,0x0b,0x40,0x70,0x69,0x74,0x63,0x68,0x69,0x69))
     ShowMessageFace("ruka_fc1",0,0,2,3)
     ShowMessage("\\n<Luka>We're here to defeat you on behalf of the plant tribe!")
     If(4,163,0)
      ShowMessageFace("lily_fc1",3,0,2,4)
      ShowMessage("\\n<Lily>I hope you're ready!")
      0()
     EndIf()
     ShowMessageFace("queenbee_fc1",0,0,2,5)
     ShowMessage("\\n<クィーンビー>Oooh? That damn Priestess seriously asked a human hero for help? Well, it does appear that her own forces weren't up to the task.")
     If(4,245,0)
      ShowMessageFace("queenbee_fc1",0,0,2,6)
      ShowMessage("\\n<Miria>Cease this useless conflict.\nIt wasn't your fight in the first place, now was it?")
      ShowMessageFace("queenbee_fc1",2,0,2,7)
      ShowMessage("\\n<クィーンビー>Is this some new mind game the plant tribe cooked up? It won't work on me!")
      0()
     EndIf()
     ShowMessageFace("queenbee_fc1",0,0,2,8)
     ShowMessage("\\n<クィーンビー>Behold the power of the queen of bees! You'll meet your end covered in honey!")
     If(4,125,0)
      ShowMessageFace("grizzly_fc1",0,0,2,9)
      ShowMessage("\\n<アイシャ>Rawr! Sounds good to me!")
      0()
     EndIf()
     PictureClear(5)
     SetBattleBGM(bytes(0x04,0x08,0x6f,0x3a,0x0d,0x52,0x50,0x47,0x3a,0x3a,0x42,0x47,0x4d,0x08,0x3a,0x0a,0x40,0x6e,0x61,0x6d,0x65,0x49,0x22,0x0a,0x62,0x6f,0x73,0x73,0x31,0x06,0x3a,0x06,0x45,0x54,0x3a,0x0c,0x40,0x76,0x6f,0x6c,0x75,0x6d,0x65,0x69,0x69,0x3a,0x0b,0x40,0x70,0x69,0x74,0x63,0x68,0x69,0x69))
     ChangeSwitch(22,22,0)
     Battle(0,669,false,false)
     ChangeSwitch(22,22,1)
     SetBattleBGM(bytes(0x04,0x08,0x6f,0x3a,0x0d,0x52,0x50,0x47,0x3a,0x3a,0x42,0x47,0x4d,0x08,0x3a,0x0a,0x40,0x6e,0x61,0x6d,0x65,0x49,0x22,0x0b,0x62,0x61,0x74,0x74,0x6c,0x65,0x06,0x3a,0x06,0x45,0x54,0x3a,0x0c,0x40,0x76,0x6f,0x6c,0x75,0x6d,0x65,0x69,0x69,0x3a,0x0b,0x40,0x70,0x69,0x74,0x63,0x68,0x69,0x69))
     ChangeSwitch(1903,1903,0)
     314(0,0)
     PictureDisplay(5,"80_queenbee_st03",0,0,0,0,100,100,0,0)
     PictureMove(5,null,0,0,0,0,100,100,255,0,30,true)
     ShowMessageFace("queenbee_fc1",2,0,2,10)
     ShowMessage("\\n<クィーンビー>Impossible... I was crushed...\nIs this war over for the insect tribe?")
     If(4,203,0)
      ShowMessageFace("tatunoko_k_fc1",1,0,2,11)
      ShowMessage("\\n<Tatsuko>Victory is ours! Add another tally to our winning streak!")
      0()
     EndIf()
     ShowMessageFace("queenbee_fc1",2,0,2,12)
     ShowMessage("\\n<クィーンビー>Do with me what you will, but would you please spare my worker bees...?")
     If(0,4,0)
      ShowMessageFace("alice_fc5",0,0,2,13)
      ShowMessage("\\n<Alice>We didn't intend to cause harm to you in the first place. We simply wanted to put an end to this futile war.")
      0()
     EndIf()
     If(0,5,0)
      ShowMessageFace("iriasu_fc4",1,0,2,14)
      ShowMessage("\\n<Ilias>Fufufu... Prostrate yourself before me and beg forgiveness. The more pathetic you manage to be, the more of your bees I'll consider leaving alive.")
      ShowMessageFace("queenbee_fc1",2,0,2,15)
      ShowMessage("\\n<クィーンビー>I'll suffer any manner of disgrace for them...")
      If(0,6,0)
       ShowMessageFace("sonia_fc2",2,0,2,16)
       ShowMessage("\\n<Sonya>Hold on, don't take her seriously!\nCome on Ilias, mind your manners.")
       ShowMessageFace("iriasu_fc5",0,0,2,17)
       ShowMessage("\\n<Ilias>Do not treat me like a child!")
       0()
      EndIf()
      0()
     EndIf()
     PictureClear(5)
     ShowMessageFace("ruka_fc1",0,0,2,18)
     ShowMessage("\\n<Luka>Okay, let's return to Plansect Village. We need to make sure Priestess isn't going to do anything horrible to the insect tribe.")
     ShowMessageFace("",0,0,2,19)
     ShowMessage("Thus, having achieved victory for the plant tribe, we return victorious to Plansect Forest.")
     TeleportPlayer(0,132,35,36,8,0)
     241(bytes(0x04,0x08,0x6f,0x3a,0x0d,0x52,0x50,0x47,0x3a,0x3a,0x42,0x47,0x4d,0x08,0x3a,0x0a,0x40,0x6e,0x61,0x6d,0x65,0x49,0x22,0x14,0x73,0x63,0x65,0x6e,0x65,0x5f,0x65,0x70,0x69,0x6c,0x6f,0x67,0x75,0x65,0x32,0x06,0x3a,0x06,0x45,0x54,0x3a,0x0c,0x40,0x76,0x6f,0x6c,0x75,0x6d,0x65,0x69,0x69,0x3a,0x0b,0x40,0x70,0x69,0x74,0x63,0x68,0x69,0x69))
     355("gain_medal(39)")
     PictureDisplay(5,"80_a_emp_st02",0,0,0,0,100,100,0,0)
     PictureMove(5,null,0,0,0,0,100,100,255,0,30,true)
     ShowMessageFace("a_emp_fc1",1,0,2,20)
     ShowMessage("\\n<アルラ・プリエステス>We were victorious thanks to your efforts. On behalf of the plant tribe, I owe you a debt of gratitude.")
     If(0,4,0)
      ShowMessageFace("alice_fc5",0,0,2,21)
      ShowMessage("\\n<Alice>Do not treat the insect tribe too harshly... If you do, you'll have to answer to us.")
      0()
     EndIf()
     If(0,5,0)
      ShowMessageFace("iriasu_fc4",0,0,2,22)
      ShowMessage("\\n<Ilias>By the way, how are you planning to treat the insect tribe? I'd be glad to provide further assistance with any torture or executions.")
      0()
     EndIf()
     ShowMessageFace("a_emp_fc1",1,0,2,23)
     ShowMessage("\\n<アルラ・プリエステス>I don't intend to punish any of them, even Queen Bee. More needless suffering will only rekindle the conflict.")
     ShowMessageFace("a_emp_fc1",1,0,2,24)
     ShowMessage("\\n<アルラ・プリエステス>Besides, the insect tribe has resolved to stay on Red Mountain for now. It's not as nice as this forest, but it isn't a bad place to live either.")
     If(4,529,0)
      ShowMessageFace("sara_fc1",1,0,2,25)
      ShowMessage("\\n<Sara>I'd consider this a peaceful resolution, for the time being at least.")
      0()
     EndIf()
     If(0,4,0)
      ShowMessageFace("alice_fc5",2,0,2,26)
      ShowMessage("\\n<Alice>That reminds me, what ever happened to Tezcatlipoca? I haven't seen Quetzalcoatl either.")
      0()
     EndIf()
     If(0,5,0)
      ShowMessageFace("iriasu_fc4",5,0,2,27)
      ShowMessage("\\n<Ilias>That reminds me, have we not entirely forgotten about Tezcatlipoca!? Quetzalcoatl has been conspicuously absent as well.")
      0()
     EndIf()
     ShowMessageFace("a_emp_fc1",0,0,2,28)
     ShowMessage("\\n<アルラ・プリエステス>My subordinates reported seeing them fighting each other on the plains far to the west.")
     ShowMessageFace("a_emp_fc1",0,0,2,29)
     ShowMessage("\\n<アルラ・プリエステス>It is likely that they've completely forgotten about us already. As for what they're going to do next, your guess is as good as mine.")
     ShowMessageFace("ruka_fc1",0,0,2,30)
     ShowMessage("\\n<Luka>Yeah... Well, all's well that ends well.")
     If(0,4,0)
      ShowMessageFace("alice_fc5",0,0,2,31)
      ShowMessage("\\n<Alice>Those idiots said that Black Alice ordered them to take control of the village. If Black Alice makes contact again, please let us know.")
      0()
     EndIf()
     If(0,5,0)
      ShowMessageFace("iriasu_fc4",2,0,2,32)
      ShowMessage("\\n<Ilias>Those idiots said they were acting on Black Alice's orders. If she makes contact again, make sure you let us know.")
      0()
     EndIf()
     ShowMessageFace("a_emp_fc1",1,0,2,33)
     ShowMessage("\\n<アルラ・プリエステス>If it happens again, the plant and insect tribes will unite and resist their control. We may need your strength as well...")
     ShowMessageFace("a_emp_fc1",1,0,2,34)
     ShowMessage("\\n<アルラ・プリエステス>Anyway, we shall not forget the debt we owe you. If you find yourselves in trouble, do not hesitate to call on us.")
     PictureClear(5)
     ShowMessageFace("",0,0,2,35)
     ShowMessage("Thus, the conflict at Plansect Village was resolved. On to the next step of our adventure--")
     ChangeVariable(1061,1061,0,0,1)
     EndEventProcessing()
     0()
    IfPlayerPicksChoice(1,null)
     ShowMessageFace("ruka_fc1",0,0,2,36)
     ShowMessage("\\n<Luka>...We better not.")
     ShowMessageFace("queenbee_fc1",2,0,2,37)
     ShowMessage("\\n<クィーンビー>Better not what? I don't have time to deal with you if you have nothing to say. Get lost.")
     PictureClear(5)
     EndEventProcessing()
     0()
    404()
    0()
   IfPlayerPicksChoice(1,null)
    ChangeVariable(1056,1056,0,0,3)
    ShowMessageFace("ruka_fc1",0,0,2,38)
    ShowMessage("\\n<Luka>We're here to provide assistance to the insect tribe.")
    DefineLabel("味方")
    PictureDisplay(5,"80_queenbee_st02",0,0,0,0,100,100,255,0)
    ShowMessageFace("queenbee_fc1",1,0,2,39)
    ShowMessage("\\n<クィーンビー>A human hero wishes to help us...?\nGiven our predicament, I can't very well refuse.")
    ShowMessageFace("queenbee_fc1",1,0,2,40)
    ShowMessage("\\n<クィーンビー>All right, how about you go defeat Priestess for us? If she goes down, the winds will instantly be in our favor...")
    ShowMessageFace("queenbee_fc1",1,0,2,41)
    ShowMessage("\\n<クィーンビー>As I'm sure you know, Priestess is in Plansect Forest. Do us proud, human hero...")
    If(0,4,0)
     ShowMessageFace("alice_fc5",3,0,2,42)
     ShowMessage("\\n<Alice>We're going to help the insect tribe? Whatever, no complaints from me.")
     0()
    EndIf()
    If(0,5,0)
     ShowMessageFace("iriasu_fc4",0,0,2,43)
     ShowMessage("\\n<Ilias>We're going to slash and burn the plant tribe first, then?\nAfter them... Well, I'm sure you know.")
     0()
    EndIf()
    PictureClear(5)
    EndEventProcessing()
    0()
   IfPlayerPicksChoice(2,null)
    ChangeVariable(1056,1056,0,0,3)
    ShowMessageFace("ruka_fc1",0,0,2,44)
    ShowMessage("\\n<Luka>We've come to hear your side of the story.")
    PictureDisplay(5,"80_queenbee_st03",0,0,0,0,100,100,255,0)
    ShowMessageFace("queenbee_fc1",2,0,2,45)
    ShowMessage("\\n<クィーンビー>My story? Do I look like I have time...")
    PictureDisplay(5,"80_queenbee_st01",0,0,0,0,100,100,255,0)
    ShowMessageFace("queenbee_fc1",0,0,2,46)
    ShowMessage("\\n<クィーンビー>...No, if you're willing to listen, I'll tell you.")
    ShowMessageFace("queenbee_fc1",0,0,2,47)
    ShowMessage("\\n<クィーンビー>To tell the truth, we're tired of fighting. The ceasefire that Alice the 17th forced upon us was a stroke of good luck.")
    ShowMessageFace("queenbee_fc1",0,0,2,48)
    ShowMessage("\\n<クィーンビー>Unfortunately, Black Alice's lackeys restarted the war. We were forced out of the forest and cornered on this mountain.")
    ShowMessageFace("queenbee_fc1",0,0,2,49)
    ShowMessage("\\n<クィーンビー>However, it turned out that the mountain is a nice place to live. I wouldn't mind settling down here more permanently.")
    If(0,6,0)
     ShowMessageFace("sonia_fc1",0,0,2,50)
     ShowMessage("\\n<Sonya>Wouldn't that solve all your problems?")
     0()
    Else()
     ShowMessageFace("ruka_fc1",0,0,2,51)
     ShowMessage("\\n<Luka>That sounds like it would solve all your problems...")
     0()
    EndIf()
    PictureDisplay(5,"80_queenbee_st03",0,0,0,0,100,100,255,0)
    ShowMessageFace("queenbee_fc1",2,0,2,52)
    ShowMessage("\\n<クィーンビー>Unfortunately the plant tribe doesn't seem to see it that way. I don't think they'll stop until we're completely wiped out.")
    ShowMessageFace("queenbee_fc1",2,0,2,53)
    ShowMessage("\\n<クィーンビー>Considering they won't even permit us a moment's peace on this mountain, it appears they don't intend to stop fighting as long as any of us remain alive.")
    If(0,4,0)
     ShowMessageFace("alice_fc5",0,0,2,54)
     ShowMessage("\\n<Alice>I see... So if the plant tribe withdraws, the insect tribe will be content to live on this mountain?")
     0()
    EndIf()
    If(0,5,0)
     ShowMessageFace("iriasu_fc4",2,0,2,55)
     ShowMessage("\\n<Ilias>So what I'm hearing is that if the plant tribe withdraws, the insect tribe will be content to remain on this mountain?")
     0()
    EndIf()
    PictureDisplay(5,"80_queenbee_st01",0,0,0,0,100,100,255,0)
    ShowMessageFace("queenbee_fc1",0,0,2,56)
    ShowMessage("\\n<クィーンビー>If the plant tribe will promise not to threaten our existence ever again, we insects will make this mountain our new hive.")
    PictureDisplay(5,"80_queenbee_st03",0,0,0,0,100,100,255,0)
    ShowMessageFace("queenbee_fc1",2,0,2,57)
    ShowMessage("\\n<クィーンビー>That said, the plant army has already advanced far up the mountain. The time for negotiating peace may be past us...")
    ShowMessageFace("ruka_fc1",0,0,2,58)
    ShowMessage("\\n<Luka>......")
    ShowMessageFace("",0,0,2,59)
    ShowMessage("We've heard Queen Bee's side of the story.\nWhat should we do now?")
    ShowChoices(strings("Challenge Queen Bee","Ally with the insect tribe","Go talk to the plant tribe"),0)
    IfPlayerPicksChoice(0,null)
     JumpToLabel("戦い")
     0()
    IfPlayerPicksChoice(1,null)
     JumpToLabel("味方")
     0()
    IfPlayerPicksChoice(2,null)
     ShowMessageFace("ruka_fc1",0,0,2,60)
     ShowMessage("\\n<Luka>All right, we'll go talk to Priestess.")
     If(4,529,0)
      ShowMessageFace("sara_fc1",1,0,2,61)
      ShowMessage("\\n<Sara>It appears there is some common ground here. We should be able to mediate.")
      0()
     EndIf()
     PictureDisplay(5,"80_queenbee_st01",0,0,0,0,100,100,255,0)
     ShowMessageFace("queenbee_fc1",0,0,2,62)
     ShowMessage("\\n<クィーンビー>You're going to try to broker peace?\nI don't think they'll listen to a word you say.")
     ShowMessageFace("queenbee_fc1",0,0,2,63)
     ShowMessage("\\n<クィーンビー>But all is not lost if you manage to get close to Priestess. If she refuses a ceasefire, take that blade of yours and...")
     If(0,4,0)
      ShowMessageFace("alice_fc5",1,0,2,64)
      ShowMessage("\\n<Alice>Damn, do you really intend to not return to Plansect?\nWhatever. Peace is still worth a shot.")
      0()
     EndIf()
     If(0,5,0)
      ShowMessageFace("iriasu_fc4",2,0,2,65)
      ShowMessage("\\n<Ilias>Do you actually intend to return to Plansect...? Can this war really end without further bloodshed?")
      0()
     EndIf()
     PictureClear(5)
     ShowMessageFace("",0,0,2,66)
     ShowMessage("We resolve to return to Plansect Village to negotiate peace. We have to end this war by any means necessary--")
     EndEventProcessing()
     0()
    404()
    0()
   404()
   0()
  EndIf()
  If(1,1056,0,3,0)
   PictureDisplay(5,"80_queenbee_st01",0,0,0,0,100,100,0,0)
   PictureMove(5,null,0,0,0,0,100,100,255,0,30,true)
   ShowMessageFace("queenbee_fc1",0,0,2,67)
   ShowMessage("\\n<クィーンビー>Priestess is in Plansect Village, as you well know. I'm counting on you, human hero.")
   ShowChoices(strings("Challenge Queen Bee","Never mind"),2)
   IfPlayerPicksChoice(0,null)
    JumpToLabel("戦い")
    0()
   IfPlayerPicksChoice(1,null)
    PictureClear(5)
    EndEventProcessing()
    0()
   404()
   0()
  EndIf()
  0()
 PAGE   2
  // condition: variable 1056 >= 4
  241(bytes(0x04,0x08,0x6f,0x3a,0x0d,0x52,0x50,0x47,0x3a,0x3a,0x42,0x47,0x4d,0x08,0x3a,0x0a,0x40,0x6e,0x61,0x6d,0x65,0x49,0x22,0x0a,0x62,0x6f,0x73,0x73,0x30,0x06,0x3a,0x06,0x45,0x54,0x3a,0x0c,0x40,0x76,0x6f,0x6c,0x75,0x6d,0x65,0x69,0x69,0x3a,0x0b,0x40,0x70,0x69,0x74,0x63,0x68,0x69,0x69))
  PictureDisplay(6,"80_queenbee_st03",0,0,-150,0,100,100,0,0)
  PictureDisplay(5,"80_coatlus_st05",0,0,150,0,100,100,0,0)
  PictureMove(6,null,0,0,-150,0,100,100,255,0,30,false)
  PictureMove(5,null,0,0,150,0,100,100,255,0,30,true)
  ShowMessageFace("coatlus_fc1",4,0,2,1)
  ShowMessage("\\n<ケツァルコァトル>You're negotiating for peace behind my back!? Let me show you how I reward traitors!")
  ShowMessageFace("",0,0,2,2)
  ShowMessage("Quetzalcoatl attacks Queen Bee!")
  ShowMessageFace("queenbee_fc1",2,0,2,3)
  ShowMessage("\\n<クィーンビー>Ngh... Gah!")
  If(4,202,0)
   ShowMessageFace("bonny_fc1",0,0,2,4)
   ShowMessage("\\n<Bonnie>We can't just stand and watch!")
   0()
  EndIf()
  ShowMessageFace("a_emp_fc1",0,0,2,5)
  ShowMessage("\\n<アルラ・プリエステス>Queen Bee! Are you all right?")
  PictureClear(5)
  PictureClear(6)
  Wait(60)
  205(0,bytes(0x04,0x08,0x6f,0x3a,0x13,0x52,0x50,0x47,0x3a,0x3a,0x4d,0x6f,0x76,0x65,0x52,0x6f,0x75,0x74,0x65,0x09,0x3a,0x0c,0x40,0x72,0x65,0x70,0x65,0x61,0x74,0x46,0x3a,0x0f,0x40,0x73,0x6b,0x69,0x70,0x70,0x61,0x62,0x6c,0x65,0x46,0x3a,0x0a,0x40,0x77,0x61,0x69,0x74,0x54,0x3a,0x0a,0x40,0x6c,0x69,0x73,0x74,0x5b,0x08,0x6f,0x3a,0x15,0x52,0x50,0x47,0x3a,0x3a,0x4d,0x6f,0x76,0x65,0x43,0x6f,0x6d,0x6d,0x61,0x6e,0x64,0x07,0x3a,0x0a,0x40,0x63,0x6f,0x64,0x65,0x69,0x29,0x3a,0x10,0x40,0x70,0x61,0x72,0x61,0x6d,0x65,0x74,0x65,0x72,0x73,0x5b,0x00,0x6f,0x3b,0x0a,0x07,0x3b,0x0b,0x69,0x1e,0x3b,0x0c,0x5b,0x00,0x6f,0x3b,0x0a,0x07,0x3b,0x0b,0x69,0x00,0x3b,0x0c,0x5b,0x00))
  Wait(60)
  PictureDisplay(5,"80_queenbee_st01",0,0,0,0,100,100,0,0)
  PictureMove(5,null,0,0,0,0,100,100,255,0,30,true)
  ShowMessageFace("queenbee_fc1",2,0,2,6)
  ShowMessage("\\n<クィーンビー>Priestess!\nYou actually came to help me?")
  ShowMessageFace("a_emp_fc1",1,0,2,7)
  ShowMessage("\\n<アルラ・プリエステス>It would be a real pain if you died before we had a chance to formally end this war. Come on, let's fight together!")
  ShowMessageFace("queenbee_fc1",0,0,2,8)
  ShowMessage("\\n<クィーンビー>Your assistance is much appreciated...")
  PictureClear(5)
  205(0,bytes(0x04,0x08,0x6f,0x3a,0x13,0x52,0x50,0x47,0x3a,0x3a,0x4d,0x6f,0x76,0x65,0x52,0x6f,0x75,0x74,0x65,0x09,0x3a,0x0c,0x40,0x72,0x65,0x70,0x65,0x61,0x74,0x46,0x3a,0x0f,0x40,0x73,0x6b,0x69,0x70,0x70,0x61,0x62,0x6c,0x65,0x46,0x3a,0x0a,0x40,0x77,0x61,0x69,0x74,0x54,0x3a,0x0a,0x40,0x6c,0x69,0x73,0x74,0x5b,0x09,0x6f,0x3a,0x15,0x52,0x50,0x47,0x3a,0x3a,0x4d,0x6f,0x76,0x65,0x43,0x6f,0x6d,0x6d,0x61,0x6e,0x64,0x07,0x3a,0x0a,0x40,0x63,0x6f,0x64,0x65,0x69,0x2a,0x3a,0x10,0x40,0x70,0x61,0x72,0x61,0x6d,0x65,0x74,0x65,0x72,0x73,0x5b,0x00,0x6f,0x3b,0x0a,0x07,0x3b,0x0b,0x69,0x0f,0x3b,0x0c,0x5b,0x00,0x6f,0x3b,0x0a,0x07,0x3b,0x0b,0x69,0x2c,0x3b,0x0c,0x5b,0x00,0x6f,0x3b,0x0a,0x07,0x3b,0x0b,0x69,0x00,0x3b,0x0c,0x5b,0x00))
  355("add_actor_ex(245)")
  249(bytes(0x04,0x08,0x6f,0x3a,0x0c,0x52,0x50,0x47,0x3a,0x3a,0x4d,0x45,0x08,0x3a,0x0a,0x40,0x6e,0x61,0x6d,0x65,0x49,0x22,0x0c,0x66,0x61,0x6e,0x66,0x61,0x6c,0x65,0x06,0x3a,0x06,0x45,0x54,0x3a,0x0b,0x40,0x70,0x69,0x74,0x63,0x68,0x69,0x69,0x3a,0x0c,0x40,0x76,0x6f,0x6c,0x75,0x6d,0x65,0x69,0x69))
  ShowMessageFace("",0,0,2,9)
  ShowMessage("Miria has joined the party!")
  ChangeSwitch(2323,2323,0)
  Wait(60)
  PictureDisplay(5,"80_coatlus_st05",0,0,0,0,100,100,0,0)
  PictureMove(5,null,0,0,0,0,100,100,255,0,30,true)
  ShowMessageFace("coatlus_fc1",4,0,2,10)
  ShowMessage("\\n<ケツァルコァトル>All of you are seriously going to defy me? Whatever, I'll make each and every one of you pay then!")
  If(0,4,0)
   ShowMessageFace("alice_fc6",1,0,2,11)
   ShowMessage("\\n<Alice>You aren't getting your way this time, idiot pawn! We're going to end your interference and reconcile the tribes at the same time!")
   0()
  EndIf()
  If(0,5,0)
   ShowMessageFace("iriasu_fc4",7,0,2,12)
   ShowMessage("\\n<Ilias>What an arrogant monster! Time to show you who you're spouting off at!")
   0()
  EndIf()
  If(4,129,0)
   ShowMessageFace("brunhild_fc1",0,0,2,13)
   ShowMessage("\\n<Hild>Target: Dragon? Giant Bird...?\nEither way, combat mode engaged...")
   0()
  EndIf()
  If(4,79,0)
   ShowMessageFace("nuruko_fc1",0,0,2,14)
   ShowMessage("\\n<Nuruko>Kyuu!!")
   0()
  EndIf()
  PictureClear(5)
  SetBattleBGM(bytes(0x04,0x08,0x6f,0x3a,0x0d,0x52,0x50,0x47,0x3a,0x3a,0x42,0x47,0x4d,0x08,0x3a,0x0a,0x40,0x6e,0x61,0x6d,0x65,0x49,0x22,0x0a,0x62,0x6f,0x73,0x73,0x31,0x06,0x3a,0x06,0x45,0x54,0x3a,0x0c,0x40,0x76,0x6f,0x6c,0x75,0x6d,0x65,0x69,0x69,0x3a,0x0b,0x40,0x70,0x69,0x74,0x63,0x68,0x69,0x69))
  ChangeSwitch(22,22,0)
  Battle(0,671,false,false)
  ChangeSwitch(22,22,1)
  SetBattleBGM(bytes(0x04,0x08,0x6f,0x3a,0x0d,0x52,0x50,0x47,0x3a,0x3a,0x42,0x47,0x4d,0x08,0x3a,0x0a,0x40,0x6e,0x61,0x6d,0x65,0x49,0x22,0x0b,0x62,0x61,0x74,0x74,0x6c,0x65,0x06,0x3a,0x06,0x45,0x54,0x3a,0x0c,0x40,0x76,0x6f,0x6c,0x75,0x6d,0x65,0x69,0x69,0x3a,0x0b,0x40,0x70,0x69,0x74,0x63,0x68,0x69,0x69))
  ChangeSwitch(1904,1904,0)
  314(0,0)
  PictureDisplay(5,"80_coatlus_st05",0,0,0,0,100,100,0,0)
  PictureMove(5,null,0,0,0,0,100,100,255,0,30,true)
  ShowMessageFace("coatlus_fc1",4,0,2,15)
  ShowMessage("\\n<ケツァルコァトル>Kuh, that was embarrassing...\nI knew the damage from that stupid cat would...")
  If(0,6,0)
   ShowMessageFace("sonia_fc1",3,0,2,16)
   ShowMessage("\\n<Sonya>We've got you now! There's no escape--")
   0()
  Else()
   ShowMessageFace("ruka_fc1",0,0,2,17)
   ShowMessage("\\n<Luka>We've got you now! There's no escaping--")
   0()
  EndIf()
  241(bytes(0x04,0x08,0x6f,0x3a,0x0d,0x52,0x50,0x47,0x3a,0x3a,0x42,0x47,0x4d,0x08,0x3a,0x0a,0x40,0x6e,0x61,0x6d,0x65,0x49,0x22,0x0a,0x62,0x6f,0x73,0x73,0x30,0x06,0x3a,0x06,0x45,0x54,0x3a,0x0c,0x40,0x76,0x6f,0x6c,0x75,0x6d,0x65,0x69,0x69,0x3a,0x0b,0x40,0x70,0x69,0x74,0x63,0x68,0x69,0x69))
  If(0,4,0)
   ShowMessageFace("alice_fc5",2,0,2,18)
   ShowMessage("\\n<Alice>...Watch out, something's coming!\nReinforcements...!?")
   0()
  EndIf()
  If(0,5,0)
   ShowMessageFace("iriasu_fc4",7,0,2,19)
   ShowMessage("\\n<Ilias>Stay alert, something is coming our way! They might be enemy reinforcements!")
   0()
  EndIf()
  PictureClear(5)
  Wait(60)
  250(bytes(0x04,0x08,0x6f,0x3a,0x0c,0x52,0x50,0x47,0x3a,0x3a,0x53,0x45,0x08,0x3a,0x0a,0x40,0x6e,0x61,0x6d,0x65,0x49,0x22,0x0d,0x6d,0x6f,0x6e,0x5f,0x77,0x61,0x72,0x70,0x06,0x3a,0x06,0x45,0x54,0x3a,0x0b,0x40,0x70,0x69,0x74,0x63,0x68,0x69,0x69,0x3a,0x0c,0x40,0x76,0x6f,0x6c,0x75,0x6d,0x65,0x69,0x55))
  ChangeSwitch(31,31,0)
  Wait(60)
  PictureDisplay(5,"80_tezcatlipoca_st06",0,0,0,0,100,100,0,0)
  PictureMove(5,null,0,0,0,0,100,100,255,0,30,true)
  ShowMessageFace("tezcatlipoca_fc1",5,0,2,20)
  ShowMessage("\\n<テスカトリポカ>Unnyah! Perfect timing!")
  If(0,4,0)
   ShowMessageFace("alice_fc5",6,0,2,21)
   ShowMessage("\\n<Alice>Crap! We can't handle fighting both at--")
   0()
  EndIf()
  If(0,5,0)
   ShowMessageFace("iriasu_fc4",5,0,2,22)
   ShowMessage("\\n<Ilias>This is bad! Our ability to fight both of them at the same time is--")
   0()
  EndIf()
  PictureClear(5)
  Wait(60)
  205(35,bytes(0x04,0x08,0x6f,0x3a,0x13,0x52,0x50,0x47,0x3a,0x3a,0x4d,0x6f,0x76,0x65,0x52,0x6f,0x75,0x74,0x65,0x09,0x3a,0x0c,0x40,0x72,0x65,0x70,0x65,0x61,0x74,0x46,0x3a,0x0f,0x40,0x73,0x6b,0x69,0x70,0x70,0x61,0x62,0x6c,0x65,0x46,0x3a,0x0a,0x40,0x77,0x61,0x69,0x74,0x46,0x3a,0x0a,0x40,0x6c,0x69,0x73,0x74,0x5b,0x07,0x6f,0x3a,0x15,0x52,0x50,0x47,0x3a,0x3a,0x4d,0x6f,0x76,0x65,0x43,0x6f,0x6d,0x6d,0x61,0x6e,0x64,0x07,0x3a,0x0a,0x40,0x63,0x6f,0x64,0x65,0x69,0x18,0x3a,0x10,0x40,0x70,0x61,0x72,0x61,0x6d,0x65,0x74,0x65,0x72,0x73,0x5b,0x00,0x6f,0x3b,0x0a,0x07,0x3b,0x0b,0x69,0x00,0x3b,0x0c,0x5b,0x00))
  250(bytes(0x04,0x08,0x6f,0x3a,0x0c,0x52,0x50,0x47,0x3a,0x3a,0x53,0x45,0x08,0x3a,0x0a,0x40,0x6e,0x61,0x6d,0x65,0x49,0x22,0x0e,0x6d,0x6f,0x6e,0x5f,0x73,0x6c,0x61,0x73,0x68,0x06,0x3a,0x06,0x45,0x54,0x3a,0x0b,0x40,0x70,0x69,0x74,0x63,0x68,0x69,0x69,0x3a,0x0c,0x40,0x76,0x6f,0x6c,0x75,0x6d,0x65,0x69,0x55))
  205(36,bytes(0x04,0x08,0x6f,0x3a,0x13,0x52,0x50,0x47,0x3a,0x3a,0x4d,0x6f,0x76,0x65,0x52,0x6f,0x75,0x74,0x65,0x09,0x3a,0x0c,0x40,0x72,0x65,0x70,0x65,0x61,0x74,0x46,0x3a,0x0f,0x40,0x73,0x6b,0x69,0x70,0x70,0x61,0x62,0x6c,0x65,0x46,0x3a,0x0a,0x40,0x77,0x61,0x69,0x74,0x54,0x3a,0x0a,0x40,0x6c,0x69,0x73,0x74,0x5b,0x0a,0x6f,0x3a,0x15,0x52,0x50,0x47,0x3a,0x3a,0x4d,0x6f,0x76,0x65,0x43,0x6f,0x6d,0x6d,0x61,0x6e,0x64,0x07,0x3a,0x0a,0x40,0x63,0x6f,0x64,0x65,0x69,0x22,0x3a,0x10,0x40,0x70,0x61,0x72,0x61,0x6d,0x65,0x74,0x65,0x72,0x73,0x5b,0x06,0x69,0x0b,0x6f,0x3b,0x0a,0x07,0x3b,0x0b,0x69,0x23,0x3b,0x0c,0x5b,0x06,0x69,0x09,0x6f,0x3b,0x0a,0x07,0x3b,0x0b,0x69,0x06,0x3b,0x0c,0x5b,0x00,0x6f,0x3b,0x0a,0x07,0x3b,0x0b,0x69,0x06,0x3b,0x0c,0x5b,0x00,0x6f,0x3b,0x0a,0x07,0x3b,0x0b,0x69,0x00,0x3b,0x0c,0x5b,0x00))
  Wait(60)
  PictureDisplay(6,"80_tezcatlipoca_st06",0,0,-150,0,100,100,0,0)
  PictureDisplay(5,"80_coatlus_st05",0,0,150,0,100,100,0,0)
  PictureMove(6,null,0,0,-150,0,100,100,255,0,30,false)
  PictureMove(5,null,0,0,150,0,100,100,255,0,30,true)
  ShowMessageFace("tezcatlipoca_fc1",4,0,2,23)
  ShowMessage("\\n<テスカトリポカ>Unyah!")
  ShowMessageFace("coatlus_fc1",4,0,2,24)
  ShowMessage("\\n<ケツァルコァトル>Damn you!")
  ShowMessageFace("tezcatlipoca_fc1",4,0,2,25)
  ShowMessage("\\n<テスカトリポカ>Klutzalcoatl! I'm going to wipe you off the face of the earth this time!")
  ShowMessageFace("coatlus_fc1",4,0,2,26)
  ShowMessage("\\n<ケツァルコァトル>I still have enough strength to crush one stupid cat!")
  241(bytes(0x04,0x08,0x6f,0x3a,0x0d,0x52,0x50,0x47,0x3a,0x3a,0x42,0x47,0x4d,0x08,0x3a,0x0a,0x40,0x6e,0x61,0x6d,0x65,0x49,0x22,0x10,0x73,0x63,0x65,0x6e,0x65,0x5f,0x63,0x6f,0x6d,0x69,0x32,0x06,0x3a,0x06,0x45,0x54,0x3a,0x0c,0x40,0x76,0x6f,0x6c,0x75,0x6d,0x65,0x69,0x69,0x3a,0x0b,0x40,0x70,0x69,0x74,0x63,0x68,0x69,0x69))
  PictureClear(6)
  PictureDisplay(5,"iv_tezcacoatlus2",0,0,0,0,100,100,255,0)
  250(bytes(0x04,0x08,0x6f,0x3a,0x0c,0x52,0x50,0x47,0x3a,0x3a,0x53,0x45,0x08,0x3a,0x0a,0x40,0x6e,0x61,0x6d,0x65,0x49,0x22,0x0e,0x6d,0x6f,0x6e,0x5f,0x73,0x6c,0x61,0x73,0x68,0x06,0x3a,0x06,0x45,0x54,0x3a,0x0b,0x40,0x70,0x69,0x74,0x63,0x68,0x69,0x69,0x3a,0x0c,0x40,0x76,0x6f,0x6c,0x75,0x6d,0x65,0x69,0x55))
  ShowMessageFace("tezcatlipoca_fc1",4,0,2,27)
  ShowMessage("\\n<テスカトリポカ>Unyah!")
  250(bytes(0x04,0x08,0x6f,0x3a,0x0c,0x52,0x50,0x47,0x3a,0x3a,0x53,0x45,0x08,0x3a,0x0a,0x40,0x6e,0x61,0x6d,0x65,0x49,0x22,0x10,0x6d,0x6f,0x6e,0x5f,0x64,0x61,0x67,0x65,0x6b,0x69,0x32,0x06,0x3a,0x06,0x45,0x54,0x3a,0x0b,0x40,0x70,0x69,0x74,0x63,0x68,0x69,0x69,0x3a,0x0c,0x40,0x76,0x6f,0x6c,0x75,0x6d,0x65,0x69,0x55))
  ShowMessageFace("coatlus_fc1",4,0,2,28)
  ShowMessage("\\n<ケツァルコァトル>Die!")
  250(bytes(0x04,0x08,0x6f,0x3a,0x0c,0x52,0x50,0x47,0x3a,0x3a,0x53,0x45,0x08,0x3a,0x0a,0x40,0x6e,0x61,0x6d,0x65,0x49,0x22,0x0f,0x6d,0x6f,0x6e,0x5f,0x73,0x6c,0x61,0x73,0x68,0x33,0x06,0x3a,0x06,0x45,0x54,0x3a,0x0b,0x40,0x70,0x69,0x74,0x63,0x68,0x69,0x69,0x3a,0x0c,0x40,0x76,0x6f,0x6c,0x75,0x6d,0x65,0x69,0x55))
  ShowMessageFace("tezcatlipoca_fc1",4,0,2,29)
  ShowMessage("\\n<テスカトリポカ>Klutz!")
  250(bytes(0x04,0x08,0x6f,0x3a,0x0c,0x52,0x50,0x47,0x3a,0x3a,0x53,0x45,0x08,0x3a,0x0a,0x40,0x6e,0x61,0x6d,0x65,0x49,0x22,0x0d,0x6d,0x6f,0x6e,0x5f,0x62,0x6f,0x6d,0x32,0x06,0x3a,0x06,0x45,0x54,0x3a,0x0b,0x40,0x70,0x69,0x74,0x63,0x68,0x69,0x69,0x3a,0x0c,0x40,0x76,0x6f,0x6c,0x75,0x6d,0x65,0x69,0x55))
  ShowMessageFace("coatlus_fc1",4,0,2,30)
  ShowMessage("\\n<ケツァルコァトル>Furball!")
  Wait(60)
  PictureClear(5)
  205(35,bytes(0x04,0x08,0x6f,0x3a,0x13,0x52,0x50,0x47,0x3a,0x3a,0x4d,0x6f,0x76,0x65,0x52,0x6f,0x75,0x74,0x65,0x09,0x3a,0x0c,0x40,0x72,0x65,0x70,0x65,0x61,0x74,0x46,0x3a,0x0f,0x40,0x73,0x6b,0x69,0x70,0x70,0x61,0x62,0x6c,0x65,0x46,0x3a,0x0a,0x40,0x77,0x61,0x69,0x74,0x46,0x3a,0x0a,0x40,0x6c,0x69,0x73,0x74,0x5b,0x1e,0x6f,0x3a,0x15,0x52,0x50,0x47,0x3a,0x3a,0x4d,0x6f,0x76,0x65,0x43,0x6f,0x6d,0x6d,0x61,0x6e,0x64,0x07,0x3a,0x0a,0x40,0x63,0x6f,0x64,0x65,0x69,0x2a,0x3a,0x10,0x40,0x70,0x61,0x72,0x61,0x6d,0x65,0x74,0x65,0x72,0x73,0x5b,0x00,0x6f,0x3b,0x0a,0x07,0x3b,0x0b,0x69,0x28,0x3b,0x0c,0x5b,0x00,0x6f,0x3b,0x0a,0x07,0x3b,0x0b,0x69,0x22,0x3b,0x0c,0x5b,0x06,0x69,0x0b,0x6f,0x3b,0x0a,0x07,0x3b,0x0b,0x69,0x23,0x3b,0x0c,0x5b,0x06,0x69,0x0a,0x6f,0x3b,0x0a,0x07,0x3b,0x0b,0x69,0x08,0x3b,0x0c,0x5b,0x00,0x6f,0x3b,0x0a,0x07,0x3b,0x0b,0x69,0x08,0x3b,0x0c,0x5b,0x00,0x6f,0x3b,0x0a,0x07,0x3b,0x0b,0x69,0x08,0x3b,0x0c,0x5b,0x00,0x6f,0x3b,0x0a,0x07,0x3b,0x0b,0x69,0x08,0x3b,0x0c,0x5b,0x00,0x6f,0x3b,0x0a,0x07,0x3b,0x0b,0x69,0x08,0x3b,0x0c,0x5b,0x00,0x6f,0x3b,0x0a,0x07,0x3b,0x0b,0x69,0x08,0x3b,0x0c,0x5b,0x00,0x6f,0x3b,0x0a,0x07,0x3b,0x0b,0x69,0x08,0x3b,0x0c,0x5b,0x00,0x6f,0x3b,0x0a,0x07,0x3b,0x0b,0x69,0x08,0x3b,0x0c,0x5b,0x00,0x6f,0x3b,0x0a,0x07,0x3b,0x0b,0x69,0x08,0x3b,0x0c,0x5b,0x00,0x6f,0x3b,0x0a,0x07,0x3b,0x0b,0x69,0x08,0x3b,0x0c,0x5b,0x00,0x6f,0x3b,0x0a,0x07,0x3b,0x0b,0x69,0x08,0x3b,0x0c,0x5b,0x00,0x6f,0x3b,0x0a,0x07,0x3b,0x0b,0x69,0x08,0x3b,0x0c,0x5b,0x00,0x6f,0x3b,0x0a,0x07,0x3b,0x0b,0x69,0x08,0x3b,0x0c,0x5b,0x00,0x6f,0x3b,0x0a,0x07,0x3b,0x0b,0x69,0x08,0x3b,0x0c,0x5b,0x00,0x6f,0x3b,0x0a,0x07,0x3b,0x0b,0x69,0x08,0x3b,0x0c,0x5b,0x00,0x6f,0x3b,0x0a,0x07,0x3b,0x0b,0x69,0x08,0x3b,0x0c,0x5b,0x00,0x6f,0x3b,0x0a,0x07,0x3b,0x0b,0x69,0x08,0x3b,0x0c,0x5b,0x00,0x6f,0x3b,0x0a,0x07,0x3b,0x0b,0x69,0x08,0x3b,0x0c,0x5b,0x00,0x6f,0x3b,0x0a,0x07,0x3b,0x0b,0x69,0x08,0x3b,0x0c,0x5b,0x00,0x6f,0x3b,0x0a,0x07,0x3b,0x0b,0x69,0x2c,0x3b,0x0c,0x5b,0x00,0x6f,0x3b,0x0a,0x07,0x3b,0x0b,0x69,0x00,0x3b,0x0c,0x5b,0x00))
  205(36,bytes(0x04,0x08,0x6f,0x3a,0x13,0x52,0x50,0x47,0x3a,0x3a,0x4d,0x6f,0x76,0x65,0x52,0x6f,0x75,0x74,0x65,0x09,0x3a,0x0c,0x40,0x72,0x65,0x70,0x65,0x61,0x74,0x46,0x3a,0x0f,0x40,0x73,0x6b,0x69,0x70,0x70,0x61,0x62,0x6c,0x65,0x46,0x3a,0x0a,0x40,0x77,0x61,0x69,0x74,0x54,0x3a,0x0a,0x40,0x6c,0x69,0x73,0x74,0x5b,0x1e,0x6f,0x3a,0x15,0x52,0x50,0x47,0x3a,0x3a,0x4d,0x6f,0x76,0x65,0x43,0x6f,0x6d,0x6d,0x61,0x6e,0x64,0x07,0x3a,0x0a,0x40,0x63,0x6f,0x64,0x65,0x69,0x2a,0x3a,0x10,0x40,0x70,0x61,0x72,0x61,0x6d,0x65,0x74,0x65,0x72,0x73,0x5b,0x00,0x6f,0x3b,0x0a,0x07,0x3b,0x0b,0x69,0x28,0x3b,0x0c,0x5b,0x00,0x6f,0x3b,0x0a,0x07,0x3b,0x0b,0x69,0x22,0x3b,0x0c,0x5b,0x06,0x69,0x0b,0x6f,0x3b,0x0a,0x07,0x3b,0x0b,0x69,0x23,0x3b,0x0c,0x5b,0x06,0x69,0x0a,0x6f,0x3b,0x0a,0x07,0x3b,0x0b,0x69,0x08,0x3b,0x0c,0x5b,0x00,0x6f,0x3b,0x0a,0x07,0x3b,0x0b,0x69,0x08,0x3b,0x0c,0x5b,0x00,0x6f,0x3b,0x0a,0x07,0x3b,0x0b,0x69,0x08,0x3b,0x0c,0x5b,0x00,0x6f,0x3b,0x0a,0x07,0x3b,0x0b,0x69,0x08,0x3b,0x0c,0x5b,0x00,0x6f,0x3b,0x0a,0x07,0x3b,0x0b,0x69,0x08,0x3b,0x0c,0x5b,0x00,0x6f,0x3b,0x0a,0x07,0x3b,0x0b,0x69,0x08,0x3b,0x0c,0x5b,0x00,0x6f,0x3b,0x0a,0x07,0x3b,0x0b,0x69,0x08,0x3b,0x0c,0x5b,0x00,0x6f,0x3b,0x0a,0x07,0x3b,0x0b,0x69,0x08,0x3b,0x0c,0x5b,0x00,0x6f,0x3b,0x0a,0x07,0x3b,0x0b,0x69,0x08,0x3b,0x0c,0x5b,0x00,0x6f,0x3b,0x0a,0x07,0x3b,0x0b,0x69,0x08,0x3b,0x0c,0x5b,0x00,0x6f,0x3b,0x0a,0x07,0x3b,0x0b,0x69,0x08,0x3b,0x0c,0x5b,0x00,0x6f,0x3b,0x0a,0x07,0x3b,0x0b,0x69,0x08,0x3b,0x0c,0x5b,0x00,0x6f,0x3b,0x0a,0x07,0x3b,0x0b,0x69,0x08,0x3b,0x0c,0x5b,0x00,0x6f,0x3b,0x0a,0x07,0x3b,0x0b,0x69,0x08,0x3b,0x0c,0x5b,0x00,0x6f,0x3b,0x0a,0x07,0x3b,0x0b,0x69,0x08,0x3b,0x0c,0x5b,0x00,0x6f,0x3b,0x0a,0x07,0x3b,0x0b,0x69,0x08,0x3b,0x0c,0x5b,0x00,0x6f,0x3b,0x0a,0x07,0x3b,0x0b,0x69,0x08,0x3b,0x0c,0x5b,0x00,0x6f,0x3b,0x0a,0x07,0x3b,0x0b,0x69,0x08,0x3b,0x0c,0x5b,0x00,0x6f,0x3b,0x0a,0x07,0x3b,0x0b,0x69,0x08,0x3b,0x0c,0x5b,0x00,0x6f,0x3b,0x0a,0x07,0x3b,0x0b,0x69,0x2c,0x3b,0x0c,0x5b,0x00,0x6f,0x3b,0x0a,0x07,0x3b,0x0b,0x69,0x00,0x3b,0x0c,0x5b,0x00))
  ChangeSwitch(31,31,1)
  If(0,6,0)
   ShowMessageFace("sonia_fc4",0,0,2,31)
   ShowMessage("\\n<Sonya>......")
   0()
  Else()
   ShowMessageFace("ruka_fc1",0,0,2,32)
   ShowMessage("\\n<Luka>......")
   0()
  EndIf()
  ShowMessageFace("a_emp_fc1",2,0,2,33)
  ShowMessage("\\n<アルラ・プリエステス>Another reason I want to end this war...")
  ShowMessageFace("queenbee_fc1",2,0,2,34)
  ShowMessage("\\n<クィーンビー>One hundred percent agreed. That was painful just to watch...")
  221()
  Wait(60)
  TeleportPlayer(0,132,35,36,8,2)
  241(bytes(0x04,0x08,0x6f,0x3a,0x0d,0x52,0x50,0x47,0x3a,0x3a,0x42,0x47,0x4d,0x08,0x3a,0x0a,0x40,0x6e,0x61,0x6d,0x65,0x49,0x22,0x14,0x73,0x63,0x65,0x6e,0x65,0x5f,0x65,0x70,0x69,0x6c,0x6f,0x67,0x75,0x65,0x32,0x06,0x3a,0x06,0x45,0x54,0x3a,0x0c,0x40,0x76,0x6f,0x6c,0x75,0x6d,0x65,0x69,0x69,0x3a,0x0b,0x40,0x70,0x69,0x74,0x63,0x68,0x69,0x69))
  ChangeSwitch(32,32,0)
  222()
  If(1,909,0,0,0)
   ShowMessageFace("",0,0,2,35)
   ShowMessage("Priestess and Miria leave the party...")
   ChangeSwitch(1241,1241,1)
   ChangePartyMember(241,1,0)
   ChangeSwitch(1245,1245,1)
   ChangePartyMember(245,1,0)
   0()
  EndIf()
  355("gain_medal(39)")
  PictureDisplay(5,"80_a_emp_st02",0,0,-150,0,100,100,0,0)
  PictureDisplay(6,"80_queenbee_st02",0,0,150,0,100,100,0,0)
  PictureMove(5,null,0,0,-150,0,100,100,255,0,30,false)
  PictureMove(6,null,0,0,150,0,100,100,255,0,30,true)
  ShowMessageFace("a_emp_fc1",1,0,2,36)
  ShowMessage("\\n<アルラ・プリエステス>Thank you so much, truly.\nWe owe you for getting rid of Black Alice's lackeys.")
  ShowMessageFace("queenbee_fc1",1,0,2,37)
  ShowMessage("\\n<クィーンビー>We got wrapped up in their conflict and were on the verge of making a mistake we could never take back.")
  If(4,226,0)
   ShowMessageFace("sirohebisama_fc1",0,0,2,38)
   ShowMessage("\\n<Shirohebi>Mmmhmm... That wraps this matter up.")
   0()
  EndIf()
  If(0,4,0)
   ShowMessageFace("alice_fc5",0,0,2,39)
   ShowMessage("\\n<Alice>As one of the three monster lords around right now, Black Alice apparently isn't content to sit on the sidelines.")
   ShowMessageFace("alice_fc5",0,0,2,40)
   ShowMessage("\\n<Alice>If she somehow interferes here again, let us know. It's important that we learn what she's up to.")
   0()
  EndIf()
  If(0,5,0)
   ShowMessageFace("iriasu_fc4",2,0,2,41)
   ShowMessage("\\n<Ilias>It appears that Black Alice is putting plots into action, though I have no idea what she intended to accomplish with those two morons.")
   ShowMessageFace("iriasu_fc4",2,0,2,42)
   ShowMessage("\\n<Ilias>If she somehow interferes here again, do not hesitate in contacting us. It is of the utmost importance that we monitor her actions.")
   0()
  EndIf()
  ShowMessageFace("a_emp_fc1",1,0,2,43)
  ShowMessage("\\n<アルラ・プリエステス>If it happens again, the plant and insect tribes will unite and resist their control. We may need your strength as well...")
  ShowMessageFace("a_emp_fc1",1,0,2,44)
  ShowMessage("\\n<アルラ・プリエステス>Anyway, I thank you from the bottom of my heart. If there is ever something we can help you with, let us know.")
  ShowMessageFace("queenbee_fc1",1,0,2,45)
  ShowMessage("\\n<クィーンビー>I owe you a debt of gratitude as well. I'll be staying at Red Mountain, so if you need me, come visit me there.")
  ShowMessageFace("queenbee_fc1",1,0,2,46)
  ShowMessage("\\n<クィーンビー>Until we meet again. May the fortunes of war smile upon your journey.")
  PictureClear(5)
  PictureClear(6)
  ShowMessageFace("",0,0,2,47)
  ShowMessage("Thus, the conflict at Plansect Village was resolved. On to the next step of our adventure--")
  ChangeVariable(1056,1056,0,0,5)
  ChangeVariable(1061,1061,0,0,3)
  221()
  Wait(60)
  TeleportPlayer(0,2,283,198,2,2)
  ChangeSwitch(32,32,1)
  222()
  0()
 PAGE   3
  // condition: switch 2323 is ON
  0()
 PAGE   4
  // condition: variable 1061 >= 1
  If(1,1061,0,1,0)
   PictureDisplay(5,"80_queenbee_st03",0,0,0,0,100,100,0,0)
   PictureMove(5,null,0,0,0,0,100,100,255,0,30,true)
   ShowMessageFace("queenbee_fc1",2,0,2,1)
   ShowMessage("\\n<クィーンビー>We insects were allowed to continue living here on Red Mountain. To be honest, it's not a bad place to live at all...")
   ShowMessageFace("queenbee_fc1",2,0,2,2)
   ShowMessage("\\n<クィーンビー>Who knows how long it'll last though. The plant tribe could change their mind and come wipe us out at any time.")
   ShowMessageFace("queenbee_fc1",2,0,2,3)
   ShowMessage("\\n<クィーンビー>Not a day passes where I don't worry about that possibility. Is this just another punishment for us losing?")
   PictureClear(5)
   EndEventProcessing()
   0()
  EndIf()
  If(1,1061,0,2,1)
   PictureDisplay(5,"80_queenbee_st02",0,0,0,0,100,100,0,0)
   PictureMove(5,null,0,0,0,0,100,100,255,0,30,true)
   ShowMessageFace("queenbee_fc1",1,0,2,4)
   ShowMessage("\\n<クィーンビー>Well met, heroes. If there is anything you would ask of me, don't hold back.")
   ShowChoices(strings("Join my party","Nothing"),2)
   IfPlayerPicksChoice(0,null)
    ShowMessageFace("queenbee_fc1",1,0,2,5)
    ShowMessage("\\n<クィーンビー>Oh, you desire my strength?\nHmm... Traveling the world and searching out new peaceful locales sounds interesting.")
    ShowMessageFace("queenbee_fc1",1,0,2,6)
    ShowMessage("\\n<クィーンビー>Very well, let us triumph together. Use my talents as you wish...")
    PictureClear(5)
    205(0,bytes(0x04,0x08,0x6f,0x3a,0x13,0x52,0x50,0x47,0x3a,0x3a,0x4d,0x6f,0x76,0x65,0x52,0x6f,0x75,0x74,0x65,0x09,0x3a,0x0c,0x40,0x72,0x65,0x70,0x65,0x61,0x74,0x46,0x3a,0x0f,0x40,0x73,0x6b,0x69,0x70,0x70,0x61,0x62,0x6c,0x65,0x46,0x3a,0x0a,0x40,0x77,0x61,0x69,0x74,0x54,0x3a,0x0a,0x40,0x6c,0x69,0x73,0x74,0x5b,0x09,0x6f,0x3a,0x15,0x52,0x50,0x47,0x3a,0x3a,0x4d,0x6f,0x76,0x65,0x43,0x6f,0x6d,0x6d,0x61,0x6e,0x64,0x07,0x3a,0x0a,0x40,0x63,0x6f,0x64,0x65,0x69,0x2a,0x3a,0x10,0x40,0x70,0x61,0x72,0x61,0x6d,0x65,0x74,0x65,0x72,0x73,0x5b,0x00,0x6f,0x3b,0x0a,0x07,0x3b,0x0b,0x69,0x0f,0x3b,0x0c,0x5b,0x00,0x6f,0x3b,0x0a,0x07,0x3b,0x0b,0x69,0x2c,0x3b,0x0c,0x5b,0x00,0x6f,0x3b,0x0a,0x07,0x3b,0x0b,0x69,0x00,0x3b,0x0c,0x5b,0x00))
    355("add_actor_ex(245)")
    249(bytes(0x04,0x08,0x6f,0x3a,0x0c,0x52,0x50,0x47,0x3a,0x3a,0x4d,0x45,0x08,0x3a,0x0a,0x40,0x6e,0x61,0x6d,0x65,0x49,0x22,0x0c,0x66,0x61,0x6e,0x66,0x61,0x6c,0x65,0x06,0x3a,0x06,0x45,0x54,0x3a,0x0b,0x40,0x70,0x69,0x74,0x63,0x68,0x69,0x69,0x3a,0x0c,0x40,0x76,0x6f,0x6c,0x75,0x6d,0x65,0x69,0x69))
    ShowMessageFace("",0,0,2,7)
    ShowMessage("Miria has joined the party!")
    Wait(60)
    If(0,4,0)
     ShowMessageFace("alice_fc5",7,0,2,8)
     ShowMessage("\\n<Alice>On that subject, I could really go for some honey... ♪")
     0()
    EndIf()
    If(0,5,0)
     ShowMessageFace("iriasu_fc4",1,0,2,9)
     ShowMessage("\\n<Ilias>I suddenly have a craving for honey.")
     0()
    EndIf()
    ShowMessageFace("queenbee_fc1",2,0,2,10)
    ShowMessage("\\n<Miria>Sigh, all right... These are reserves meant for my daughters. They should last you a while.")
    If(0,6,0)
     ShowMessageFace("sonia_fc4",0,0,2,11)
     ShowMessage("\\n<Sonya>That honey pot is going to be licked clean by tomorrow morning...")
     0()
    Else()
     ShowMessageFace("ruka_fc1",0,0,2,12)
     ShowMessage("\\n<Luka>That honey pot is going to be licked clean by tomorrow morning...")
     0()
    EndIf()
    ChangeSelfSwitch("B",0)
    EndEventProcessing()
    0()
   IfPlayerPicksChoice(1,null)
    ShowMessageFace("queenbee_fc1",1,0,2,13)
    ShowMessage("\\n<クィーンビー>Oh, did you come just to say hello? That's very nice of you...")
    PictureClear(5)
    EndEventProcessing()
    0()
   404()
   0()
  EndIf()
  0()
 PAGE   5
  // condition: self-switch B is ON
  0()
 PAGE   6
  // condition: switch 2279 is ON
  0()



EVENT   35
 PAGE   1
  // condition: variable 1056 >= 4
  PictureDisplay(5,"80_coatlus_st01",0,0,0,0,100,100,255,0)
  ShowMessageFace("coatlus_fc1",0,0,2,1)
  ShowMessage("\\n<ケツァルコアトル>Wait right there. Once I finish off this bee, you're up next...")
  PictureClear(5)
  EndEventProcessing()
  0()
 PAGE   2
  // condition: variable 1061 >= 1
  0()



EVENT   36
 PAGE   1
  // condition: switch 31 is ON
  0()



EVENT   37
 PAGE   1
  0()
 PAGE   2
  // condition: variable 1056 >= 2
  0()



EVENT   38
 PAGE   1
  ShowMessageFace("a_vore_fc1",2,0,2,1)
  ShowMessage("\\n<アルラ・ボア>We've made it this far in but keep having to give up every inch we take. We knew this wouldn't be easy.")
  RunCommonEvent(335)
  0()
 PAGE   2
  // condition: variable 1056 >= 2
  0()



EVENT   39
 PAGE   1
  ShowMessageFace("a_alm_fc1",0,0,2,1)
  ShowMessage("\\n<アルラ・アルム>No surprise that I'm hurt all over...\nMaking it this far was never going to be easy.")
  If(4,166,0)
   ShowMessageFace("narcubus_fc1",0,0,2,2)
   ShowMessage("\\n<ナビス>Do you require a nurse?")
   ShowMessageFace("a_alm_fc1",0,0,2,3)
   ShowMessage("\\n<アルラ・アルム>No, I'll be fine. Alraune excel at healing, after all.")
   0()
  EndIf()
  0()
 PAGE   2
  // condition: variable 1061 >= 1
  0()



EVENT   40
 PAGE   1
  ShowMessageFace("a_looty_fc1",2,0,2,1)
  ShowMessage("\\n<アルラ・ルーティ>This is hard work... I need a short break.")
  0()
 PAGE   2
  // condition: variable 1061 >= 1
  0()



EVENT   41
 PAGE   1
  ShowMessageFace("a_vore_fc1",2,0,2,1)
  ShowMessage("\\n<アルラ・ボア>It turns out that eating too many insects is bad for your stomach...")
  355("actor_label_jump")
  EndEventProcessing()
  DefineLabel("112")
  ShowMessageFace("utubo_fc1",0,0,2,2)
  ShowMessage("\\n<かずら>Hey, share some with me...")
  EndEventProcessing()
  0()
 PAGE   2
  // condition: variable 1061 >= 1
  0()



EVENT   42
 PAGE   1
  ShowMessageFace("a_parasol_fc1",2,0,2,1)
  ShowMessage("\\n<アルラ・パラソル>She looks completely exhausted, but Queen Bee is just up ahead...")
  0()
 PAGE   2
  // condition: variable 1061 >= 1
  0()



EVENT   43
 PAGE   1
  ShowMessageFace("a_mash_fc1",0,0,2,1)
  ShowMessage("\\n<アルラ・マッシュ>Ukekekeke!")
  0()
 PAGE   2
  // condition: variable 1061 >= 1
  0()



EVENT   44
 PAGE   1
  // condition: variable 1056 >= 2
  ChangeSelfSwitch("A",0)
  If(0,4,0)
   ShowMessageFace("alice_fc5",2,0,2,1)
   ShowMessage("\\n<Alice>Is this the mountain where the insect tribe is holed up? The plant tribe soldiers have already been through here, but I can't say it looks like the war is going well for them.")
   0()
  EndIf()
  If(0,5,0)
   ShowMessageFace("iriasu_fc4",2,0,2,2)
   ShowMessage("\\n<Ilias>The insect tribe is holed up here on Red Mountain. The plants have been through this area, but they do not appear to be faring too well.")
   0()
  EndIf()
  If(4,129,0)
   ShowMessageFace("brunhild_fc1",0,0,2,3)
   ShowMessage("\\n<Hild>Analyzing combat situation...\nStatus: stalemate. Probably.")
   0()
  EndIf()
  ShowMessageFace("ruka_fc1",0,0,2,4)
  ShowMessage("\\n<Luka>Let's go find the insect leader, Queen Bee!")
  0()
 PAGE   2
  // condition: self-switch A is ON
  0()



EVENT   45
 PAGE   1
  250(bytes(0x04,0x08,0x6f,0x3a,0x0c,0x52,0x50,0x47,0x3a,0x3a,0x53,0x45,0x08,0x3a,0x0a,0x40,0x6e,0x61,0x6d,0x65,0x49,0x22,0x0a,0x43,0x68,0x65,0x73,0x74,0x06,0x3a,0x06,0x45,0x54,0x3a,0x0b,0x40,0x70,0x69,0x74,0x63,0x68,0x69,0x69,0x3a,0x0c,0x40,0x76,0x6f,0x6c,0x75,0x6d,0x65,0x69,0x55))
  205(0,bytes(0x04,0x08,0x6f,0x3a,0x13,0x52,0x50,0x47,0x3a,0x3a,0x4d,0x6f,0x76,0x65,0x52,0x6f,0x75,0x74,0x65,0x09,0x3a,0x0c,0x40,0x72,0x65,0x70,0x65,0x61,0x74,0x46,0x3a,0x0f,0x40,0x73,0x6b,0x69,0x70,0x70,0x61,0x62,0x6c,0x65,0x46,0x3a,0x0a,0x40,0x77,0x61,0x69,0x74,0x54,0x3a,0x0a,0x40,0x6c,0x69,0x73,0x74,0x5b,0x0b,0x6f,0x3a,0x15,0x52,0x50,0x47,0x3a,0x3a,0x4d,0x6f,0x76,0x65,0x43,0x6f,0x6d,0x6d,0x61,0x6e,0x64,0x07,0x3a,0x0a,0x40,0x63,0x6f,0x64,0x65,0x69,0x29,0x3a,0x10,0x40,0x70,0x61,0x72,0x61,0x6d,0x65,0x74,0x65,0x72,0x73,0x5b,0x00,0x6f,0x3b,0x0a,0x07,0x3b,0x0b,0x69,0x16,0x3b,0x0c,0x5b,0x00,0x6f,0x3b,0x0a,0x07,0x3b,0x0b,0x69,0x14,0x3b,0x0c,0x5b,0x06,0x69,0x08,0x6f,0x3b,0x0a,0x07,0x3b,0x0b,0x69,0x17,0x3b,0x0c,0x5b,0x00,0x6f,0x3b,0x0a,0x07,0x3b,0x0b,0x69,0x14,0x3b,0x0c,0x5b,0x06,0x69,0x08,0x6f,0x3b,0x0a,0x07,0x3b,0x0b,0x69,0x00,0x3b,0x0c,0x5b,0x00))
  ShowMessageFace("",0,0,2,1)
  ShowMessage("The treasure chest was a box girl!")
  Battle(0,606,false,false)
  ChangeSelfSwitch("A",0)
  0()
 PAGE   2
  // condition: self-switch A is ON
  0()



EVENT   46
 PAGE   1
  ShowMessageFace("",0,0,2,1)
  ShowMessage("Recovery spring!")
  250(bytes(0x04,0x08,0x6f,0x3a,0x0c,0x52,0x50,0x47,0x3a,0x3a,0x53,0x45,0x08,0x3a,0x0a,0x40,0x6e,0x61,0x6d,0x65,0x49,0x22,0x0a,0x48,0x65,0x61,0x6c,0x37,0x06,0x3a,0x06,0x45,0x54,0x3a,0x0b,0x40,0x70,0x69,0x74,0x63,0x68,0x69,0x69,0x3a,0x0c,0x40,0x76,0x6f,0x6c,0x75,0x6d,0x65,0x69,0x55))
  224(bytes(0x04,0x08,0x75,0x3a,0x0a,0x43,0x6f,0x6c,0x6f,0x72,0x25,0x00,0x00,0x00,0x00,0x00,0xe0,0x6f,0x40,0x00,0x00,0x00,0x00,0x00,0xe0,0x6f,0x40,0x00,0x00,0x00,0x00,0x00,0xe0,0x6f,0x40,0x00,0x00,0x00,0x00,0x00,0xe0,0x6f,0x40),30,true)
  314(0,0)
  ShowMessageFace("",0,0,2,2)
  ShowMessage("The party's HP and MP have been fully restored!")
  0()



EVENT   47
 PAGE   1
  // condition: switch 2279 is ON
  0()



EVENT   48
 PAGE   1
  // condition: variable 1056 >= 3
  ShowMessageFace("suzumebati_fc1",0,0,2,1)
  ShowMessage("\\n<スズメバチ娘>To the summit?")
  ShowChoices(strings("Yes please","No thanks"),2)
  IfPlayerPicksChoice(0,null)
   TeleportPlayer(0,134,30,15,8,0)
   0()
  IfPlayerPicksChoice(1,null)
   0()
  404()
  0()



EVENT   49
 PAGE   1
  // condition: switch 2279 is ON
  0()



EVENT   50
 PAGE   1
  // condition: switch 2279 is ON
  // condition: switch 32 is ON
  0()
