﻿
DisplayName "Pocket Castle Indoor Beach"



EVENT   1
 PAGE   1
  281(0)
  250(bytes(0x04,0x08,0x6f,0x3a,0x0c,0x52,0x50,0x47,0x3a,0x3a,0x53,0x45,0x08,0x3a,0x0a,0x40,0x6e,0x61,0x6d,0x65,0x49,0x22,0x09,0x4d,0x6f,0x76,0x65,0x06,0x3a,0x06,0x45,0x54,0x3a,0x0b,0x40,0x70,0x69,0x74,0x63,0x68,0x69,0x69,0x3a,0x0c,0x40,0x76,0x6f,0x6c,0x75,0x6d,0x65,0x69,0x55))
  TeleportPlayer(0,229,4,11,0,0)
  0()



EVENT   2
 PAGE   1
  0()



EVENT   3
 PAGE   1
  0()



EVENT   4
 PAGE   1
  281(0)
  250(bytes(0x04,0x08,0x6f,0x3a,0x0c,0x52,0x50,0x47,0x3a,0x3a,0x53,0x45,0x08,0x3a,0x0a,0x40,0x6e,0x61,0x6d,0x65,0x49,0x22,0x09,0x4d,0x6f,0x76,0x65,0x06,0x3a,0x06,0x45,0x54,0x3a,0x0b,0x40,0x70,0x69,0x74,0x63,0x68,0x69,0x69,0x3a,0x0c,0x40,0x76,0x6f,0x6c,0x75,0x6d,0x65,0x69,0x55))
  TeleportPlayer(0,229,4,11,0,0)
  0()




EVENT   5
 PAGE   1
  // condition: switch 1076 is ON
  PictureDisplay(5,"80_syuree_st01",0,0,0,0,100,100,0,0)
  PictureMove(5,null,0,0,0,0,100,100,255,0,30,true)
  If(1,3076,0,10,1)
   If(1,4076,0,0,0)
    ChangeVariable(4076,4076,0,0,1)
    ShowMessageFace("syuree_fc1",0,0,2,1)
    ShowMessage("\\n<Sully (Affection:\\V[3076])>I found something strange. I don't need it, so you can have it!")
    250(bytes(0x04,0x08,0x6f,0x3a,0x0c,0x52,0x50,0x47,0x3a,0x3a,0x53,0x45,0x08,0x3a,0x0a,0x40,0x6e,0x61,0x6d,0x65,0x49,0x22,0x0a,0x49,0x74,0x65,0x6d,0x31,0x06,0x3a,0x06,0x45,0x54,0x3a,0x0b,0x40,0x70,0x69,0x74,0x63,0x68,0x69,0x69,0x3a,0x0c,0x40,0x76,0x6f,0x6c,0x75,0x6d,0x65,0x69,0x55))
    ChangeInventory_Item(71,0,0,1)
    0()
   EndIf()
   0()
  EndIf()
  If(1,3076,0,100,1)
   If(1,4076,0,1,0)
    ChangeVariable(4076,4076,0,0,2)
    ShowMessageFace("syuree_fc1",0,0,2,2)
    ShowMessage("\\n<Sully (Affection:\\V[3076])>I found something strange. I don't need it, so you can have it!")
    250(bytes(0x04,0x08,0x6f,0x3a,0x0c,0x52,0x50,0x47,0x3a,0x3a,0x53,0x45,0x08,0x3a,0x0a,0x40,0x6e,0x61,0x6d,0x65,0x49,0x22,0x0a,0x49,0x74,0x65,0x6d,0x31,0x06,0x3a,0x06,0x45,0x54,0x3a,0x0b,0x40,0x70,0x69,0x74,0x63,0x68,0x69,0x69,0x3a,0x0c,0x40,0x76,0x6f,0x6c,0x75,0x6d,0x65,0x69,0x55))
    ChangeInventoryArmor(274,0,0,1,false)
    0()
   EndIf()
   0()
  EndIf()
  If(1,3076,0,500,1)
   If(1,4076,0,2,0)
    ChangeVariable(4076,4076,0,0,3)
    ShowMessageFace("syuree_fc1",0,0,2,3)
    ShowMessage("\\n<Sully (Affection:\\V[3076])>I found something strange. I don't need it, so you can have it!")
    250(bytes(0x04,0x08,0x6f,0x3a,0x0c,0x52,0x50,0x47,0x3a,0x3a,0x53,0x45,0x08,0x3a,0x0a,0x40,0x6e,0x61,0x6d,0x65,0x49,0x22,0x0a,0x49,0x74,0x65,0x6d,0x31,0x06,0x3a,0x06,0x45,0x54,0x3a,0x0b,0x40,0x70,0x69,0x74,0x63,0x68,0x69,0x69,0x3a,0x0c,0x40,0x76,0x6f,0x6c,0x75,0x6d,0x65,0x69,0x55))
    ChangeInventoryArmor(1584,0,0,1,false)
    0()
   EndIf()
   0()
  EndIf()
  If(1,3076,0,2000,1)
   If(1,4076,0,3,0)
    ChangeVariable(4076,4076,0,0,4)
    ShowMessageFace("syuree_fc1",0,0,2,4)
    ShowMessage("\\n<Sully (Affection:\\V[3076])>I found something strange. I don't need it, so you can have it!")
    250(bytes(0x04,0x08,0x6f,0x3a,0x0c,0x52,0x50,0x47,0x3a,0x3a,0x53,0x45,0x08,0x3a,0x0a,0x40,0x6e,0x61,0x6d,0x65,0x49,0x22,0x0a,0x49,0x74,0x65,0x6d,0x31,0x06,0x3a,0x06,0x45,0x54,0x3a,0x0b,0x40,0x70,0x69,0x74,0x63,0x68,0x69,0x69,0x3a,0x0c,0x40,0x76,0x6f,0x6c,0x75,0x6d,0x65,0x69,0x55))
    ChangeInventoryArmor(1165,0,0,1,false)
    0()
   EndIf()
   0()
  EndIf()
  355("actor_label_jump")
  ShowMessageFace("syuree_fc1",0,0,2,5)
  ShowMessage("\\n<Sully (Affection:\\V[3076])>Hey, what's a shrimp? Am I a shrimp?")
  JumpToLabel("メニュー")
  DefineLabel("77")
  ShowMessageFace("syuree_fc1",0,0,2,6)
  ShowMessage("\\n<Sully (Affection:\\V[3076])>Oh, it's the Jaide model! Hey! Hey! You doing well?")
  ShowMessageFace("jeid_fc1",0,0,2,7)
  ShowMessage("\\n<Jaide (Affection:\\V[3077])>Hello Sully model. There are no errors with my functions.")
  ShowMessageFace("syuree_fc1",0,0,2,8)
  ShowMessage("\\n<Sully (Affection:\\V[3076])>Jaide is always so reserved. Is it because you're a machine?")
  ShowMessageFace("jeid_fc1",0,0,2,9)
  ShowMessage("\\n<Jaide (Affection:\\V[3077])>There's a high-strung personality option. Would you like me to activate it?")
  ShowMessageFace("syuree_fc1",2,0,2,10)
  ShowMessage("\\n<Sully (Affection:\\V[3076])>No way, that sounds scary...")
  JumpToLabel("メニュー")
  DefineLabel("98")
  ShowMessageFace("syuree_fc1",0,0,2,11)
  ShowMessage("\\n<Sully (Affection:\\V[3076])>Wow! It's a crab!")
  ShowMessageFace("minikani_fc1",0,0,2,12)
  ShowMessage("\\n<Amy (Affection:\\V[3098])>It's a shrimp!")
  ShowMessageFace("syuree_fc1",1,0,2,13)
  ShowMessage("\\n<Sully (Affection:\\V[3076])>*Bubble* *Bubble* *Bubble*")
  ShowMessageFace("minikani_fc1",0,0,2,14)
  ShowMessage("\\n<Amy (Affection:\\V[3098])>Amazing! You can make foam even though you're a shrimp?!")
  ShowMessageFace("syuree_fc1",1,0,2,15)
  ShowMessage("\\n<Sully (Affection:\\V[3076])>Ehehehee! *Bubble* *Bubble* *Bubble*")
  ShowMessageFace("minikani_fc1",0,0,2,16)
  ShowMessage("\\n<Amy (Affection:\\V[3098])>*Bubble* *Bubble* *Bubble*")
  JumpToLabel("メニュー")
  DefineLabel("127")
  ShowMessageFace("syuree_fc1",2,0,2,17)
  ShowMessage("\\n<Sully (Affection:\\V[3076])>Cockroach!")
  ShowMessageFace("littlebug_fc1",2,0,2,18)
  ShowMessage("\\n<Lippy (Affection:\\V[3127])>Shrimp!")
  ShowMessageFace("syuree_fc1",2,0,2,19)
  ShowMessage("\\n<Sully (Affection:\\V[3076])>Cockroach!　Cockroach!")
  ShowMessageFace("littlebug_fc1",2,0,2,20)
  ShowMessage("\\n<Lippy (Affection:\\V[3127])>Shrimp! Shrimp! Shrimp!")
  ShowMessageFace("sonia_fc2",5,0,2,21)
  ShowMessage("\\n<Sonya>Hey! No fighting!")
  JumpToLabel("メニュー")
  DefineLabel("メニュー")
  StartLoop()
   355("unlimited_choices(11, [\"Give presents\",")
   655("\"Add to party\",")
   655("\"View present list\",\"Request\",")
   655("\"Never mind\"])")
   If(1,11,0,0,0)
    355("present_start(76)")
    0()
   EndIf()
   If(1,11,0,1,0)
    PictureClear(5)
    355("move_actor_ex(76)")
    EndEventProcessing()
    0()
   EndIf()
   If(1,11,0,2,0)
    ShowMessageFace("",0,0,2,22)
    ShowMessage("Affection       10:\\ii[71]")
    ShowMessage("Affection     100:\\ia[274]")
    ShowMessage("Affection     500:\\ia[1584]")
    ShowMessage("Affection   2000:\\ia[1165]")
    0()
   EndIf()
   If(1,11,0,3,0)
    PictureClear(5)
    ShowMessageFace("",0,0,2,23)
    ShowMessage("Ask her for what? (Affection:\\V[3076])")
    ShowChoices(strings("Dutiful Washing(Affection:10)","Reverse Rape(Affection:100)","Never mind"),3)
    IfPlayerPicksChoice(0,null)
     If(1,3076,0,10,1)
      355("call_novel_scene(4171)")
      EndEventProcessing()
      0()
     Else()
      ShowMessageFace("syuree_fc1",3,0,2,24)
      ShowMessage("\\n<Sully (Affection:\\V[3076])>I'm tired, so I can't make any bubbles... Maybe next time.")
      0()
     EndIf()
     0()
    IfPlayerPicksChoice(1,null)
     If(1,3076,0,100,1)
      355("call_novel_scene(4172)")
      EndEventProcessing()
      0()
     Else()
      ShowMessageFace("syuree_fc1",3,0,2,25)
      ShowMessage("\\n<Sully (Affection:\\V[3076])>I'm tired, so I can't make any bubbles... Maybe next time.")
      0()
     EndIf()
     0()
    IfPlayerPicksChoice(2,null)
     0()
    404()
    0()
   EndIf()
   If(1,11,0,4,1)
    PictureClear(5)
    EndEventProcessing()
    0()
   EndIf()
   0()
  EndLoop()
  0()
 PAGE   2
  // condition: party contains actor #76
  0()



EVENT   6
 PAGE   1
  RunCommonEvent(111)
  0()



EVENT   7
 PAGE   1
  // condition: switch 1542 is ON
  PictureDisplay(5,"80_domeima_st01",0,0,0,0,100,100,0,0)
  PictureMove(5,null,0,0,0,0,100,100,255,0,30,true)
  If(1,3542,0,10,1)
   If(1,4542,0,0,0)
    ChangeVariable(4542,4542,0,0,1)
    ShowMessageFace("domeima_fc1",0,0,2,1)
    ShowMessage("\\n<Domaimer (Affection:\\V[3542])>Water...")
    250(bytes(0x04,0x08,0x6f,0x3a,0x0c,0x52,0x50,0x47,0x3a,0x3a,0x53,0x45,0x08,0x3a,0x0a,0x40,0x6e,0x61,0x6d,0x65,0x49,0x22,0x0a,0x49,0x74,0x65,0x6d,0x31,0x06,0x3a,0x06,0x45,0x54,0x3a,0x0b,0x40,0x70,0x69,0x74,0x63,0x68,0x69,0x69,0x3a,0x0c,0x40,0x76,0x6f,0x6c,0x75,0x6d,0x65,0x69,0x55))
    ChangeInventory_Item(322,0,0,1)
    0()
   EndIf()
   0()
  EndIf()
  If(1,3542,0,100,1)
   If(1,4542,0,1,0)
    ChangeVariable(4542,4542,0,0,2)
    ShowMessageFace("domeima_fc1",0,0,2,2)
    ShowMessage("\\n<Domaimer (Affection:\\V[3542])>Water...")
    250(bytes(0x04,0x08,0x6f,0x3a,0x0c,0x52,0x50,0x47,0x3a,0x3a,0x53,0x45,0x08,0x3a,0x0a,0x40,0x6e,0x61,0x6d,0x65,0x49,0x22,0x0a,0x49,0x74,0x65,0x6d,0x31,0x06,0x3a,0x06,0x45,0x54,0x3a,0x0b,0x40,0x70,0x69,0x74,0x63,0x68,0x69,0x69,0x3a,0x0c,0x40,0x76,0x6f,0x6c,0x75,0x6d,0x65,0x69,0x55))
    ChangeInventoryArmor(1147,0,0,1,false)
    0()
   EndIf()
   0()
  EndIf()
  If(1,3542,0,500,1)
   If(1,4542,0,2,0)
    ChangeVariable(4542,4542,0,0,3)
    ShowMessageFace("domeima_fc1",0,0,2,3)
    ShowMessage("\\n<Domaimer (Affection:\\V[3542])>Water...")
    250(bytes(0x04,0x08,0x6f,0x3a,0x0c,0x52,0x50,0x47,0x3a,0x3a,0x53,0x45,0x08,0x3a,0x0a,0x40,0x6e,0x61,0x6d,0x65,0x49,0x22,0x0a,0x49,0x74,0x65,0x6d,0x31,0x06,0x3a,0x06,0x45,0x54,0x3a,0x0b,0x40,0x70,0x69,0x74,0x63,0x68,0x69,0x69,0x3a,0x0c,0x40,0x76,0x6f,0x6c,0x75,0x6d,0x65,0x69,0x55))
    ChangeInventoryArmor(1167,0,0,1,false)
    0()
   EndIf()
   0()
  EndIf()
  If(1,3542,0,2000,1)
   If(1,4542,0,3,0)
    ChangeVariable(4542,4542,0,0,4)
    ShowMessageFace("domeima_fc1",0,0,2,4)
    ShowMessage("\\n<Domaimer (Affection:\\V[3542])>Water...")
    250(bytes(0x04,0x08,0x6f,0x3a,0x0c,0x52,0x50,0x47,0x3a,0x3a,0x53,0x45,0x08,0x3a,0x0a,0x40,0x6e,0x61,0x6d,0x65,0x49,0x22,0x0a,0x49,0x74,0x65,0x6d,0x31,0x06,0x3a,0x06,0x45,0x54,0x3a,0x0b,0x40,0x70,0x69,0x74,0x63,0x68,0x69,0x69,0x3a,0x0c,0x40,0x76,0x6f,0x6c,0x75,0x6d,0x65,0x69,0x55))
    ChangeInventoryArmor(1109,0,0,1,false)
    0()
   EndIf()
   0()
  EndIf()
  355("actor_label_jump")
  ShowMessageFace("domeima_fc1",0,0,2,5)
  ShowMessage("\\n<Domaimer (Affection:\\V[3542])>W... water...")
  JumpToLabel("メニュー")
  DefineLabel("61")
  ShowMessageFace("domeima_fc1",0,0,2,6)
  ShowMessage("\\n<Domaimer (Affection:\\V[3542])>W... water...")
  ShowMessageFace("mimizu_fc1",2,0,2,7)
  ShowMessage("\\n<Mimi (Affection:\\V[3061])>Be strong, Mimi is here now!")
  ShowMessageFace("domeima_fc1",0,0,2,8)
  ShowMessage("\\n<Domaimer (Affection:\\V[3542])>Water...")
  ShowMessageFace("mimizu_fc1",1,0,2,9)
  ShowMessage("\\n<Mimi (Affection:\\V[3061])>Oh, you want a drink of water. Will my mucus work?")
  ShowMessageFace("domeima_fc1",0,0,2,10)
  ShowMessage("\\n<Domaimer (Affection:\\V[3542])>*Wheeze* ...It's too viscous... *Cough* *Cough* *Wheeze* *Wheeze*")
  ShowMessageFace("mimizu_fc1",2,0,2,11)
  ShowMessage("\\n<Mimi (Affection:\\V[3061])>Ahhh! Somebody! W-water!")
  JumpToLabel("メニュー")
  DefineLabel("118")
  ShowMessageFace("domeima_fc1",0,0,2,12)
  ShowMessage("\\n<Domaimer (Affection:\\V[3542])>W... water...")
  ShowMessageFace("meia_fc1",0,0,2,13)
  ShowMessage("\\n<Meia (Affection:\\V[3118])>You're a pretty unusual mermaid. All right, here's some water.")
  ShowMessageFace("domeima_fc1",0,0,2,14)
  ShowMessage("\\n<Domaimer (Affection:\\V[3542])>My savior! Allow me to invite you to Oz.")
  ShowMessageFace("meia_fc1",2,0,2,15)
  ShowMessage("\\n<Meia (Affection:\\V[3118])>Oh, but I can't wear any ruby slippers...")
  ShowMessageFace("sonia_fc4",0,0,2,16)
  ShowMessage("\\n<Sonya>(Bunch of comedians we've got here...)")
  JumpToLabel("メニュー")
  DefineLabel("540")
  ShowMessageFace("domeima_fc1",0,0,2,17)
  ShowMessage("\\n<Domaimer (Affection:\\V[3542])>W... water...")
  ShowMessageFace("amira_fc1",0,0,2,18)
  ShowMessage("\\n<Amira (Affection:\\V[3540])>M... money...")
  ShowMessageFace("domeima_fc1",0,0,2,19)
  ShowMessage("\\n<Domaimer (Affection:\\V[3542])>Water... Ugh!")
  ShowMessageFace("amira_fc1",0,0,2,20)
  ShowMessage("\\n<Amira (Affection:\\V[3540])>Money... Ugh!")
  ShowMessageFace("domeima_fc1",0,0,2,21)
  ShowMessage("\\n<Domaimer (Affection:\\V[3542])>Are you mocking me?")
  ShowMessageFace("amira_fc1",1,0,2,22)
  ShowMessage("\\n<Amira (Affection:\\V[3540])>Woah! You can talk?!")
  JumpToLabel("メニュー")
  DefineLabel("541")
  ShowMessageFace("piha_fc1",0,0,2,23)
  ShowMessage("\\n<Pyhar (Affection:\\V[3541])>Oh my, are you doing well Domaimer? ♪")
  ShowMessageFace("domeima_fc1",0,0,2,24)
  ShowMessage("\\n<Domaimer (Affection:\\V[3542])>W... water...")
  ShowMessageFace("piha_fc1",0,0,2,25)
  ShowMessage("\\n<Pyhar (Affection:\\V[3541])>(Speaking of fish, I could really go for some sushi...)")
  ShowMessageFace("domeima_fc1",0,0,2,26)
  ShowMessage("\\n<Domaimer (Affection:\\V[3542])>(I want some yakitori...)")
  JumpToLabel("メニュー")
  DefineLabel("メニュー")
  StartLoop()
   355("unlimited_choices(11, [\"Give presents\",")
   655("\"Add to party\",")
   655("\"View present list\",\"Never mind\"])")
   If(1,11,0,0,0)
    355("present_start(542)")
    0()
   EndIf()
   If(1,11,0,1,0)
    PictureClear(5)
    355("move_actor_ex(542)")
    EndEventProcessing()
    0()
   EndIf()
   If(1,11,0,2,0)
    ShowMessageFace("",0,0,2,27)
    ShowMessage("Affection       10:\\ii[322]")
    ShowMessage("Affection     100:\\ia[1147]")
    ShowMessage("Affection     500:\\ia[1167]")
    ShowMessage("Affection   2000:\\ia[1109]")
    0()
   EndIf()
   If(1,11,0,3,1)
    PictureClear(5)
    EndEventProcessing()
    0()
   EndIf()
   0()
  EndLoop()
  0()
 PAGE   2
  // condition: party contains actor #542
  0()



EVENT   8
 PAGE   1
  // condition: switch 1108 is ON
  PictureDisplay(5,"80_kai_st01",0,0,0,0,100,100,0,0)
  PictureMove(5,null,0,0,0,0,100,100,255,0,30,true)
  If(1,3108,0,10,1)
   If(1,4108,0,0,0)
    ChangeVariable(4108,4108,0,0,1)
    ShowMessageFace("kai_fc1",0,0,2,1)
    ShowMessage("\\n<Shelly (Affection:\\V[3108])>This is a present for my husband. Please cherish it as if it were me.")
    250(bytes(0x04,0x08,0x6f,0x3a,0x0c,0x52,0x50,0x47,0x3a,0x3a,0x53,0x45,0x08,0x3a,0x0a,0x40,0x6e,0x61,0x6d,0x65,0x49,0x22,0x0a,0x49,0x74,0x65,0x6d,0x31,0x06,0x3a,0x06,0x45,0x54,0x3a,0x0b,0x40,0x70,0x69,0x74,0x63,0x68,0x69,0x69,0x3a,0x0c,0x40,0x76,0x6f,0x6c,0x75,0x6d,0x65,0x69,0x55))
    ChangeInventoryArmor(165,0,0,1,false)
    0()
   EndIf()
   0()
  EndIf()
  If(1,3108,0,100,1)
   If(1,4108,0,1,0)
    ChangeVariable(4108,4108,0,0,2)
    ShowMessageFace("kai_fc1",0,0,2,2)
    ShowMessage("\\n<Shelly (Affection:\\V[3108])>This is a present for my husband. Please cherish it as if it were me.")
    250(bytes(0x04,0x08,0x6f,0x3a,0x0c,0x52,0x50,0x47,0x3a,0x3a,0x53,0x45,0x08,0x3a,0x0a,0x40,0x6e,0x61,0x6d,0x65,0x49,0x22,0x0a,0x49,0x74,0x65,0x6d,0x31,0x06,0x3a,0x06,0x45,0x54,0x3a,0x0b,0x40,0x70,0x69,0x74,0x63,0x68,0x69,0x69,0x3a,0x0c,0x40,0x76,0x6f,0x6c,0x75,0x6d,0x65,0x69,0x55))
    ChangeInventoryArmor(1021,0,0,1,false)
    0()
   EndIf()
   0()
  EndIf()
  If(1,3108,0,500,1)
   If(1,4108,0,2,0)
    ChangeVariable(4108,4108,0,0,3)
    ShowMessageFace("kai_fc1",0,0,2,3)
    ShowMessage("\\n<Shelly (Affection:\\V[3108])>This is a present for my husband. Please cherish it as if it were me.")
    250(bytes(0x04,0x08,0x6f,0x3a,0x0c,0x52,0x50,0x47,0x3a,0x3a,0x53,0x45,0x08,0x3a,0x0a,0x40,0x6e,0x61,0x6d,0x65,0x49,0x22,0x0a,0x49,0x74,0x65,0x6d,0x31,0x06,0x3a,0x06,0x45,0x54,0x3a,0x0b,0x40,0x70,0x69,0x74,0x63,0x68,0x69,0x69,0x3a,0x0c,0x40,0x76,0x6f,0x6c,0x75,0x6d,0x65,0x69,0x55))
    ChangeInventoryArmor(1022,0,0,1,false)
    0()
   EndIf()
   0()
  EndIf()
  If(1,3108,0,2000,1)
   If(1,4108,0,3,0)
    ChangeVariable(4108,4108,0,0,4)
    ShowMessageFace("kai_fc1",0,0,2,4)
    ShowMessage("\\n<Shelly (Affection:\\V[3108])>This is a present for my husband. Please cherish it as if it were me.")
    250(bytes(0x04,0x08,0x6f,0x3a,0x0c,0x52,0x50,0x47,0x3a,0x3a,0x53,0x45,0x08,0x3a,0x0a,0x40,0x6e,0x61,0x6d,0x65,0x49,0x22,0x0a,0x49,0x74,0x65,0x6d,0x31,0x06,0x3a,0x06,0x45,0x54,0x3a,0x0b,0x40,0x70,0x69,0x74,0x63,0x68,0x69,0x69,0x3a,0x0c,0x40,0x76,0x6f,0x6c,0x75,0x6d,0x65,0x69,0x55))
    ChangeInventoryArmor(1473,0,0,1,false)
    0()
   EndIf()
   0()
  EndIf()
  355("actor_label_jump")
  If(0,1107,0)
   If(4,107,0)
    ShowMessageFace("kai_fc1",0,0,2,5)
    ShowMessage("\\n<Shelly (Affection:\\V[3108])>I need to practice running away. I sense that I will be running a lot some day.")
    0()
   EndIf()
   ShowMessageFace("kai_fc1",2,0,2,6)
   ShowMessage("\\n<Shelly (Affection:\\V[3108])>Heeelp meee!")
   0()
  Else()
   ShowMessageFace("kai_fc1",0,0,2,7)
   ShowMessage("\\n<Shelly (Affection:\\V[3108])>I need to practice running away. I sense that I will be running a lot some day.")
   0()
  EndIf()
  JumpToLabel("メニュー")
  DefineLabel("107")
  ShowMessageFace("namako_fc1",1,0,2,8)
  ShowMessage("\\n<Yume (Affection:\\V[3107])>Oh, Shelly. ♪ Come on, let me have a drink!")
  ShowMessageFace("kai_fc1",2,0,2,9)
  ShowMessage("\\n<Shelly (Affection:\\V[3108])>Kyaaa! Help meee!")
  ShowMessageFace("namako_fc1",1,0,2,10)
  ShowMessage("\\n<Yume (Affection:\\V[3107])>Ahahaha! Wait up. ♪")
  ShowMessageFace("kai_fc1",0,0,2,11)
  ShowMessage("\\n<Shelly (Affection:\\V[3108])>Ufufuuu...")
  ShowMessageFace("sonia_fc4",0,0,2,12)
  ShowMessage("\\n<Sonya>(They seem to be having fun...)")
  JumpToLabel("メニュー")
  DefineLabel("114")
  ShowMessageFace("wakame_fc1",0,0,2,13)
  ShowMessage("\\n<Wakame (Affection:\\V[3114])>Stick both of us in a pot together, and we'd make a good seasoning...")
  ShowMessageFace("kai_fc1",2,0,2,14)
  ShowMessage("\\n<Shelly (Affection:\\V[3108])>Are you really okay with being turned into miso soup?")
  If(4,102,0)
   ShowMessageFace("youko_fc1",0,0,2,15)
   ShowMessage("\\n<Kitsu (Affection:\\V[3102])>Oh, can we add tofu?")
   ShowMessageFace("kai_fc1",0,0,2,16)
   ShowMessage("\\n<Shelly (Affection:\\V[3108])>On second thought, let's have kitsune soup...")
   0()
  EndIf()
  JumpToLabel("メニュー")
  DefineLabel("143")
  ShowMessageFace("eva_fc1",2,0,2,17)
  ShowMessage("\\n<Eva (Affection:\\V[3143])>Hey, are you hiding a pearl in your shell?")
  ShowMessageFace("kai_fc1",0,0,2,18)
  ShowMessage("\\n<Shelly (Affection:\\V[3108])>No. I'm not a pearl oyster.")
  ShowMessageFace("eva_fc1",2,0,2,19)
  ShowMessage("\\n<Eva (Affection:\\V[3143])>Shame. ...Let's say, for the sake of argument, I needed ingredients for a miso soup...")
  ShowMessageFace("kai_fc1",2,0,2,20)
  ShowMessage("\\n<Shelly (Affection:\\V[3108])>Is this really just 'for the sake of argument?'")
  JumpToLabel("メニュー")
  DefineLabel("メニュー")
  StartLoop()
   355("unlimited_choices(11, [\"Give presents\",")
   655("\"Add to party\",")
   655("\"View present list\",\"Request\",")
   655("\"Never mind\"])")
   If(1,11,0,0,0)
    355("present_start(108)")
    0()
   EndIf()
   If(1,11,0,1,0)
    PictureClear(5)
    355("move_actor_ex(108)")
    EndEventProcessing()
    0()
   EndIf()
   If(1,11,0,2,0)
    ShowMessageFace("",0,0,2,21)
    ShowMessage("Affection       10:\\ia[165]")
    ShowMessage("Affection     100:\\ia[1021]")
    ShowMessage("Affection     500:\\ia[1022]")
    ShowMessage("Affection   2000:\\ia[1473]")
    0()
   EndIf()
   If(1,11,0,3,0)
    PictureClear(5)
    ShowMessageFace("",0,0,2,22)
    ShowMessage("Ask her for what? (Affection:\\V[3108])")
    ShowChoices(strings("Love Jail(Affection:10)","Never mind"),2)
    IfPlayerPicksChoice(0,null)
     If(1,3108,0,10,1)
      355("call_novel_scene(4331)")
      EndEventProcessing()
      0()
     Else()
      ShowMessageFace("kai_fc1",2,0,2,23)
      ShowMessage("\\n<Shelly (Affection:\\V[3108])>I-I'm sorry, I already had a visitor today.")
      0()
     EndIf()
     0()
    IfPlayerPicksChoice(1,null)
     0()
    404()
    0()
   EndIf()
   If(1,11,0,4,1)
    PictureClear(5)
    EndEventProcessing()
    0()
   EndIf()
   0()
  EndLoop()
  0()
 PAGE   2
  // condition: party contains actor #108
  0()



EVENT   9
 PAGE   1
  // condition: switch 1098 is ON
  PictureDisplay(5,"80_minikani_st01",0,0,0,0,100,100,0,0)
  PictureMove(5,null,0,0,0,0,100,100,255,0,30,true)
  If(1,3098,0,10,1)
   If(1,4098,0,0,0)
    ChangeVariable(4098,4098,0,0,1)
    ShowMessageFace("minikani_fc1",0,0,2,1)
    ShowMessage("\\n<Amy (Affection:\\V[3098])>You can have this. ♪ Take good care of it. ♪")
    250(bytes(0x04,0x08,0x6f,0x3a,0x0c,0x52,0x50,0x47,0x3a,0x3a,0x53,0x45,0x08,0x3a,0x0a,0x40,0x6e,0x61,0x6d,0x65,0x49,0x22,0x0a,0x49,0x74,0x65,0x6d,0x31,0x06,0x3a,0x06,0x45,0x54,0x3a,0x0b,0x40,0x70,0x69,0x74,0x63,0x68,0x69,0x69,0x3a,0x0c,0x40,0x76,0x6f,0x6c,0x75,0x6d,0x65,0x69,0x55))
    ChangeInventoryArmor(106,0,0,1,false)
    0()
   EndIf()
   0()
  EndIf()
  If(1,3098,0,100,1)
   If(1,4098,0,1,0)
    ChangeVariable(4098,4098,0,0,2)
    ShowMessageFace("minikani_fc1",0,0,2,2)
    ShowMessage("\\n<Amy (Affection:\\V[3098])>You can have this. ♪ Take good care of it. ♪")
    250(bytes(0x04,0x08,0x6f,0x3a,0x0c,0x52,0x50,0x47,0x3a,0x3a,0x53,0x45,0x08,0x3a,0x0a,0x40,0x6e,0x61,0x6d,0x65,0x49,0x22,0x0a,0x49,0x74,0x65,0x6d,0x31,0x06,0x3a,0x06,0x45,0x54,0x3a,0x0b,0x40,0x70,0x69,0x74,0x63,0x68,0x69,0x69,0x3a,0x0c,0x40,0x76,0x6f,0x6c,0x75,0x6d,0x65,0x69,0x55))
    ChangeInventoryArmor(1730,0,0,1,false)
    0()
   EndIf()
   0()
  EndIf()
  If(1,3098,0,500,1)
   If(1,4098,0,2,0)
    ChangeVariable(4098,4098,0,0,3)
    ShowMessageFace("minikani_fc1",0,0,2,3)
    ShowMessage("\\n<Amy (Affection:\\V[3098])>You can have this. ♪ Take good care of it. ♪")
    250(bytes(0x04,0x08,0x6f,0x3a,0x0c,0x52,0x50,0x47,0x3a,0x3a,0x53,0x45,0x08,0x3a,0x0a,0x40,0x6e,0x61,0x6d,0x65,0x49,0x22,0x0a,0x49,0x74,0x65,0x6d,0x31,0x06,0x3a,0x06,0x45,0x54,0x3a,0x0b,0x40,0x70,0x69,0x74,0x63,0x68,0x69,0x69,0x3a,0x0c,0x40,0x76,0x6f,0x6c,0x75,0x6d,0x65,0x69,0x55))
    ChangeInventoryArmor(1022,0,0,1,false)
    0()
   EndIf()
   0()
  EndIf()
  If(1,3098,0,2000,1)
   If(1,4098,0,3,0)
    ChangeVariable(4098,4098,0,0,4)
    ShowMessageFace("minikani_fc1",0,0,2,4)
    ShowMessage("\\n<Amy (Affection:\\V[3098])>You can have this. ♪ Take good care of it. ♪")
    250(bytes(0x04,0x08,0x6f,0x3a,0x0c,0x52,0x50,0x47,0x3a,0x3a,0x53,0x45,0x08,0x3a,0x0a,0x40,0x6e,0x61,0x6d,0x65,0x49,0x22,0x0a,0x49,0x74,0x65,0x6d,0x31,0x06,0x3a,0x06,0x45,0x54,0x3a,0x0b,0x40,0x70,0x69,0x74,0x63,0x68,0x69,0x69,0x3a,0x0c,0x40,0x76,0x6f,0x6c,0x75,0x6d,0x65,0x69,0x55))
    ChangeInventoryArmor(1470,0,0,1,false)
    0()
   EndIf()
   0()
  EndIf()
  355("actor_label_jump")
  ShowMessageFace("minikani_fc1",0,0,2,5)
  ShowMessage("\\n<Amy (Affection:\\V[3098])>Crab crab craaab. ♪ Huh?　Do you need me for something?")
  JumpToLabel("メニュー")
  DefineLabel("76")
  ShowMessageFace("syuree_fc1",0,0,2,6)
  ShowMessage("\\n<Sully (Affection:\\V[3076])>Wow! It's a crab!")
  ShowMessageFace("minikani_fc1",0,0,2,7)
  ShowMessage("\\n<Amy (Affection:\\V[3098])>It's a shrimp!")
  ShowMessageFace("syuree_fc1",1,0,2,8)
  ShowMessage("\\n<Sully (Affection:\\V[3076])>*Bubble* *Bubble* *Bubble*")
  ShowMessageFace("minikani_fc1",0,0,2,9)
  ShowMessage("\\n<Amy (Affection:\\V[3098])>Amazing! You can make foam even though you're a shrimp?!")
  ShowMessageFace("syuree_fc1",1,0,2,10)
  ShowMessage("\\n<Sully (Affection:\\V[3076])>Ehehehee! *Bubble* *Bubble* *Bubble*")
  ShowMessageFace("minikani_fc1",0,0,2,11)
  ShowMessage("\\n<Amy (Affection:\\V[3098])>*Bubble* *Bubble* *Bubble*")
  JumpToLabel("メニュー")
  DefineLabel("109")
  ShowMessageFace("minikani_fc1",0,0,2,12)
  ShowMessage("\\n<Amy (Affection:\\V[3098])>Mooommyyyy!")
  ShowMessageFace("kani_fc1",2,0,2,13)
  ShowMessage("\\n<Soapy (Affection:\\V[3109])>I keep telling you, I'm not your mom! I'm not even married yet!")
  ShowMessageFace("minikani_fc1",2,0,2,14)
  ShowMessage("\\n<Amy (Affection:\\V[3098])>...Uwaaahhh!")
  ShowMessageFace("kani_fc1",2,0,2,15)
  ShowMessage("\\n<Soapy (Affection:\\V[3109])>S-sorry... Ohh geez, where is this girl's mother?!")
  JumpToLabel("メニュー")
  DefineLabel("128")
  ShowMessageFace("minikani_fc1",0,0,2,16)
  ShowMessage("\\n<Amy (Affection:\\V[3098])>Hey, hey, why did you turn into a robot?")
  ShowMessageFace("kaniloid_fc1",0,0,2,17)
  ShowMessage("\\n<Jillian (Affection:\\V[3128])>This is the consequence of all my crimes. If you do bad things, you'll be turned into a machine too...")
  ShowMessageFace("minikani_fc1",2,0,2,18)
  ShowMessage("\\n<Amy (Affection:\\V[3098])>That's scarryyy!")
  ShowMessageFace("minikani_fc1",0,0,2,19)
  ShowMessage("\\n<Amy (Affection:\\V[3098])>But... It's also cool!")
  ShowMessageFace("kaniloid_fc1",0,0,2,20)
  ShowMessage("\\n<Jillian (Affection:\\V[3128])>R-really?")
  JumpToLabel("メニュー")
  DefineLabel("メニュー")
  StartLoop()
   355("unlimited_choices(11, [\"Give presents\",")
   655("\"Add to party\",")
   655("\"View present list\",\"Request\",")
   655("\"Never mind\"])")
   If(1,11,0,0,0)
    355("present_start(98)")
    0()
   EndIf()
   If(1,11,0,1,0)
    PictureClear(5)
    355("move_actor_ex(98)")
    EndEventProcessing()
    0()
   EndIf()
   If(1,11,0,2,0)
    ShowMessageFace("",0,0,2,21)
    ShowMessage("Affection       10:\\ia[106]")
    ShowMessage("Affection     100:\\ia[1730]")
    ShowMessage("Affection     500:\\ia[1022]")
    ShowMessage("Affection   2000:\\ia[1470]")
    0()
   EndIf()
   If(1,11,0,3,0)
    PictureClear(5)
    ShowMessageFace("",0,0,2,22)
    ShowMessage("Ask her for what? (Affection:\\V[3098])")
    ShowChoices(strings("Mini Melty Wash(Affection:10)","Never mind"),2)
    IfPlayerPicksChoice(0,null)
     If(1,3098,0,10,1)
      355("call_novel_scene(4281)")
      EndEventProcessing()
      0()
     Else()
      ShowMessageFace("minikani_fc1",0,0,2,23)
      ShowMessage("\\n<Amy (Affection:\\V[3098])>Another day. I'm too tired to wash you...")
      0()
     EndIf()
     0()
    IfPlayerPicksChoice(1,null)
     0()
    404()
    0()
   EndIf()
   If(1,11,0,4,1)
    PictureClear(5)
    EndEventProcessing()
    0()
   EndIf()
   0()
  EndLoop()
  0()
 PAGE   2
  // condition: party contains actor #98
  0()



EVENT   10
 PAGE   1
  // condition: switch 1107 is ON
  PictureDisplay(5,"80_namako_st01",0,0,0,0,100,100,0,0)
  PictureMove(5,null,0,0,0,0,100,100,255,0,30,true)
  If(1,3107,0,10,1)
   If(1,4107,0,0,0)
    ChangeVariable(4107,4107,0,0,1)
    ShowMessageFace("namako_fc1",0,0,2,1)
    ShowMessage("\\n<Yume (Affection:\\V[3107])>This was dropped on the beach. You can have it.")
    250(bytes(0x04,0x08,0x6f,0x3a,0x0c,0x52,0x50,0x47,0x3a,0x3a,0x53,0x45,0x08,0x3a,0x0a,0x40,0x6e,0x61,0x6d,0x65,0x49,0x22,0x0a,0x49,0x74,0x65,0x6d,0x31,0x06,0x3a,0x06,0x45,0x54,0x3a,0x0b,0x40,0x70,0x69,0x74,0x63,0x68,0x69,0x69,0x3a,0x0c,0x40,0x76,0x6f,0x6c,0x75,0x6d,0x65,0x69,0x55))
    ChangeInventory_Item(71,0,0,1)
    0()
   EndIf()
   0()
  EndIf()
  If(1,3107,0,100,1)
   If(1,4107,0,1,0)
    ChangeVariable(4107,4107,0,0,2)
    ShowMessageFace("namako_fc1",0,0,2,2)
    ShowMessage("\\n<Yume (Affection:\\V[3107])>This was dropped on the beach. You can have it.")
    250(bytes(0x04,0x08,0x6f,0x3a,0x0c,0x52,0x50,0x47,0x3a,0x3a,0x53,0x45,0x08,0x3a,0x0a,0x40,0x6e,0x61,0x6d,0x65,0x49,0x22,0x0a,0x49,0x74,0x65,0x6d,0x31,0x06,0x3a,0x06,0x45,0x54,0x3a,0x0b,0x40,0x70,0x69,0x74,0x63,0x68,0x69,0x69,0x3a,0x0c,0x40,0x76,0x6f,0x6c,0x75,0x6d,0x65,0x69,0x55))
    ChangeInventoryArmor(1733,0,0,1,false)
    0()
   EndIf()
   0()
  EndIf()
  If(1,3107,0,500,1)
   If(1,4107,0,2,0)
    ChangeVariable(4107,4107,0,0,3)
    ShowMessageFace("namako_fc1",0,0,2,3)
    ShowMessage("\\n<Yume (Affection:\\V[3107])>This was dropped on the beach. You can have it.")
    250(bytes(0x04,0x08,0x6f,0x3a,0x0c,0x52,0x50,0x47,0x3a,0x3a,0x53,0x45,0x08,0x3a,0x0a,0x40,0x6e,0x61,0x6d,0x65,0x49,0x22,0x0a,0x49,0x74,0x65,0x6d,0x31,0x06,0x3a,0x06,0x45,0x54,0x3a,0x0b,0x40,0x70,0x69,0x74,0x63,0x68,0x69,0x69,0x3a,0x0c,0x40,0x76,0x6f,0x6c,0x75,0x6d,0x65,0x69,0x55))
    ChangeInventoryArmor(1369,0,0,1,false)
    0()
   EndIf()
   0()
  EndIf()
  If(1,3107,0,2000,1)
   If(1,4107,0,3,0)
    ChangeVariable(4107,4107,0,0,4)
    ShowMessageFace("namako_fc1",0,0,2,4)
    ShowMessage("\\n<Yume (Affection:\\V[3107])>This was dropped on the beach. You can have it.")
    250(bytes(0x04,0x08,0x6f,0x3a,0x0c,0x52,0x50,0x47,0x3a,0x3a,0x53,0x45,0x08,0x3a,0x0a,0x40,0x6e,0x61,0x6d,0x65,0x49,0x22,0x0a,0x49,0x74,0x65,0x6d,0x31,0x06,0x3a,0x06,0x45,0x54,0x3a,0x0b,0x40,0x70,0x69,0x74,0x63,0x68,0x69,0x69,0x3a,0x0c,0x40,0x76,0x6f,0x6c,0x75,0x6d,0x65,0x69,0x55))
    ChangeInventoryArmor(1207,0,0,1,false)
    0()
   EndIf()
   0()
  EndIf()
  355("actor_label_jump")
  If(0,1108,0)
   If(4,108,0)
    ShowMessageFace("namako_fc1",0,0,2,5)
    ShowMessage("\\n<Yume (Affection:\\V[3107])>I need to exercise my lower body. I feel the day will come when I need to call upon it.")
    0()
   EndIf()
   ShowMessageFace("namako_fc1",0,0,2,6)
   ShowMessage("\\n<Yume (Affection:\\V[3107])>Hey, wait up...")
   0()
  Else()
   ShowMessageFace("namako_fc1",0,0,2,7)
   ShowMessage("\\n<Yume (Affection:\\V[3107])>I need to exercise my lower body. I feel the day will come when I need to call upon it.")
   0()
  EndIf()
  JumpToLabel("メニュー")
  DefineLabel("73")
  ShowMessageFace("hiru_fc1",0,0,2,8)
  ShowMessage("\\n<Hiru (Affection:\\V[3073])>I think we're pretty similar.")
  ShowMessageFace("namako_fc1",0,0,2,9)
  ShowMessage("\\n<Yume (Affection:\\V[3107])>I agree. Even if you live in the swamp and I live in the sea, we're more alike than anyone else.")
  ShowMessageFace("hiru_fc1",0,0,2,10)
  ShowMessage("\\n<Hiru (Affection:\\V[3073])>If we find one more person, we should make a vow. Even if the three of us were born apart, we shall die together.")
  ShowMessageFace("namako_fc1",0,0,2,11)
  ShowMessage("\\n<Yume (Affection:\\V[3107])>That's a death flag for us to get split up.")
  JumpToLabel("メニュー")
  DefineLabel("108")
  ShowMessageFace("namako_fc1",1,0,2,12)
  ShowMessage("\\n<Yume (Affection:\\V[3107])>Oh, Shelly. ♪ Come on, let me have a drink!")
  ShowMessageFace("kai_fc1",2,0,2,13)
  ShowMessage("\\n<Shelly (Affection:\\V[3108])>Kyaaa! Help meee!")
  ShowMessageFace("namako_fc1",1,0,2,14)
  ShowMessage("\\n<Yume (Affection:\\V[3107])>Ahahaha! Wait up. ♪")
  ShowMessageFace("kai_fc1",0,0,2,15)
  ShowMessage("\\n<Shelly (Affection:\\V[3108])>Ufufuuu...")
  ShowMessageFace("sonia_fc4",0,0,2,16)
  ShowMessage("\\n<Sonya>(They seem to be having fun...)")
  JumpToLabel("メニュー")
  DefineLabel("116")
  ShowMessageFace("namako_fc1",0,0,2,17)
  ShowMessage("\\n<Yume (Affection:\\V[3107])>Sea anemones are so aggressive. Sea cucumbers are pacifists; we just want to live in peace.")
  ShowMessageFace("iso_fc1",0,0,2,18)
  ShowMessage("\\n<Isabelle (Affection:\\V[3116])>I'm carnivorous. Are you trying to impose your selfish values on me?")
  ShowMessageFace("namako_fc1",2,0,2,19)
  ShowMessage("\\n<Yume (Affection:\\V[3107])>Aren't you imposing values now too?")
  ShowMessageFace("iso_fc1",2,0,2,20)
  ShowMessage("\\n<Isabelle (Affection:\\V[3116])>That's imposing values onto values about value imposition! ...And now I can't remember why we're even arguing.")
  JumpToLabel("メニュー")
  DefineLabel("メニュー")
  StartLoop()
   355("unlimited_choices(11, [\"Give presents\",")
   655("\"Add to party\",")
   655("\"View present list\",\"Request\",")
   655("\"Never mind\"])")
   If(1,11,0,0,0)
    355("present_start(107)")
    0()
   EndIf()
   If(1,11,0,1,0)
    PictureClear(5)
    355("move_actor_ex(107)")
    EndEventProcessing()
    0()
   EndIf()
   If(1,11,0,2,0)
    ShowMessageFace("",0,0,2,21)
    ShowMessage("Affection       10:\\ii[71]")
    ShowMessage("Affection     100:\\ia[1733]")
    ShowMessage("Affection     500:\\ia[1369]")
    ShowMessage("Affection   2000:\\ia[1207]")
    0()
   EndIf()
   If(1,11,0,3,0)
    PictureClear(5)
    ShowMessageFace("",0,0,2,22)
    ShowMessage("Ask her for what? (Affection:\\V[3107])")
    ShowChoices(strings("Sea Cucumber Suck(Affection:10)","Never mind"),2)
    IfPlayerPicksChoice(0,null)
     If(1,3107,0,10,1)
      355("call_novel_scene(4326)")
      EndEventProcessing()
      0()
     Else()
      ShowMessageFace("namako_fc1",0,0,2,23)
      ShowMessage("\\n<Yume (Affection:\\V[3107])>Maybe next time. Why don't you go love on that shellfish girl today?")
      0()
     EndIf()
     0()
    IfPlayerPicksChoice(1,null)
     0()
    404()
    0()
   EndIf()
   If(1,11,0,4,1)
    PictureClear(5)
    EndEventProcessing()
    0()
   EndIf()
   0()
  EndLoop()
  0()
 PAGE   2
  // condition: party contains actor #107
  0()



EVENT   11
 PAGE   1
  // condition: switch 1109 is ON
  PictureDisplay(5,"80_kani_st01",0,0,0,0,100,100,0,0)
  PictureMove(5,null,0,0,0,0,100,100,255,0,30,true)
  If(1,3109,0,10,1)
   If(1,4109,0,0,0)
    ChangeVariable(4109,4109,0,0,1)
    ShowMessageFace("kani_fc1",0,0,2,1)
    ShowMessage("\\n<Soapy (Affection:\\V[3109])>This is a gift for you. It was expensive, so make sure you appreciate it.")
    250(bytes(0x04,0x08,0x6f,0x3a,0x0c,0x52,0x50,0x47,0x3a,0x3a,0x53,0x45,0x08,0x3a,0x0a,0x40,0x6e,0x61,0x6d,0x65,0x49,0x22,0x0a,0x49,0x74,0x65,0x6d,0x31,0x06,0x3a,0x06,0x45,0x54,0x3a,0x0b,0x40,0x70,0x69,0x74,0x63,0x68,0x69,0x69,0x3a,0x0c,0x40,0x76,0x6f,0x6c,0x75,0x6d,0x65,0x69,0x55))
    ChangeInventoryArmor(107,0,0,1,false)
    0()
   EndIf()
   0()
  EndIf()
  If(1,3109,0,100,1)
   If(1,4109,0,1,0)
    ChangeVariable(4109,4109,0,0,2)
    ShowMessageFace("kani_fc1",0,0,2,2)
    ShowMessage("\\n<Soapy (Affection:\\V[3109])>This is a gift for you. It was expensive, so make sure you appreciate it.")
    250(bytes(0x04,0x08,0x6f,0x3a,0x0c,0x52,0x50,0x47,0x3a,0x3a,0x53,0x45,0x08,0x3a,0x0a,0x40,0x6e,0x61,0x6d,0x65,0x49,0x22,0x0a,0x49,0x74,0x65,0x6d,0x31,0x06,0x3a,0x06,0x45,0x54,0x3a,0x0b,0x40,0x70,0x69,0x74,0x63,0x68,0x69,0x69,0x3a,0x0c,0x40,0x76,0x6f,0x6c,0x75,0x6d,0x65,0x69,0x55))
    ChangeInventoryArmor(1145,0,0,1,false)
    0()
   EndIf()
   0()
  EndIf()
  If(1,3109,0,500,1)
   If(1,4109,0,2,0)
    ChangeVariable(4109,4109,0,0,3)
    ShowMessageFace("kani_fc1",0,0,2,3)
    ShowMessage("\\n<Soapy (Affection:\\V[3109])>This is a gift for you. It was expensive, so make sure you appreciate it.")
    250(bytes(0x04,0x08,0x6f,0x3a,0x0c,0x52,0x50,0x47,0x3a,0x3a,0x53,0x45,0x08,0x3a,0x0a,0x40,0x6e,0x61,0x6d,0x65,0x49,0x22,0x0a,0x49,0x74,0x65,0x6d,0x31,0x06,0x3a,0x06,0x45,0x54,0x3a,0x0b,0x40,0x70,0x69,0x74,0x63,0x68,0x69,0x69,0x3a,0x0c,0x40,0x76,0x6f,0x6c,0x75,0x6d,0x65,0x69,0x55))
    ChangeInventoryArmor(1580,0,0,1,false)
    0()
   EndIf()
   0()
  EndIf()
  If(1,3109,0,2000,1)
   If(1,4109,0,3,0)
    ChangeVariable(4109,4109,0,0,4)
    ShowMessageFace("kani_fc1",0,0,2,4)
    ShowMessage("\\n<Soapy (Affection:\\V[3109])>This is a gift for you. It was expensive, so make sure you appreciate it.")
    250(bytes(0x04,0x08,0x6f,0x3a,0x0c,0x52,0x50,0x47,0x3a,0x3a,0x53,0x45,0x08,0x3a,0x0a,0x40,0x6e,0x61,0x6d,0x65,0x49,0x22,0x0a,0x49,0x74,0x65,0x6d,0x31,0x06,0x3a,0x06,0x45,0x54,0x3a,0x0b,0x40,0x70,0x69,0x74,0x63,0x68,0x69,0x69,0x3a,0x0c,0x40,0x76,0x6f,0x6c,0x75,0x6d,0x65,0x69,0x55))
    ChangeInventoryArmor(1207,0,0,1,false)
    0()
   EndIf()
   0()
  EndIf()
  355("actor_label_jump")
  ShowMessageFace("kani_fc1",0,0,2,5)
  ShowMessage("\\n<Soapy (Affection:\\V[3109])>Unison. Unison. I'm training my legs. ♪ What is it? Do you need something?")
  JumpToLabel("メニュー")
  DefineLabel("64")
  ShowMessageFace("pramia_fc1",0,0,2,6)
  ShowMessage("\\n<Teeny (Affection:\\V[3064])>Sorry I had you help me with washing the dishes.")
  ShowMessageFace("kani_fc1",0,0,2,7)
  ShowMessage("\\n<Soapy (Affection:\\V[3109])>It's okay, I like to clean.")
  ShowMessageFace("pramia_fc1",0,0,2,8)
  ShowMessage("\\n<Teeny (Affection:\\V[3064])>You're not using your own bubbles instead of soap, are you? ...Well, whatever.")
  ShowMessageFace("kani_fc1",0,0,2,9)
  ShowMessage("\\n<Soapy (Affection:\\V[3109])>Don't worry, don't worry... They're 100% natural.")
  JumpToLabel("メニュー")
  DefineLabel("98")
  ShowMessageFace("minikani_fc1",0,0,2,10)
  ShowMessage("\\n<Amy (Affection:\\V[3098])>Mooommyyyy!")
  ShowMessageFace("kani_fc1",2,0,2,11)
  ShowMessage("\\n<Soapy (Affection:\\V[3109])>I keep telling you, I'm not your mom! I'm not even married yet!")
  ShowMessageFace("minikani_fc1",2,0,2,12)
  ShowMessage("\\n<Amy (Affection:\\V[3098])>...Uwaaahhh!")
  ShowMessageFace("kani_fc1",2,0,2,13)
  ShowMessage("\\n<Soapy (Affection:\\V[3109])>S-sorry... Ohh geez, where is this girl's mother?!")
  JumpToLabel("メニュー")
  DefineLabel("128")
  ShowMessageFace("kani_fc1",0,0,2,14)
  ShowMessage("\\n<Soapy (Affection:\\V[3109])>Mechrabical!")
  ShowMessageFace("kaniloid_fc1",0,0,2,15)
  ShowMessage("\\n<Jillian (Affection:\\V[3128])>...What was that?")
  ShowMessageFace("kani_fc1",0,0,2,16)
  ShowMessage("\\n<Soapy (Affection:\\V[3109])>MeCRABical")
  ShowMessageFace("kaniloid_fc1",0,0,2,17)
  ShowMessage("\\n<Jillian (Affection:\\V[3128])>Oh, I get it. ...That's a new one.")
  JumpToLabel("メニュー")
  DefineLabel("メニュー")
  StartLoop()
   355("unlimited_choices(11, [\"Give presents\",")
   655("\"Add to party\",")
   655("\"View present list\",\"Request\",")
   655("\"Never mind\"])")
   If(1,11,0,0,0)
    355("present_start(109)")
    0()
   EndIf()
   If(1,11,0,1,0)
    PictureClear(5)
    355("move_actor_ex(109)")
    EndEventProcessing()
    0()
   EndIf()
   If(1,11,0,2,0)
    ShowMessageFace("",0,0,2,18)
    ShowMessage("Affection       10:\\ia[107]")
    ShowMessage("Affection     100:\\ia[1145]")
    ShowMessage("Affection     500:\\ia[1580]")
    ShowMessage("Affection   2000:\\ia[1207]")
    0()
   EndIf()
   If(1,11,0,3,0)
    PictureClear(5)
    ShowMessageFace("",0,0,2,19)
    ShowMessage("Ask her for what? (Affection:\\V[3109])")
    ShowChoices(strings("Melty Wash(Affection:10)","Mating(Affection:100)","Never mind"),3)
    IfPlayerPicksChoice(0,null)
     If(1,3109,0,10,1)
      355("call_novel_scene(4336)")
      EndEventProcessing()
      0()
     Else()
      ShowMessageFace("kani_fc1",0,0,2,20)
      ShowMessage("\\n<Soapy (Affection:\\V[3109])>I have a lot of orders today. Maybe next time.")
      0()
     EndIf()
     0()
    IfPlayerPicksChoice(1,null)
     If(1,3109,0,100,1)
      355("call_novel_scene(4337)")
      EndEventProcessing()
      0()
     Else()
      ShowMessageFace("kani_fc1",0,0,2,21)
      ShowMessage("\\n<Soapy (Affection:\\V[3109])>I have a lot of orders today. Maybe next time.")
      0()
     EndIf()
     0()
    IfPlayerPicksChoice(2,null)
     0()
    404()
    0()
   EndIf()
   If(1,11,0,4,1)
    PictureClear(5)
    EndEventProcessing()
    0()
   EndIf()
   0()
  EndLoop()
  0()
 PAGE   2
  // condition: party contains actor #109
  0()



EVENT   12
 PAGE   1
  // condition: switch 1115 is ON
  PictureDisplay(5,"80_kurage_st01",0,0,0,0,100,100,0,0)
  PictureMove(5,null,0,0,0,0,100,100,255,0,30,true)
  If(1,3115,0,10,1)
   If(1,4115,0,0,0)
    ChangeVariable(4115,4115,0,0,1)
    ShowMessageFace("kurage_fc1",0,0,2,1)
    ShowMessage("\\n<Kurage (Affection:\\V[3115])>You can have this... Take care of it...")
    250(bytes(0x04,0x08,0x6f,0x3a,0x0c,0x52,0x50,0x47,0x3a,0x3a,0x53,0x45,0x08,0x3a,0x0a,0x40,0x6e,0x61,0x6d,0x65,0x49,0x22,0x0a,0x49,0x74,0x65,0x6d,0x31,0x06,0x3a,0x06,0x45,0x54,0x3a,0x0b,0x40,0x70,0x69,0x74,0x63,0x68,0x69,0x69,0x3a,0x0c,0x40,0x76,0x6f,0x6c,0x75,0x6d,0x65,0x69,0x55))
    ChangeInventory_Item(71,0,0,1)
    0()
   EndIf()
   0()
  EndIf()
  If(1,3115,0,100,1)
   If(1,4115,0,1,0)
    ChangeVariable(4115,4115,0,0,2)
    ShowMessageFace("kurage_fc1",0,0,2,2)
    ShowMessage("\\n<Kurage (Affection:\\V[3115])>You can have this... Take care of it...")
    250(bytes(0x04,0x08,0x6f,0x3a,0x0c,0x52,0x50,0x47,0x3a,0x3a,0x53,0x45,0x08,0x3a,0x0a,0x40,0x6e,0x61,0x6d,0x65,0x49,0x22,0x0a,0x49,0x74,0x65,0x6d,0x31,0x06,0x3a,0x06,0x45,0x54,0x3a,0x0b,0x40,0x70,0x69,0x74,0x63,0x68,0x69,0x69,0x3a,0x0c,0x40,0x76,0x6f,0x6c,0x75,0x6d,0x65,0x69,0x55))
    ChangeInventoryArmor(1723,0,0,1,false)
    0()
   EndIf()
   0()
  EndIf()
  If(1,3115,0,500,1)
   If(1,4115,0,2,0)
    ChangeVariable(4115,4115,0,0,3)
    ShowMessageFace("kurage_fc1",0,0,2,3)
    ShowMessage("\\n<Kurage (Affection:\\V[3115])>You can have this... Take care of it...")
    250(bytes(0x04,0x08,0x6f,0x3a,0x0c,0x52,0x50,0x47,0x3a,0x3a,0x53,0x45,0x08,0x3a,0x0a,0x40,0x6e,0x61,0x6d,0x65,0x49,0x22,0x0a,0x49,0x74,0x65,0x6d,0x31,0x06,0x3a,0x06,0x45,0x54,0x3a,0x0b,0x40,0x70,0x69,0x74,0x63,0x68,0x69,0x69,0x3a,0x0c,0x40,0x76,0x6f,0x6c,0x75,0x6d,0x65,0x69,0x55))
    ChangeInventoryArmor(1558,0,0,1,false)
    0()
   EndIf()
   0()
  EndIf()
  If(1,3115,0,2000,1)
   If(1,4115,0,3,0)
    ChangeVariable(4115,4115,0,0,4)
    ShowMessageFace("kurage_fc1",0,0,2,4)
    ShowMessage("\\n<Kurage (Affection:\\V[3115])>You can have this... Take care of it...")
    250(bytes(0x04,0x08,0x6f,0x3a,0x0c,0x52,0x50,0x47,0x3a,0x3a,0x53,0x45,0x08,0x3a,0x0a,0x40,0x6e,0x61,0x6d,0x65,0x49,0x22,0x0a,0x49,0x74,0x65,0x6d,0x31,0x06,0x3a,0x06,0x45,0x54,0x3a,0x0b,0x40,0x70,0x69,0x74,0x63,0x68,0x69,0x69,0x3a,0x0c,0x40,0x76,0x6f,0x6c,0x75,0x6d,0x65,0x69,0x55))
    ChangeInventoryArmor(1101,0,0,1,false)
    0()
   EndIf()
   0()
  EndIf()
  355("actor_label_jump")
  ShowMessageFace("kurage_fc1",0,0,2,5)
  ShowMessage("\\n<Kurage (Affection:\\V[3115])>Jellyfish float, float...")
  JumpToLabel("メニュー")
  DefineLabel("90")
  ShowMessageFace("kurage_fc1",0,0,2,6)
  ShowMessage("\\n<Kurage (Affection:\\V[3115])>*Waver Waver*")
  ShowMessageFace("meda_fc1",0,0,2,7)
  ShowMessage("\\n<Meru Meru (Affection:\\V[3090])>*Rustle Rustle*")
  ShowMessageFace("kurage_fc1",0,0,2,8)
  ShowMessage("\\n<Kurage (Affection:\\V[3115])>*Sway Sway* *Wavering*")
  ShowMessageFace("meda_fc1",0,0,2,9)
  ShowMessage("\\n<Meru Meru (Affection:\\V[3090])>*Rustle Rustle* *Creep Creep*")
  ShowMessageFace("",0,0,2,10)
  ShowMessage("They seem to understand each other.")
  JumpToLabel("メニュー")
  DefineLabel("114")
  ShowMessageFace("wakame_fc1",1,0,2,11)
  ShowMessage("\\n<Wakame (Affection:\\V[3114])>Jellyfishie, sway, sway...")
  ShowMessageFace("kurage_fc1",0,0,2,12)
  ShowMessage("\\n<Kurage (Affection:\\V[3115])>Seaweedie, swish, swish...")
  ShowMessageFace("wakame_fc1",1,0,2,13)
  ShowMessage("\\n<Wakame (Affection:\\V[3114])>Let's dance. Sway, sway, swaying...")
  ShowMessageFace("kurage_fc1",0,0,2,14)
  ShowMessage("\\n<Kurage (Affection:\\V[3115])>Swish, swish, swishing...")
  JumpToLabel("メニュー")
  DefineLabel("116")
  ShowMessageFace("kurage_fc1",0,0,2,15)
  ShowMessage("\\n<Kurage (Affection:\\V[3115])>Swish, swish...")
  ShowMessageFace("iso_fc1",0,0,2,16)
  ShowMessage("\\n<Isabelle (Affection:\\V[3116])>We're pretty similar in nature, but we seem to have completely different personalities...")
  ShowMessageFace("kurage_fc1",0,0,2,17)
  ShowMessage("\\n<Kurage (Affection:\\V[3115])>Sway, sway...")
  ShowMessageFace("iso_fc1",0,0,2,18)
  ShowMessage("\\n<Isabelle (Affection:\\V[3116])>We're both species that ruthlessly hunt our prey, but... I wonder what makes us so different?")
  JumpToLabel("メニュー")
  DefineLabel("154")
  ShowMessageFace("kurage_fc1",0,0,2,19)
  ShowMessage("\\n<Kurage (Affection:\\V[3115])>Float, float...")
  ShowMessageFace("wani_fc1",0,0,2,20)
  ShowMessage("\\n<Gaa (Affection:\\V[3154])>Huh?")
  ShowMessageFace("kurage_fc1",0,0,2,21)
  ShowMessage("\\n<Kurage (Affection:\\V[3115])>Floating...")
  ShowMessageFace("wani_fc1",0,0,2,22)
  ShowMessage("\\n<Gaa (Affection:\\V[3154])>Gaa...")
  ShowMessageFace("",0,0,2,23)
  ShowMessage("Odd... Her lower half seems to agree...")
  JumpToLabel("メニュー")
  DefineLabel("199")
  ShowMessageFace("dagon_fc1",0,0,2,24)
  ShowMessage("\\n<セラフィ (Affection:\\V[3199])>ふらふら～")
  ShowMessageFace("kurage_fc1",0,0,2,25)
  ShowMessage("\\n<くらげ (Affection:\\V[3115])>ゆらゆら……")
  ShowMessageFace("dagon_fc1",0,0,2,26)
  ShowMessage("\\n<セラフィ (Affection:\\V[3199])>私達って、そっくりですよね。")
  ShowMessage("同類同士、仲良くしましょうよ♪")
  ShowMessageFace("kurage_fc1",0,0,2,27)
  ShowMessage("\\n<くらげ (Affection:\\V[3115])>くらげとたこって、同類なの……？")
  ShowMessageFace("dagon_fc1",0,0,2,28)
  ShowMessage("\\n<セラフィ (Affection:\\V[3199])>かたい事は、言いっこなし♪")
  JumpToLabel("メニュー")
  DefineLabel("258")
  ShowMessageFace("kurage_fc1",0,0,2,29)
  ShowMessage("\\n<くらげ (Affection:\\V[3115])>くらげ、ゆらゆら……")
  ShowMessageFace("fakejelly_fc1",0,0,2,30)
  ShowMessage("\\n<アルネ (Affection:\\V[3258])>あっ、仲間ですね！")
  ShowMessage("あたしもくらげです♪")
  ShowMessageFace("kurage_fc1",0,0,2,31)
  ShowMessage("\\n<くらげ (Affection:\\V[3115])>くらげ……？")
  ShowMessage("でも、似てないね……")
  ShowMessageFace("fakejelly_fc1",0,0,2,32)
  ShowMessage("\\n<アルネ (Affection:\\V[3258])>あたし、人間に擬態してますから……")
  ShowMessage("でも、体はぷるんぷるんですよ♪")
  JumpToLabel("メニュー")
  DefineLabel("278")
  ShowMessageFace("arkjelly_fc1",0,0,2,33)
  ShowMessage("\\n<サマンサ (Affection:\\V[3278])>……くらげだ！")
  ShowMessageFace("kurage_fc1",0,0,2,34)
  ShowMessage("\\n<くらげ (Affection:\\V[3115])>そっちは、アークくらげだ……")
  ShowMessageFace("arkjelly_fc1",0,0,2,35)
  ShowMessage("\\n<サマンサ (Affection:\\V[3278])>ゆらゆら……")
  ShowMessageFace("kurage_fc1",0,0,2,36)
  ShowMessage("\\n<くらげ (Affection:\\V[3115])>ふらふら……")
  ShowMessageFace("arkjelly_fc1",0,0,2,37)
  ShowMessage("\\n<サマンサ (Affection:\\V[3278])>くらげ……")
  ShowMessageFace("kurage_fc1",0,0,2,38)
  ShowMessage("\\n<くらげ (Affection:\\V[3115])>くらげ……")
  JumpToLabel("メニュー")
  DefineLabel("メニュー")
  StartLoop()
   355("unlimited_choices(11, [\"Give presents\",")
   655("\"Add to party\",")
   655("\"View present list\",\"Request\",")
   655("\"Never mind\"])")
   If(1,11,0,0,0)
    355("present_start(115)")
    0()
   EndIf()
   If(1,11,0,1,0)
    PictureClear(5)
    355("move_actor_ex(115)")
    EndEventProcessing()
    0()
   EndIf()
   If(1,11,0,2,0)
    ShowMessageFace("",0,0,2,39)
    ShowMessage("Affection       10:\\ii[71]")
    ShowMessage("Affection     100:\\ia[1723]")
    ShowMessage("Affection     500:\\ia[1558]")
    ShowMessage("Affection   2000:\\ia[1101]")
    0()
   EndIf()
   If(1,11,0,3,0)
    PictureClear(5)
    ShowMessageFace("",0,0,2,40)
    ShowMessage("Ask her for what? (Affection:\\V[3115])")
    ShowChoices(strings("Predation(Affection:10)","Predation...?(Affection:100)","Never mind"),3)
    IfPlayerPicksChoice(0,null)
     If(1,3115,0,10,1)
      355("call_novel_scene(4366)")
      EndEventProcessing()
      0()
     Else()
      ShowMessageFace("kurage_fc1",0,0,2,41)
      ShowMessage("\\n<Kurage (Affection:\\V[3115])>Maybe later...")
      0()
     EndIf()
     0()
    IfPlayerPicksChoice(1,null)
     If(1,3115,0,100,1)
      355("call_novel_scene(4367)")
      EndEventProcessing()
      0()
     Else()
      ShowMessageFace("kurage_fc1",0,0,2,42)
      ShowMessage("\\n<Kurage (Affection:\\V[3115])>Maybe later...")
      0()
     EndIf()
     0()
    IfPlayerPicksChoice(2,null)
     0()
    404()
    0()
   EndIf()
   If(1,11,0,4,1)
    PictureClear(5)
    EndEventProcessing()
    0()
   EndIf()
   0()
  EndLoop()
  0()
 PAGE   2
  // condition: party contains actor #115
  0()



EVENT   13
 PAGE   1
  // condition: switch 1118 is ON
  PictureDisplay(5,"80_meia_st01",0,0,0,0,100,100,0,0)
  PictureMove(5,null,0,0,0,0,100,100,255,0,30,true)
  If(1,3118,0,100,1)
   If(1,4118,0,0,0)
    ChangeVariable(4118,4118,0,0,1)
    ShowMessageFace("meia_fc1",2,0,2,1)
    ShowMessage("\\n<Meia (Affection:\\V[3118])>Take this, it contains my feelings for you. I look forward to working with you from now on. ♪")
    250(bytes(0x04,0x08,0x6f,0x3a,0x0c,0x52,0x50,0x47,0x3a,0x3a,0x53,0x45,0x08,0x3a,0x0a,0x40,0x6e,0x61,0x6d,0x65,0x49,0x22,0x0a,0x49,0x74,0x65,0x6d,0x31,0x06,0x3a,0x06,0x45,0x54,0x3a,0x0b,0x40,0x70,0x69,0x74,0x63,0x68,0x69,0x69,0x3a,0x0c,0x40,0x76,0x6f,0x6c,0x75,0x6d,0x65,0x69,0x55))
    ChangeInventoryArmor(1100,0,0,1,false)
    0()
   EndIf()
   0()
  EndIf()
  If(1,3118,0,500,1)
   If(1,4118,0,1,0)
    ChangeVariable(4118,4118,0,0,2)
    ShowMessageFace("meia_fc1",2,0,2,2)
    ShowMessage("\\n<Meia (Affection:\\V[3118])>Take this, it contains my feelings for you. I look forward to working with you from now on. ♪")
    250(bytes(0x04,0x08,0x6f,0x3a,0x0c,0x52,0x50,0x47,0x3a,0x3a,0x53,0x45,0x08,0x3a,0x0a,0x40,0x6e,0x61,0x6d,0x65,0x49,0x22,0x0a,0x49,0x74,0x65,0x6d,0x31,0x06,0x3a,0x06,0x45,0x54,0x3a,0x0b,0x40,0x70,0x69,0x74,0x63,0x68,0x69,0x69,0x3a,0x0c,0x40,0x76,0x6f,0x6c,0x75,0x6d,0x65,0x69,0x55))
    ChangeInventoryArmor(1267,0,0,1,false)
    0()
   EndIf()
   0()
  EndIf()
  If(1,3118,0,2000,1)
   If(1,4118,0,2,0)
    ChangeVariable(4118,4118,0,0,3)
    ShowMessageFace("meia_fc1",2,0,2,3)
    ShowMessage("\\n<Meia (Affection:\\V[3118])>Take this, it contains my feelings for you. I look forward to working with you from now on. ♪")
    250(bytes(0x04,0x08,0x6f,0x3a,0x0c,0x52,0x50,0x47,0x3a,0x3a,0x53,0x45,0x08,0x3a,0x0a,0x40,0x6e,0x61,0x6d,0x65,0x49,0x22,0x0a,0x49,0x74,0x65,0x6d,0x31,0x06,0x3a,0x06,0x45,0x54,0x3a,0x0b,0x40,0x70,0x69,0x74,0x63,0x68,0x69,0x69,0x3a,0x0c,0x40,0x76,0x6f,0x6c,0x75,0x6d,0x65,0x69,0x55))
    ChangeInventoryArmor(1207,0,0,1,false)
    0()
   EndIf()
   0()
  EndIf()
  If(1,3118,0,4000,1)
   If(1,4118,0,3,0)
    ChangeVariable(4118,4118,0,0,4)
    ShowMessageFace("meia_fc1",2,0,2,4)
    ShowMessage("\\n<Meia (Affection:\\V[3118])>Take this, it contains my feelings for you. I look forward to working with you from now on. ♪")
    250(bytes(0x04,0x08,0x6f,0x3a,0x0c,0x52,0x50,0x47,0x3a,0x3a,0x53,0x45,0x08,0x3a,0x0a,0x40,0x6e,0x61,0x6d,0x65,0x49,0x22,0x0a,0x49,0x74,0x65,0x6d,0x31,0x06,0x3a,0x06,0x45,0x54,0x3a,0x0b,0x40,0x70,0x69,0x74,0x63,0x68,0x69,0x69,0x3a,0x0c,0x40,0x76,0x6f,0x6c,0x75,0x6d,0x65,0x69,0x55))
    ChangeInventoryArmor(1328,0,0,1,false)
    0()
   EndIf()
   0()
  EndIf()
  355("actor_label_jump")
  ShowMessageFace("meia_fc1",0,0,2,5)
  ShowMessage("\\n<Meia (Affection:\\V[3118])>Fufuu, why not take me with you? I'm in a bit of a mood to let loose.")
  JumpToLabel("メニュー")
  DefineLabel("72")
  ShowMessageFace("phoenix_fc1",2,0,2,6)
  ShowMessage("\\n<Mini (Affection:\\V[3072])>I-it's the pervert mermaid! She only likes little boys! Scary!")
  ShowMessageFace("meia_fc1",3,0,2,7)
  ShowMessage("\\n<Meia (Affection:\\V[3118])>That's prejudiced. I don't only like little boys. Those are just slanderous rumors.")
  ShowMessageFace("phoenix_fc1",3,0,2,8)
  ShowMessage("\\n<Mini (Affection:\\V[3072])>Oh. ...Really?")
  ShowMessageFace("meia_fc1",2,0,2,9)
  ShowMessage("\\n<Meia (Affection:\\V[3118])>I like little girls too.")
  ShowMessageFace("phoenix_fc1",2,0,2,10)
  ShowMessage("\\n<Mini (Affection:\\V[3072])>She really is a pervert!")
  JumpToLabel("メニュー")
  DefineLabel("99")
  ShowMessageFace("meia_fc1",1,0,2,11)
  ShowMessage("\\n<Meia (Affection:\\V[3118])>Oh, hello Gigi.")
  ShowMessageFace("namazu_fc1",0,0,2,12)
  ShowMessage("\\n<Gigi (Affection:\\V[3099])>Oh, you're a mermaid from Port Natalia. That's a nice town. I'd like to retire there.")
  ShowMessageFace("meia_fc1",2,0,2,13)
  ShowMessage("\\n<Meia (Affection:\\V[3118])>You're not old enough to retire. There are mermaids who have been working for 800 years.")
  ShowMessageFace("namazu_fc1",0,0,2,14)
  ShowMessage("\\n<Gigi (Affection:\\V[3099])>Well, I'll do my best regardless... By the way, at what age do you think humans stop working?")
  ShowMessageFace("meia_fc1",3,0,2,15)
  ShowMessage("\\n<Meia (Affection:\\V[3118])>Huh? Maybe... 12 years old?")
  JumpToLabel("メニュー")
  DefineLabel("134")
  ShowMessageFace("chrom_fc2",0,0,2,16)
  ShowMessage("\\n<Chrome (Affection:\\V[3134])>Oh, it's a mermaid... If you know of a fresh mermaid corpse, be sure to give it to me.")
  ShowMessageFace("meia_fc1",3,0,2,17)
  ShowMessage("\\n<Meia (Affection:\\V[3118])>W-well... Wait, what?!")
  ShowMessageFace("chrom_fc2",3,0,2,18)
  ShowMessage("\\n<Chrome (Affection:\\V[3134])>I'm joking. Kukukuu...")
  ShowMessageFace("meia_fc1",1,0,2,19)
  ShowMessage("\\n<Meia (Affection:\\V[3118])>What will you give me in exchange for the corpse?")
  ShowMessageFace("chrom_fc1",6,0,2,20)
  ShowMessage("\\n<Chrome (Affection:\\V[3134])>.......!?")
  ShowMessageFace("meia_fc1",3,0,2,21)
  ShowMessage("\\n<Meia (Affection:\\V[3118])>I'm joking. Fufufuu...")
  JumpToLabel("メニュー")
  DefineLabel("144")
  ShowMessageFace("saboresu_fc1",0,0,2,22)
  ShowMessage("\\n<Sunny (Affection:\\V[3144])>Hey, I want to be a pirate!")
  ShowMessageFace("meia_fc1",0,0,2,23)
  ShowMessage("\\n<Meia (Affection:\\V[3118])>Speaking of pirates, they loot and pillage, right? Are you interested in selling kidnapped little boys?")
  ShowMessageFace("saboresu_fc1",2,0,2,24)
  ShowMessage("\\n<Sunny (Affection:\\V[3144])>That's just you...")
  JumpToLabel("メニュー")
  DefineLabel("155")
  ShowMessageFace("meia_fc1",1,0,2,25)
  ShowMessage("\\n<Meia (Affection:\\V[3118])>You're an idol? That's amazing. I also have confidence in my singing, but there's...")
  ShowMessageFace("saki_fc1",0,0,2,26)
  ShowMessage("\\n<Saki (Affection:\\V[3155])>Oh, want to be idols together? I think Meia would be pretty popular. ☆")
  ShowMessageFace("meia_fc1",2,0,2,27)
  ShowMessage("\\n<Meia (Affection:\\V[3118])>To be popular... Surrounded by little boy fans... Fufufuu...")
  ShowMessageFace("saki_fc1",2,0,2,28)
  ShowMessage("\\n<Saki (Affection:\\V[3155])>Playing around with fans is strictly prohibited. ...And why is it limited to little boys?")
  JumpToLabel("メニュー")
  DefineLabel("195")
  ShowMessageFace("mermaid_fc1",3,0,2,29)
  ShowMessage("\\n<メーヌ (Affection:\\V[3195])>メイアも、色々と大変だったみたいね。")
  ShowMessage("南海の女王になって、ハーレムを築いたんだって？")
  ShowMessageFace("meia_fc1",0,0,2,30)
  ShowMessage("\\n<メイア (Affection:\\V[3118])>洗脳されてしまって、あんな事を……")
  ShowMessage("お恥ずかしいです。")
  ShowMessageFace("mermaid_fc1",3,0,2,31)
  ShowMessage("\\n<メーヌ (Affection:\\V[3195])>私だったら、イケメンマッチョのハーレムを……")
  ShowMessage("いえいえ、なんでもないわ。")
  ShowMessageFace("meia_fc1",3,0,2,32)
  ShowMessage("\\n<メイア (Affection:\\V[3118])>イケメンマッチョのハーレムって……")
  ShowMessage("それ、ちょっと変態的じゃありません？")
  ShowMessageFace("mermaid_fc1",3,0,2,33)
  ShowMessage("\\n<メーヌ (Affection:\\V[3195])>あなたに言われたくないわよ……")
  JumpToLabel("メニュー")
  DefineLabel("327")
  ShowMessageFace("meia_fc1",2,0,2,34)
  ShowMessage("\\n<メイア (Affection:\\V[3118])>あら、かわいい人魚姫様……♪")
  ShowMessageFace("ningyohime_fc1",3,0,2,35)
  ShowMessage("\\n<エル (Affection:\\V[3327])>半人前扱いしないでよね。")
  ShowMessage("あたし、とっても強いんだから！")
  ShowMessageFace("meia_fc1",2,0,2,36)
  ShowMessage("\\n<メイア (Affection:\\V[3118])>うふふっ、いい子ですね……")
  ShowMessage("はい、こんぶアメをあげましょう。")
  ShowMessageFace("ningyohime_fc1",5,0,2,37)
  ShowMessage("\\n<エル (Affection:\\V[3327])>わ～い♪")
  JumpToLabel("メニュー")
  DefineLabel("542")
  ShowMessageFace("domeima_fc1",0,0,2,38)
  ShowMessage("\\n<Domaimer (Affection:\\V[3542])>W... water...")
  ShowMessageFace("meia_fc1",0,0,2,39)
  ShowMessage("\\n<Meia (Affection:\\V[3118])>Oh, you're a pretty unusual mermaid. All right, here's some water.")
  ShowMessageFace("domeima_fc1",0,0,2,40)
  ShowMessage("\\n<Domaimer (Affection:\\V[3542])>My savior! Allow me to invite you to Oz.")
  ShowMessageFace("meia_fc1",2,0,2,41)
  ShowMessage("\\n<Meia (Affection:\\V[3118])>Oh, but I can't wear any ruby slippers...")
  ShowMessageFace("sonia_fc4",0,0,2,42)
  ShowMessage("\\n<Sonya>(Bunch of comedians we've got here...)")
  JumpToLabel("メニュー")
  DefineLabel("メニュー")
  StartLoop()
   355("unlimited_choices(11, [\"Give presents\",")
   655("\"Add to party\",")
   655("\"View present list\",\"Request\",")
   655("\"Never mind\"])")
   If(1,11,0,0,0)
    355("present_start(118)")
    0()
   EndIf()
   If(1,11,0,1,0)
    PictureClear(5)
    355("move_actor_ex(118)")
    EndEventProcessing()
    0()
   EndIf()
   If(1,11,0,2,0)
    ShowMessageFace("",0,0,2,43)
    ShowMessage("Affection     100:\\ia[1100]")
    ShowMessage("Affection     500:\\ia[1267]")
    ShowMessage("Affection   2000:\\ia[1207]")
    ShowMessage("Affection   4000:\\ia[1328]")
    0()
   EndIf()
   If(1,11,0,3,0)
    PictureClear(5)
    ShowMessageFace("",0,0,2,44)
    ShowMessage("Ask her for what? (Affection:\\V[3118])")
    ShowChoices(strings("Blowjob(Affection:10)","Reverse Rape(Affection:100)","Never mind"),3)
    IfPlayerPicksChoice(0,null)
     If(1,3118,0,10,1)
      355("call_novel_scene(4381)")
      EndEventProcessing()
      0()
     Else()
      ShowMessageFace("meia_fc1",0,0,2,45)
      ShowMessage("\\n<Meia (Affection:\\V[3118])>That's a little... That would be terrible to do to my husband.")
      0()
     EndIf()
     0()
    IfPlayerPicksChoice(1,null)
     If(1,3118,0,100,1)
      355("call_novel_scene(4382)")
      EndEventProcessing()
      0()
     Else()
      ShowMessageFace("meia_fc1",0,0,2,46)
      ShowMessage("\\n<Meia (Affection:\\V[3118])>That's a little... That would be terrible to do to my husband.")
      0()
     EndIf()
     0()
    IfPlayerPicksChoice(2,null)
     0()
    404()
    0()
   EndIf()
   If(1,11,0,4,1)
    PictureClear(5)
    EndEventProcessing()
    0()
   EndIf()
   0()
  EndLoop()
  0()
 PAGE   2
  // condition: party contains actor #118
  0()



EVENT   14
 PAGE   1
  // condition: switch 1116 is ON
  PictureDisplay(5,"80_iso_st01",0,0,0,0,100,100,0,0)
  PictureMove(5,null,0,0,0,0,100,100,255,0,30,true)
  If(1,3116,0,10,1)
   If(1,4116,0,0,0)
    ChangeVariable(4116,4116,0,0,1)
    ShowMessageFace("iso_fc1",0,0,2,1)
    ShowMessage("\\n<Isabelle (Affection:\\V[3116])>Fufuu, this is a present from me... What's your reply to these feelings?")
    250(bytes(0x04,0x08,0x6f,0x3a,0x0c,0x52,0x50,0x47,0x3a,0x3a,0x53,0x45,0x08,0x3a,0x0a,0x40,0x6e,0x61,0x6d,0x65,0x49,0x22,0x0a,0x49,0x74,0x65,0x6d,0x31,0x06,0x3a,0x06,0x45,0x54,0x3a,0x0b,0x40,0x70,0x69,0x74,0x63,0x68,0x69,0x69,0x3a,0x0c,0x40,0x76,0x6f,0x6c,0x75,0x6d,0x65,0x69,0x55))
    ChangeInventoryWeapon(730,0,0,1,false)
    0()
   EndIf()
   0()
  EndIf()
  If(1,3116,0,100,1)
   If(1,4116,0,1,0)
    ChangeVariable(4116,4116,0,0,2)
    ShowMessageFace("iso_fc1",0,0,2,2)
    ShowMessage("\\n<Isabelle (Affection:\\V[3116])>Fufuu, this is a present from me... What's your reply to these feelings?")
    250(bytes(0x04,0x08,0x6f,0x3a,0x0c,0x52,0x50,0x47,0x3a,0x3a,0x53,0x45,0x08,0x3a,0x0a,0x40,0x6e,0x61,0x6d,0x65,0x49,0x22,0x0a,0x49,0x74,0x65,0x6d,0x31,0x06,0x3a,0x06,0x45,0x54,0x3a,0x0b,0x40,0x70,0x69,0x74,0x63,0x68,0x69,0x69,0x3a,0x0c,0x40,0x76,0x6f,0x6c,0x75,0x6d,0x65,0x69,0x55))
    ChangeInventoryArmor(1725,0,0,1,false)
    0()
   EndIf()
   0()
  EndIf()
  If(1,3116,0,500,1)
   If(1,4116,0,2,0)
    ChangeVariable(4116,4116,0,0,3)
    ShowMessageFace("iso_fc1",0,0,2,3)
    ShowMessage("\\n<Isabelle (Affection:\\V[3116])>Fufuu, this is a present from me... What's your reply to these feelings?")
    250(bytes(0x04,0x08,0x6f,0x3a,0x0c,0x52,0x50,0x47,0x3a,0x3a,0x53,0x45,0x08,0x3a,0x0a,0x40,0x6e,0x61,0x6d,0x65,0x49,0x22,0x0a,0x49,0x74,0x65,0x6d,0x31,0x06,0x3a,0x06,0x45,0x54,0x3a,0x0b,0x40,0x70,0x69,0x74,0x63,0x68,0x69,0x69,0x3a,0x0c,0x40,0x76,0x6f,0x6c,0x75,0x6d,0x65,0x69,0x55))
    ChangeInventoryArmor(1576,0,0,1,false)
    0()
   EndIf()
   0()
  EndIf()
  If(1,3116,0,2000,1)
   If(1,4116,0,3,0)
    ChangeVariable(4116,4116,0,0,4)
    ShowMessageFace("iso_fc1",0,0,2,4)
    ShowMessage("\\n<Isabelle (Affection:\\V[3116])>Fufuu, this is a present from me... What's your reply to these feelings?")
    250(bytes(0x04,0x08,0x6f,0x3a,0x0c,0x52,0x50,0x47,0x3a,0x3a,0x53,0x45,0x08,0x3a,0x0a,0x40,0x6e,0x61,0x6d,0x65,0x49,0x22,0x0a,0x49,0x74,0x65,0x6d,0x31,0x06,0x3a,0x06,0x45,0x54,0x3a,0x0b,0x40,0x70,0x69,0x74,0x63,0x68,0x69,0x69,0x3a,0x0c,0x40,0x76,0x6f,0x6c,0x75,0x6d,0x65,0x69,0x55))
    ChangeInventoryArmor(1437,0,0,1,false)
    0()
   EndIf()
   0()
  EndIf()
  355("actor_label_jump")
  ShowMessageFace("iso_fc1",2,0,2,5)
  ShowMessage("\\n<Isabelle (Affection:\\V[3116])>There's no prey to catch here... Hey, please let me eat something.")
  JumpToLabel("メニュー")
  DefineLabel("107")
  ShowMessageFace("namako_fc1",0,0,2,6)
  ShowMessage("\\n<Yume (Affection:\\V[3107])>Sea anemones are so aggressive. Sea cucumbers are pacifists; we just want to live in peace.")
  ShowMessageFace("iso_fc1",0,0,2,7)
  ShowMessage("\\n<Isabelle (Affection:\\V[3116])>I'm carnivorous. Are you trying to impose your selfish values on me?")
  ShowMessageFace("namako_fc1",2,0,2,8)
  ShowMessage("\\n<Yume (Affection:\\V[3107])>Aren't you imposing values now too?")
  ShowMessageFace("iso_fc1",2,0,2,9)
  ShowMessage("\\n<Isabelle (Affection:\\V[3116])>That's imposing values onto values about value imposition! ...And now I can't remember why we're even arguing.")
  JumpToLabel("メニュー")
  DefineLabel("115")
  ShowMessageFace("kurage_fc1",0,0,2,10)
  ShowMessage("\\n<Kurage (Affection:\\V[3115])>Swish, swish...")
  ShowMessageFace("iso_fc1",0,0,2,11)
  ShowMessage("\\n<Isabelle (Affection:\\V[3116])>We're pretty similar in nature, but we seem to have completely different personalities...")
  ShowMessageFace("kurage_fc1",0,0,2,12)
  ShowMessage("\\n<Kurage (Affection:\\V[3115])>Sway, sway...")
  ShowMessageFace("iso_fc1",0,0,2,13)
  ShowMessage("\\n<Isabelle (Affection:\\V[3116])>We're both species that ruthlessly hunt our prey, but... I wonder what makes us so different?")
  JumpToLabel("メニュー")
  DefineLabel("173")
  ShowMessageFace("arizigoku_fc1",0,0,2,14)
  ShowMessage("\\n<Helen (Affection:\\V[3173])>I think we're surprisingly similar.")
  ShowMessageFace("iso_fc1",0,0,2,15)
  ShowMessage("\\n<Isabelle (Affection:\\V[3116])>We both sit in one spot, waiting for our prey... Fufuu, maybe we are pretty similar.")
  ShowMessageFace("arizigoku_fc1",0,0,2,16)
  ShowMessage("\\n<Helen (Affection:\\V[3173])>(If you come to the desert, I'll eat you.)")
  ShowMessageFace("iso_fc1",0,0,2,17)
  ShowMessage("\\n<Isabelle (Affection:\\V[3116])>(If you come to the sea, I'll eat you.)")
  JumpToLabel("メニュー")
  DefineLabel("307")
  ShowMessageFace("iso_fc1",0,0,2,18)
  ShowMessage("\\n<イザベル (Affection:\\V[3116])>あなたも、イソギンチャク……")
  ShowMessage("……なのかしら？")
  ShowMessageFace("seaanemone_fc1",0,0,2,19)
  ShowMessage("\\n<アネモ (Affection:\\V[3307])>そうだと思うわ……たぶん。")
  ShowMessageFace("iso_fc1",0,0,2,20)
  ShowMessage("\\n<イザベル (Affection:\\V[3116])>なんだか、変な生き物よね……")
  ShowMessageFace("seaanemone_fc1",0,0,2,21)
  ShowMessage("\\n<アネモ (Affection:\\V[3307])>自分でも不思議よ、なんなのかしら……")
  JumpToLabel("メニュー")
  DefineLabel("メニュー")
  StartLoop()
   355("unlimited_choices(11, [\"Give presents\",")
   655("\"Add to party\",")
   655("\"View present list\",\"Request\",")
   655("\"Never mind\"])")
   If(1,11,0,0,0)
    355("present_start(116)")
    0()
   EndIf()
   If(1,11,0,1,0)
    PictureClear(5)
    355("move_actor_ex(116)")
    EndEventProcessing()
    0()
   EndIf()
   If(1,11,0,2,0)
    ShowMessageFace("",0,0,2,22)
    ShowMessage("Affection       10:\\iw[730]")
    ShowMessage("Affection     100:\\ia[1725]")
    ShowMessage("Affection     500:\\ia[1576]")
    ShowMessage("Affection   2000:\\ia[1437]")
    0()
   EndIf()
   If(1,11,0,3,0)
    PictureClear(5)
    ShowMessageFace("",0,0,2,23)
    ShowMessage("Ask her for what? (Affection:\\V[3116])")
    ShowChoices(strings("Predation(Affection:10)","Predation...?(Affection:100)","Never mind"),3)
    IfPlayerPicksChoice(0,null)
     If(1,3116,0,10,1)
      355("call_novel_scene(4371)")
      EndEventProcessing()
      0()
     Else()
      ShowMessageFace("iso_fc1",0,0,2,24)
      ShowMessage("\\n<Isabelle (Affection:\\V[3116])>Maybe I'll play with you next time. I just want to take it easy today.")
      0()
     EndIf()
     0()
    IfPlayerPicksChoice(1,null)
     If(1,3116,0,100,1)
      355("call_novel_scene(4372)")
      EndEventProcessing()
      0()
     Else()
      ShowMessageFace("iso_fc1",0,0,2,25)
      ShowMessage("\\n<Isabelle (Affection:\\V[3116])>Maybe I'll play with you next time. I just want to take it easy today.")
      0()
     EndIf()
     0()
    IfPlayerPicksChoice(2,null)
     0()
    404()
    0()
   EndIf()
   If(1,11,0,4,1)
    PictureClear(5)
    EndEventProcessing()
    0()
   EndIf()
   0()
  EndLoop()
  0()
 PAGE   2
  // condition: party contains actor #116
  0()



EVENT   15
 PAGE   1
  // condition: switch 1114 is ON
  PictureDisplay(5,"80_wakame_st01",0,0,0,0,100,100,0,0)
  PictureMove(5,null,0,0,0,0,100,100,255,0,30,true)
  If(1,3114,0,10,1)
   If(1,4114,0,0,0)
    ChangeVariable(4114,4114,0,0,1)
    ShowMessageFace("wakame_fc1",0,0,2,1)
    ShowMessage("\\n<Wakame (Affection:\\V[3114])>Sway, sway... This gift was drifting in the waves...")
    250(bytes(0x04,0x08,0x6f,0x3a,0x0c,0x52,0x50,0x47,0x3a,0x3a,0x53,0x45,0x08,0x3a,0x0a,0x40,0x6e,0x61,0x6d,0x65,0x49,0x22,0x0a,0x49,0x74,0x65,0x6d,0x31,0x06,0x3a,0x06,0x45,0x54,0x3a,0x0b,0x40,0x70,0x69,0x74,0x63,0x68,0x69,0x69,0x3a,0x0c,0x40,0x76,0x6f,0x6c,0x75,0x6d,0x65,0x69,0x55))
    ChangeInventory_Item(71,0,0,1)
    0()
   EndIf()
   0()
  EndIf()
  If(1,3114,0,100,1)
   If(1,4114,0,1,0)
    ChangeVariable(4114,4114,0,0,2)
    ShowMessageFace("wakame_fc1",0,0,2,2)
    ShowMessage("\\n<Wakame (Affection:\\V[3114])>Sway, sway... This gift was drifting in the waves...")
    250(bytes(0x04,0x08,0x6f,0x3a,0x0c,0x52,0x50,0x47,0x3a,0x3a,0x53,0x45,0x08,0x3a,0x0a,0x40,0x6e,0x61,0x6d,0x65,0x49,0x22,0x0a,0x49,0x74,0x65,0x6d,0x31,0x06,0x3a,0x06,0x45,0x54,0x3a,0x0b,0x40,0x70,0x69,0x74,0x63,0x68,0x69,0x69,0x3a,0x0c,0x40,0x76,0x6f,0x6c,0x75,0x6d,0x65,0x69,0x55))
    ChangeInventoryArmor(1171,0,0,1,false)
    0()
   EndIf()
   0()
  EndIf()
  If(1,3114,0,500,1)
   If(1,4114,0,2,0)
    ChangeVariable(4114,4114,0,0,3)
    ShowMessageFace("wakame_fc1",0,0,2,3)
    ShowMessage("\\n<Wakame (Affection:\\V[3114])>Sway, sway... This gift was drifting in the waves...")
    250(bytes(0x04,0x08,0x6f,0x3a,0x0c,0x52,0x50,0x47,0x3a,0x3a,0x53,0x45,0x08,0x3a,0x0a,0x40,0x6e,0x61,0x6d,0x65,0x49,0x22,0x0a,0x49,0x74,0x65,0x6d,0x31,0x06,0x3a,0x06,0x45,0x54,0x3a,0x0b,0x40,0x70,0x69,0x74,0x63,0x68,0x69,0x69,0x3a,0x0c,0x40,0x76,0x6f,0x6c,0x75,0x6d,0x65,0x69,0x55))
    ChangeInventoryArmor(1012,0,0,1,false)
    0()
   EndIf()
   0()
  EndIf()
  If(1,3114,0,2000,1)
   If(1,4114,0,3,0)
    ChangeVariable(4114,4114,0,0,4)
    ShowMessageFace("wakame_fc1",0,0,2,4)
    ShowMessage("\\n<Wakame (Affection:\\V[3114])>Sway, sway... This gift was drifting in the waves...")
    250(bytes(0x04,0x08,0x6f,0x3a,0x0c,0x52,0x50,0x47,0x3a,0x3a,0x53,0x45,0x08,0x3a,0x0a,0x40,0x6e,0x61,0x6d,0x65,0x49,0x22,0x0a,0x49,0x74,0x65,0x6d,0x31,0x06,0x3a,0x06,0x45,0x54,0x3a,0x0b,0x40,0x70,0x69,0x74,0x63,0x68,0x69,0x69,0x3a,0x0c,0x40,0x76,0x6f,0x6c,0x75,0x6d,0x65,0x69,0x55))
    ChangeInventoryArmor(1143,0,0,1,false)
    0()
   EndIf()
   0()
  EndIf()
  355("actor_label_jump")
  ShowMessageFace("wakame_fc1",1,0,2,5)
  ShowMessage("\\n<Wakame (Affection:\\V[3114])>Seaweed sway, sway... Happy dance, happy dance...")
  JumpToLabel("メニュー")
  DefineLabel("41")
  ShowMessageFace("wakame_fc1",0,0,2,6)
  ShowMessage("\\n<Wakame (Affection:\\V[3114])>Seaweed sway...")
  ShowMessageFace("stein_fc2",0,0,2,7)
  ShowMessage("\\n<Promestein (Affection:\\V[3041])>It's seaweed... Surprisingly, the traits of the ancient organism still remain...")
  ShowMessageFace("stein_fc2",1,0,2,8)
  ShowMessage("\\n<Promestein (Affection:\\V[3041])>...I have an idea!")
  ShowMessageFace("wakame_fc1",1,0,2,9)
  ShowMessage("\\n<Wakame (Affection:\\V[3114])>About how to make delicious miso soup...?")
  ShowMessageFace("stein_fc2",0,0,2,10)
  ShowMessage("\\n<Promestein (Affection:\\V[3041])>No, something else.")
  JumpToLabel("メニュー")
  DefineLabel("108")
  ShowMessageFace("wakame_fc1",0,0,2,11)
  ShowMessage("\\n<Wakame (Affection:\\V[3114])>Stick both of us in a pot together, and we'd make a good seasoning...")
  ShowMessageFace("kai_fc1",2,0,2,12)
  ShowMessage("\\n<Shelly (Affection:\\V[3108])>Are you really okay with being turned into miso soup?")
  If(4,102,0)
   ShowMessageFace("youko_fc1",0,0,2,14)
   ShowMessage("\\n<Kitsu (Affection:\\V[3102])>Oh, can we add tofu?")
   ShowMessageFace("kai_fc1",0,0,2,15)
   ShowMessage("\\n<Shelly (Affection:\\V[3108])>On second thought, let's have kitsune soup...")
   0()
  EndIf()
  JumpToLabel("メニュー")
  DefineLabel("115")
  ShowMessageFace("wakame_fc1",1,0,2,15)
  ShowMessage("\\n<Wakame (Affection:\\V[3114])>Jellyfishie, sway, sway...")
  ShowMessageFace("kurage_fc1",0,0,2,16)
  ShowMessage("\\n<Kurage (Affection:\\V[3115])>Seaweedie, swish, swish...")
  ShowMessageFace("wakame_fc1",1,0,2,17)
  ShowMessage("\\n<Wakame (Affection:\\V[3114])>Let's dance. Sway, sway, swaying...")
  ShowMessageFace("kurage_fc1",0,0,2,18)
  ShowMessage("\\n<Kurage (Affection:\\V[3115])>Swish, swish, swishing...")
  JumpToLabel("メニュー")
  DefineLabel("メニュー")
  StartLoop()
   355("unlimited_choices(11, [\"Give presents\",")
   655("\"Add to party\",")
   655("\"View present list\",\"Request\",")
   655("\"Never mind\"])")
   If(1,11,0,0,0)
    355("present_start(114)")
    0()
   EndIf()
   If(1,11,0,1,0)
    PictureClear(5)
    355("move_actor_ex(114)")
    EndEventProcessing()
    0()
   EndIf()
   If(1,11,0,2,0)
    ShowMessageFace("",0,0,2,19)
    ShowMessage("Affection       10:\\ii[71]")
    ShowMessage("Affection     100:\\ia[1171]")
    ShowMessage("Affection     500:\\ia[1012]")
    ShowMessage("Affection   2000:\\ia[1143]")
    0()
   EndIf()
   If(1,11,0,3,0)
    PictureClear(5)
    ShowMessageFace("",0,0,2,20)
    ShowMessage("Ask her for what? (Affection:\\V[3114])")
    ShowChoices(strings("Semen Squeezing Seaweed(Affection:10)","ワカメ交尾（好感度:50）","ワカメ吸精（好感度:100）","Never mind"),4)
    IfPlayerPicksChoice(0,null)
     If(1,3114,0,10,1)
      355("call_novel_scene(4361)")
      EndEventProcessing()
      0()
     Else()
      ShowMessageFace("wakame_fc1",0,0,2,21)
      ShowMessage("\\n<Wakame (Affection:\\V[3114])>Sway, sway, sway...")
      0()
     EndIf()
     0()
    IfPlayerPicksChoice(1,null)
     If(1,3114,0,50,1)
      355("call_novel_scene(4362)")
      EndEventProcessing()
      0()
     Else()
      ShowMessageFace("wakame_fc1",0,0,2,22)
      ShowMessage("【わかめ】（好感度：\\V[3114]）")
      ShowMessage("ゆらゆらゆら……")
      0()
     EndIf()
     0()
    IfPlayerPicksChoice(2,null)
     If(1,3114,0,100,1)
      355("call_novel_scene(4363)")
      EndEventProcessing()
      0()
     Else()
      ShowMessageFace("wakame_fc1",0,0,2,23)
      ShowMessage("【わかめ】（好感度：\\V[3114]）")
      ShowMessage("ゆらゆらゆら……")
      0()
     EndIf()
     0()
    IfPlayerPicksChoice(3,null)
     0()
    404()
    0()
   EndIf()
   If(1,11,0,4,1)
    PictureClear(5)
    EndEventProcessing()
    0()
   EndIf()
   0()
  EndLoop()
  0()
 PAGE   2
  // condition: party contains actor #114
  0()



EVENT   16
 PAGE   1
  // condition: switch 1099 is ON
  PictureDisplay(5,"80_namazu_st01",0,0,0,0,100,100,0,0)
  PictureMove(5,null,0,0,0,0,100,100,255,0,30,true)
  If(1,3099,0,10,1)
   If(1,4099,0,0,0)
    ChangeVariable(4099,4099,0,0,1)
    ShowMessageFace("namazu_fc1",0,0,2,1)
    ShowMessage("\\n<Gigi (Affection:\\V[3099])>Here, take this. I give gifts every now and then.")
    250(bytes(0x04,0x08,0x6f,0x3a,0x0c,0x52,0x50,0x47,0x3a,0x3a,0x53,0x45,0x08,0x3a,0x0a,0x40,0x6e,0x61,0x6d,0x65,0x49,0x22,0x0a,0x49,0x74,0x65,0x6d,0x31,0x06,0x3a,0x06,0x45,0x54,0x3a,0x0b,0x40,0x70,0x69,0x74,0x63,0x68,0x69,0x69,0x3a,0x0c,0x40,0x76,0x6f,0x6c,0x75,0x6d,0x65,0x69,0x55))
    ChangeInventory_Item(67,0,0,1)
    0()
   EndIf()
   0()
  EndIf()
  If(1,3099,0,100,1)
   If(1,4099,0,1,0)
    ChangeVariable(4099,4099,0,0,2)
    ShowMessageFace("namazu_fc1",0,0,2,2)
    ShowMessage("\\n<Gigi (Affection:\\V[3099])>Here, take this. I give gifts every now and then.")
    250(bytes(0x04,0x08,0x6f,0x3a,0x0c,0x52,0x50,0x47,0x3a,0x3a,0x53,0x45,0x08,0x3a,0x0a,0x40,0x6e,0x61,0x6d,0x65,0x49,0x22,0x0a,0x49,0x74,0x65,0x6d,0x31,0x06,0x3a,0x06,0x45,0x54,0x3a,0x0b,0x40,0x70,0x69,0x74,0x63,0x68,0x69,0x69,0x3a,0x0c,0x40,0x76,0x6f,0x6c,0x75,0x6d,0x65,0x69,0x55))
    ChangeInventoryArmor(1081,0,0,1,false)
    0()
   EndIf()
   0()
  EndIf()
  If(1,3099,0,500,1)
   If(1,4099,0,2,0)
    ChangeVariable(4099,4099,0,0,3)
    ShowMessageFace("namazu_fc1",0,0,2,3)
    ShowMessage("\\n<Gigi (Affection:\\V[3099])>Here, take this. I give gifts every now and then.")
    250(bytes(0x04,0x08,0x6f,0x3a,0x0c,0x52,0x50,0x47,0x3a,0x3a,0x53,0x45,0x08,0x3a,0x0a,0x40,0x6e,0x61,0x6d,0x65,0x49,0x22,0x0a,0x49,0x74,0x65,0x6d,0x31,0x06,0x3a,0x06,0x45,0x54,0x3a,0x0b,0x40,0x70,0x69,0x74,0x63,0x68,0x69,0x69,0x3a,0x0c,0x40,0x76,0x6f,0x6c,0x75,0x6d,0x65,0x69,0x55))
    ChangeInventoryArmor(1249,0,0,1,false)
    0()
   EndIf()
   0()
  EndIf()
  If(1,3099,0,2000,1)
   If(1,4099,0,3,0)
    ChangeVariable(4099,4099,0,0,4)
    ShowMessageFace("namazu_fc1",0,0,2,4)
    ShowMessage("\\n<Gigi (Affection:\\V[3099])>Here, take this. I give gifts every now and then.")
    250(bytes(0x04,0x08,0x6f,0x3a,0x0c,0x52,0x50,0x47,0x3a,0x3a,0x53,0x45,0x08,0x3a,0x0a,0x40,0x6e,0x61,0x6d,0x65,0x49,0x22,0x0a,0x49,0x74,0x65,0x6d,0x31,0x06,0x3a,0x06,0x45,0x54,0x3a,0x0b,0x40,0x70,0x69,0x74,0x63,0x68,0x69,0x69,0x3a,0x0c,0x40,0x76,0x6f,0x6c,0x75,0x6d,0x65,0x69,0x55))
    ChangeInventoryArmor(1501,0,0,1,false)
    0()
   EndIf()
   0()
  EndIf()
  355("actor_label_jump")
  ShowMessageFace("namazu_fc1",0,0,2,5)
  ShowMessage("\\n<Gigi (Affection:\\V[3099])>Don't underestimate me just because I'm old. I'm still on active duty.")
  JumpToLabel("メニュー")
  DefineLabel("55")
  ShowMessageFace("name_fc1",2,0,2,6)
  ShowMessage("\\n<Melk (Affection:\\V[3055])>The world sure is big. There are even fish who are slimy friends!")
  ShowMessageFace("namazu_fc1",0,0,2,7)
  ShowMessage("\\n<Gigi (Affection:\\V[3099])>W-well... Um, pleased to meet you.")
  ShowMessageFace("name_fc1",2,0,2,8)
  ShowMessage("\\n<Melk (Affection:\\V[3055])>Is it all right if I come play at your place?")
  ShowMessageFace("namazu_fc1",2,0,2,9)
  ShowMessage("\\n<Gigi (Affection:\\V[3099])>You really shouldn't. You'd melt in the sea.")
  JumpToLabel("メニュー")
  DefineLabel("117")
  ShowMessageFace("namazu_fc1",0,0,2,10)
  ShowMessage("\\n<Gigi (Affection:\\V[3099])>Oh-ho... Seems we're both rather odd mermaids, aren't we?")
  ShowMessageFace("ankou_fc1",0,0,2,11)
  ShowMessage("\\n<Anko (Affection:\\V[3117])>Odd...?")
  ShowMessageFace("namazu_fc1",0,0,2,12)
  ShowMessage("\\n<Gigi (Affection:\\V[3099])>Oh, never mind.")
  ShowMessageFace("ankou_fc1",0,0,2,13)
  ShowMessage("\\n<Anko (Affection:\\V[3117])>............")
  ShowMessageFace("namazu_fc1",2,0,2,14)
  ShowMessage("\\n<Gigi (Affection:\\V[3099])>Don't hold your lure in front of my eyes. Are you trying to hook me?")
  JumpToLabel("メニュー")
  DefineLabel("118")
  ShowMessageFace("meia_fc1",1,0,2,15)
  ShowMessage("\\n<Meia (Affection:\\V[3118])>Oh, hello Gigi.")
  ShowMessageFace("namazu_fc1",0,0,2,16)
  ShowMessage("\\n<Gigi (Affection:\\V[3099])>Oh, you're a mermaid from Port Natalia. That's a nice town. I'd like to retire there.")
  ShowMessageFace("meia_fc1",2,0,2,17)
  ShowMessage("\\n<Meia (Affection:\\V[3118])>You're not old enough to retire. There are mermaids who have been working for 800 years.")
  ShowMessageFace("namazu_fc1",0,0,2,18)
  ShowMessage("\\n<Gigi (Affection:\\V[3099])>Well, I'll do my best regardless... By the way, at what age do you think humans stop working?")
  ShowMessageFace("meia_fc1",3,0,2,19)
  ShowMessage("\\n<Meia (Affection:\\V[3118])>Huh? Maybe... 12 years old?")
  JumpToLabel("メニュー")
  DefineLabel("メニュー")
  StartLoop()
   355("unlimited_choices(11, [\"Give presents\",")
   655("\"Add to party\",")
   655("\"View present list\",\"Request\",")
   655("\"Never mind\"])")
   If(1,11,0,0,0)
    355("present_start(99)")
    0()
   EndIf()
   If(1,11,0,1,0)
    PictureClear(5)
    355("move_actor_ex(99)")
    EndEventProcessing()
    0()
   EndIf()
   If(1,11,0,2,0)
    ShowMessageFace("",0,0,2,20)
    ShowMessage("Affection       10:\\ii[67]")
    ShowMessage("Affection     100:\\ia[1081]")
    ShowMessage("Affection     500:\\ia[1249]")
    ShowMessage("Affection   2000:\\ia[1501]")
    0()
   EndIf()
   If(1,11,0,3,0)
    PictureClear(5)
    ShowMessageFace("",0,0,2,21)
    ShowMessage("Ask her for what? (Affection:\\V[3099])")
    ShowChoices(strings("Paizuri(Affection:10)","Never mind"),2)
    IfPlayerPicksChoice(0,null)
     If(1,3099,0,10,1)
      355("call_novel_scene(4286)")
      EndEventProcessing()
      0()
     Else()
      ShowMessageFace("namazu_fc1",2,0,2,22)
      ShowMessage("\\n<Gigi (Affection:\\V[3099])>I'm not in the mood today...")
      0()
     EndIf()
     0()
    IfPlayerPicksChoice(1,null)
     0()
    404()
    0()
   EndIf()
   If(1,11,0,4,1)
    PictureClear(5)
    EndEventProcessing()
    0()
   EndIf()
   0()
  EndLoop()
  0()
 PAGE   2
  // condition: party contains actor #99
  0()



EVENT   17
 PAGE   1
  // condition: switch 1199 is ON
  PictureDisplay(5,"80_dagon_st01",0,0,0,0,100,100,0,0)
  PictureMove(5,null,0,0,0,0,100,100,255,0,30,true)
  If(1,3199,0,100,1)
   If(1,4199,0,0,0)
    ChangeVariable(4199,4199,0,0,1)
    ShowMessageFace("dagon_fc1",1,0,2,1)
    ShowMessage("\\n<セラフィ (Affection:\\V[3199])>海で拾っちゃいました♪")
    250(bytes(0x04,0x08,0x6f,0x3a,0x0c,0x52,0x50,0x47,0x3a,0x3a,0x53,0x45,0x08,0x3a,0x0a,0x40,0x6e,0x61,0x6d,0x65,0x49,0x22,0x0a,0x49,0x74,0x65,0x6d,0x31,0x06,0x3a,0x06,0x45,0x54,0x3a,0x0b,0x40,0x70,0x69,0x74,0x63,0x68,0x69,0x69,0x3a,0x0c,0x40,0x76,0x6f,0x6c,0x75,0x6d,0x65,0x69,0x55))
    ChangeInventoryArmor(1056,0,0,1,false)
    0()
   EndIf()
   0()
  EndIf()
  If(1,3199,0,500,1)
   If(1,4199,0,1,0)
    ChangeVariable(4199,4199,0,0,2)
    ShowMessageFace("dagon_fc1",1,0,2,2)
    ShowMessage("\\n<セラフィ (Affection:\\V[3199])>海で拾っちゃいました♪")
    250(bytes(0x04,0x08,0x6f,0x3a,0x0c,0x52,0x50,0x47,0x3a,0x3a,0x53,0x45,0x08,0x3a,0x0a,0x40,0x6e,0x61,0x6d,0x65,0x49,0x22,0x0a,0x49,0x74,0x65,0x6d,0x31,0x06,0x3a,0x06,0x45,0x54,0x3a,0x0b,0x40,0x70,0x69,0x74,0x63,0x68,0x69,0x69,0x3a,0x0c,0x40,0x76,0x6f,0x6c,0x75,0x6d,0x65,0x69,0x55))
    ChangeInventoryArmor(1042,0,0,1,false)
    0()
   EndIf()
   0()
  EndIf()
  If(1,3199,0,2000,1)
   If(1,4199,0,2,0)
    ChangeVariable(4199,4199,0,0,3)
    ShowMessageFace("dagon_fc1",1,0,2,3)
    ShowMessage("\\n<セラフィ (Affection:\\V[3199])>海で拾っちゃいました♪")
    250(bytes(0x04,0x08,0x6f,0x3a,0x0c,0x52,0x50,0x47,0x3a,0x3a,0x53,0x45,0x08,0x3a,0x0a,0x40,0x6e,0x61,0x6d,0x65,0x49,0x22,0x0a,0x49,0x74,0x65,0x6d,0x31,0x06,0x3a,0x06,0x45,0x54,0x3a,0x0b,0x40,0x70,0x69,0x74,0x63,0x68,0x69,0x69,0x3a,0x0c,0x40,0x76,0x6f,0x6c,0x75,0x6d,0x65,0x69,0x55))
    ChangeInventoryArmor(1513,0,0,1,false)
    0()
   EndIf()
   0()
  EndIf()
  If(1,3199,0,4000,1)
   If(1,4199,0,3,0)
    ChangeVariable(4199,4199,0,0,4)
    ShowMessageFace("dagon_fc1",1,0,2,4)
    ShowMessage("\\n<セラフィ (Affection:\\V[3199])>海で拾っちゃいました♪")
    250(bytes(0x04,0x08,0x6f,0x3a,0x0c,0x52,0x50,0x47,0x3a,0x3a,0x53,0x45,0x08,0x3a,0x0a,0x40,0x6e,0x61,0x6d,0x65,0x49,0x22,0x0a,0x49,0x74,0x65,0x6d,0x31,0x06,0x3a,0x06,0x45,0x54,0x3a,0x0b,0x40,0x70,0x69,0x74,0x63,0x68,0x69,0x69,0x3a,0x0c,0x40,0x76,0x6f,0x6c,0x75,0x6d,0x65,0x69,0x55))
    ChangeInventoryArmor(1014,0,0,1,false)
    0()
   EndIf()
   0()
  EndIf()
  355("actor_label_jump")
  ShowMessageFace("dagon_fc1",0,0,2,5)
  ShowMessage("\\n<セラフィ (Affection:\\V[3199])>ふらふら～……")
  ShowMessage("えっ？　ご用ですか？")
  JumpToLabel("メニュー")
  DefineLabel("115")
  ShowMessageFace("dagon_fc1",0,0,2,6)
  ShowMessage("\\n<セラフィ (Affection:\\V[3199])>ふらふら～")
  ShowMessageFace("kurage_fc1",0,0,2,7)
  ShowMessage("\\n<くらげ (Affection:\\V[3115])>ゆらゆら……")
  ShowMessageFace("dagon_fc1",0,0,2,8)
  ShowMessage("\\n<セラフィ (Affection:\\V[3199])>私達って、そっくりですよね。")
  ShowMessage("同類同士、仲良くしましょうよ♪")
  ShowMessageFace("kurage_fc1",0,0,2,9)
  ShowMessage("\\n<くらげ (Affection:\\V[3115])>くらげとたこって、同類なの……？")
  ShowMessageFace("dagon_fc1",0,0,2,10)
  ShowMessage("\\n<セラフィ (Affection:\\V[3199])>かたい事は、言いっこなし♪")
  JumpToLabel("メニュー")
  DefineLabel("252")
  ShowMessageFace("dagon_fc1",0,0,2,11)
  ShowMessage("\\n<セラフィ (Affection:\\V[3199])>タコです！")
  ShowMessageFace("scylla_fc1",2,0,2,12)
  ShowMessage("\\n<キューラ (Affection:\\V[3252])>私は、イカじゃないわよ……")
  ShowMessageFace("dagon_fc1",0,0,2,13)
  ShowMessage("\\n<セラフィ (Affection:\\V[3199])>なぜ素直に認めないんですかぁ……？")
  ShowMessageFace("scylla_fc1",2,0,2,14)
  ShowMessage("\\n<キューラ (Affection:\\V[3252])>だから、イカじゃないって言ってるでしょ！")
  JumpToLabel("メニュー")
  DefineLabel("258")
  ShowMessageFace("dagon_fc1",0,0,2,15)
  ShowMessage("\\n<セラフィ (Affection:\\V[3199])>ふらふら～。")
  ShowMessage("私、人魚に化けてるんですよ。")
  ShowMessageFace("fakejelly_fc1",0,0,2,16)
  ShowMessage("\\n<アルネ (Affection:\\V[3258])>私も、人間に化けているんです。")
  ShowMessage("お互い、変装が得意なんですね……")
  ShowMessageFace("dagon_fc1",0,0,2,17)
  ShowMessage("\\n<セラフィ (Affection:\\V[3199])>（でも、体が透けてちゃバレバレですよね……）")
  ShowMessageFace("fakejelly_fc1",0,0,2,18)
  ShowMessage("\\n<アルネ (Affection:\\V[3258])>（人魚に見えないし、騙される人はいないんじゃ……）")
  JumpToLabel("メニュー")
  DefineLabel("メニュー")
  StartLoop()
   355("unlimited_choices(11, [\"Give presents\",")
   655("\"Add to party\",")
   655("\"View present list\",\"Request\",")
   655("\"Never mind\"])")
   If(1,11,0,0,0)
    355("present_start(199)")
    0()
   EndIf()
   If(1,11,0,1,0)
    PictureClear(5)
    355("move_actor_ex(199)")
    EndEventProcessing()
    0()
   EndIf()
   If(1,11,0,2,0)
    ShowMessageFace("",0,0,2,19)
    ShowMessage("Affection     100:\\ia[1056]")
    ShowMessage("Affection     500:\\ia[1042]")
    ShowMessage("Affection   2000:\\ia[1513]")
    ShowMessage("Affection   4000:\\ia[1014]")
    0()
   EndIf()
   If(1,11,0,3,0)
    PictureClear(5)
    ShowMessageFace("",0,0,2,20)
    ShowMessage("Ask her for what? (Affection:\\V[3199])")
    ShowChoices(strings("Forcible Semen Squeeze(Affection:10)","Never mind"),2)
    IfPlayerPicksChoice(0,null)
     If(1,3199,0,10,1)
      355("call_novel_scene(4806)")
      EndEventProcessing()
      0()
     Else()
      ShowMessageFace("dagon_fc1",0,0,2,21)
      ShowMessage("\\n<セラフィ (Affection:\\V[3199])>今日は流されますので……")
      0()
     EndIf()
     0()
    IfPlayerPicksChoice(1,null)
     0()
    404()
    0()
   EndIf()
   If(1,11,0,4,1)
    PictureClear(5)
    EndEventProcessing()
    0()
   EndIf()
   0()
  EndLoop()
  0()
 PAGE   2
  // condition: party contains actor #199
  0()
